<?xml version="1.0" encoding="UTF-8" standalone="no"?>
<!-- Created with Inkscape (http://www.inkscape.org/) -->

<svg
   xmlns:dc="http://purl.org/dc/elements/1.1/"
   xmlns:cc="http://creativecommons.org/ns#"
   xmlns:rdf="http://www.w3.org/1999/02/22-rdf-syntax-ns#"
   xmlns:svg="http://www.w3.org/2000/svg"
   xmlns="http://www.w3.org/2000/svg"
   xmlns:sodipodi="http://sodipodi.sourceforge.net/DTD/sodipodi-0.dtd"
   xmlns:inkscape="http://www.inkscape.org/namespaces/inkscape"
   width="140mm"
   height="56mm"
   viewBox="0 0 140 56"
   version="1.1"
   id="svg8"
   sodipodi:docname="testbild.svg"
   inkscape:version="0.92.4 (5da689c313, 2019-01-14)">
  <defs
     id="defs2" />
  <sodipodi:namedview
     id="base"
     pagecolor="#ffffff"
     bordercolor="#666666"
     borderopacity="1.0"
     inkscape:pageopacity="0.0"
     inkscape:pageshadow="2"
     inkscape:zoom="2"
     inkscape:cx="229.05685"
     inkscape:cy="106.95041"
     inkscape:document-units="mm"
     inkscape:current-layer="layer2"
     showgrid="false"
     fit-margin-top="15"
     fit-margin-left="10"
     fit-margin-right="15"
     fit-margin-bottom="20" />
  <metadata
     id="metadata5">
    <rdf:RDF>
      <cc:Work
         rdf:about="">
        <dc:format>image/svg+xml</dc:format>
        <dc:type
           rdf:resource="http://purl.org/dc/dcmitype/StillImage" />
        <dc:title />
      </cc:Work>
    </rdf:RDF>
  </metadata>
  <g
     inkscape:label="Layer 1"
     inkscape:groupmode="layer"
     id="layer1"
     transform="translate(-6.5679807,-47.129808)">
    <flowRoot
       xml:space="preserve"
       id="flowRoot825"
       style="font-style:normal;font-weight:normal;font-size:40px;line-height:1.25;font-family:sans-serif;letter-spacing:0px;word-spacing:0px;fill:#000000;fill-opacity:1;stroke:none"
       transform="scale(0.26458333)"><flowRegion
         id="flowRegion827"><rect
           id="rect829"
           width="288.57144"
           height="70"
           x="218.57143"
           y="229.66254" /></flowRegion><flowPara
         id="flowPara831" /></flowRoot>    <text
       xml:space="preserve"
       style="font-style:normal;font-weight:normal;font-size:10.58333302px;line-height:1.25;font-family:sans-serif;letter-spacing:0px;word-spacing:0px;fill:#000000;fill-opacity:1;stroke:none;stroke-width:0.26458332"
       x="66.374527"
       y="95.570282"
       id="text835"><tspan
         sodipodi:role="line"
         id="tspan833"
         x="66.374527"
         y="104.93405"
         style="stroke-width:0.26458332" /></text>
    <path
       sodipodi:type="star"
       style="opacity:1;fill:#ff00bf;fill-opacity:0.39215686;stroke:none;stroke-width:0.39687499;stroke-miterlimit:4;stroke-dasharray:none;stroke-opacity:1"
       id="path843"
       sodipodi:sides="5"
       sodipodi:cx="47.011433"
       sodipodi:cy="55.126831"
       sodipodi:r1="35.156872"
       sodipodi:r2="18.281572"
       sodipodi:arg1="0.96154555"
       sodipodi:arg2="1.5898641"
       inkscape:flatsided="false"
       inkscape:rounded="0.08"
       inkscape:randomized="9.7838404e-16"
       d="M 67.130065,83.958173 C 65.619307,85.012386 48.504744,73.440205 46.662865,73.40508 44.820985,73.369955 27.277662,84.281208 25.808197,83.170162 24.338731,82.059116 30.055838,62.206199 29.520071,60.443613 28.984305,58.681027 13.185902,45.368098 13.78848,43.627221 c 0.602577,-1.740877 21.250507,-2.438474 22.761265,-3.492687 1.510757,-1.054213 9.29013,-20.193309 11.13201,-20.158184 1.841879,0.03513 8.885894,19.456904 10.35536,20.56795 1.469466,1.111046 22.075786,2.595364 22.611552,4.357949 0.535767,1.762586 -15.758722,14.463502 -16.3613,16.204379 -0.602578,1.740878 4.353456,21.797332 2.842698,22.851545 z"
       inkscape:transform-center-x="1.6350275"
       inkscape:transform-center-y="1.862765"
       transform="matrix(0.50613098,-0.19123764,0.18156807,0.48053941,-5.7400083,66.222772)" />
    <path
       sodipodi:type="star"
       style="opacity:1;fill:#faff00;fill-opacity:0.39215686;stroke:none;stroke-width:0.39687499;stroke-miterlimit:4;stroke-dasharray:none;stroke-opacity:1"
       id="path843-5"
       sodipodi:sides="5"
       sodipodi:cx="47.011433"
       sodipodi:cy="55.126831"
       sodipodi:r1="35.156872"
       sodipodi:r2="18.281572"
       sodipodi:arg1="0.96154555"
       sodipodi:arg2="1.5898641"
       inkscape:flatsided="false"
       inkscape:rounded="0.08"
       inkscape:randomized="9.7838404e-16"
       d="M 67.130065,83.958173 C 65.619307,85.012386 48.504744,73.440205 46.662865,73.40508 44.820985,73.369955 27.277662,84.281208 25.808197,83.170162 24.338731,82.059116 30.055838,62.206199 29.520071,60.443613 28.984305,58.681027 13.185902,45.368098 13.78848,43.627221 c 0.602577,-1.740877 21.250507,-2.438474 22.761265,-3.492687 1.510757,-1.054213 9.29013,-20.193309 11.13201,-20.158184 1.841879,0.03513 8.885894,19.456904 10.35536,20.56795 1.469466,1.111046 22.075786,2.595364 22.611552,4.357949 0.535767,1.762586 -15.758722,14.463502 -16.3613,16.204379 -0.602578,1.740878 4.353456,21.797332 2.842698,22.851545 z"
       inkscape:transform-center-x="-0.3559619"
       inkscape:transform-center-y="1.2597916"
       transform="matrix(1.0710003,0.14889254,-0.14136406,1.0168471,68.525934,17.010301)" />
    <path
       sodipodi:type="star"
       style="opacity:1;fill:#12ffff;fill-opacity:0.39215686;stroke:none;stroke-width:0.39687499;stroke-miterlimit:4;stroke-dasharray:none;stroke-opacity:1"
       id="path843-9"
       sodipodi:sides="5"
       sodipodi:cx="47.011433"
       sodipodi:cy="55.126831"
       sodipodi:r1="35.156872"
       sodipodi:r2="18.281572"
       sodipodi:arg1="0.96154555"
       sodipodi:arg2="1.5898641"
       inkscape:flatsided="false"
       inkscape:rounded="0.08"
       inkscape:randomized="9.7838404e-16"
       d="M 67.130065,83.958173 C 65.619307,85.012386 48.504744,73.440205 46.662865,73.40508 44.820985,73.369955 27.277662,84.281208 25.808197,83.170162 24.338731,82.059116 30.055838,62.206199 29.520071,60.443613 28.984305,58.681027 13.185902,45.368098 13.78848,43.627221 c 0.602577,-1.740877 21.250507,-2.438474 22.761265,-3.492687 1.510757,-1.054213 9.29013,-20.193309 11.13201,-20.158184 1.841879,0.03513 8.885894,19.456904 10.35536,20.56795 1.469466,1.111046 22.075786,2.595364 22.611552,4.357949 0.535767,1.762586 -15.758722,14.463502 -16.3613,16.204379 -0.602578,1.740878 4.353456,21.797332 2.842698,22.851545 z"
       inkscape:transform-center-x="-1.2501055"
       inkscape:transform-center-y="0.95920189"
       transform="matrix(0.20273817,-0.25006272,0.23741877,0.19248711,35.82827,59.769131)" />
  </g>
  <g
     inkscape:groupmode="layer"
     id="layer2"
     inkscape:label="Layer 2"
     transform="translate(5,-0.41987991)">
    <g
       aria-label="Willkommen bei
Mathe-Maister ~~~"
       transform="matrix(0.26458333,0,0,0.26458333,-11.567981,-46.709928)"
       style="font-style:normal;font-weight:normal;font-size:40px;line-height:1.25;font-family:sans-serif;letter-spacing:0px;word-spacing:0px;fill:#000000;fill-opacity:1;stroke:#ffffff;stroke-opacity:1;stroke-width:1.13385828;stroke-miterlimit:4;stroke-dasharray:none;paint-order:stroke fill markers"
       id="flowRoot815">
      <path
         id="path955"
         style="font-style:normal;font-variant:normal;font-weight:bold;font-stretch:normal;font-family:sans-serif;-inkscape-font-specification:'sans-serif Bold';fill:#000000;fill-opacity:1;stroke:#ffffff;stroke-opacity:1;stroke-width:1.13385828;stroke-miterlimit:4;stroke-dasharray:none;paint-order:stroke fill markers"
         d="m 500.39258,297.02344 v 4.76562 q -2.07031,1.5625 -3.82813,2.2461 -1.73828,0.66406 -3.61328,0.66406 -2.08984,0 -4.88281,-1.13281 -0.27344,-0.11719 -0.42969,-0.17579 -0.13672,-0.0586 -0.42969,-0.17578 -3.02734,-1.1914 -4.86328,-1.1914 -1.71875,0 -3.39843,0.76172 -1.67969,0.74218 -3.59375,2.36328 v -4.76563 q 2.08984,-1.5625 3.82812,-2.22656 1.73828,-0.68359 3.61328,-0.68359 2.08985,0 4.88281,1.13281 0.29297,0.11719 0.42969,0.17578 0.13672,0.0586 0.42969,0.17578 3.02734,1.19141 4.86328,1.19141 1.67969,0 3.32031,-0.72266 1.66016,-0.74219 3.67188,-2.40234 z m -33.51563,0 v 4.76562 q -2.07031,1.5625 -3.82812,2.2461 -1.73828,0.66406 -3.61328,0.66406 -2.08985,0 -4.88282,-1.13281 -0.27343,-0.11719 -0.42968,-0.17579 -0.13672,-0.0586 -0.42969,-0.17578 -3.02734,-1.1914 -4.86328,-1.1914 -1.71875,0 -3.39844,0.76172 -1.67969,0.74218 -3.59375,2.36328 v -4.76563 q 2.08984,-1.5625 3.82813,-2.22656 1.73828,-0.68359 3.61328,-0.68359 2.08984,0 4.88281,1.13281 0.29297,0.11719 0.42969,0.17578 0.13672,0.0586 0.42968,0.17578 3.02735,1.19141 4.86329,1.19141 1.67968,0 3.32031,-0.72266 1.66015,-0.74219 3.67187,-2.40234 z m -33.51562,0 v 4.76562 q -2.07031,1.5625 -3.82813,2.2461 -1.73828,0.66406 -3.61328,0.66406 -2.08984,0 -4.88281,-1.13281 -0.27344,-0.11719 -0.42969,-0.17579 -0.13672,-0.0586 -0.42969,-0.17578 -3.02734,-1.1914 -4.86328,-1.1914 -1.71875,0 -3.39843,0.76172 -1.67969,0.74218 -3.59375,2.36328 v -4.76563 q 2.08984,-1.5625 3.82812,-2.22656 1.73828,-0.68359 3.61328,-0.68359 2.08985,0 4.88281,1.13281 0.29297,0.11719 0.42969,0.17578 0.13672,0.0586 0.42969,0.17578 3.02734,1.19141 4.86328,1.19141 1.67969,0 3.32031,-0.72266 1.66016,-0.74219 3.67188,-2.40234 z m -43.33985,0.68359 q -0.91796,-0.42969 -1.83593,-0.625 -0.89844,-0.21484 -1.81641,-0.21484 -2.69531,0 -4.16016,1.73828 -1.44531,1.71875 -1.44531,4.9414 V 313.625 h -6.99219 V 291.75 h 6.99219 v 3.59375 q 1.34766,-2.14844 3.08594,-3.125 1.75781,-0.99609 4.19922,-0.99609 0.35156,0 0.76172,0.0391 0.41015,0.0195 1.1914,0.11719 z m -21.52343,4.92188 v 1.99218 h -16.34766 q 0.25391,2.46094 1.77734,3.69141 1.52344,1.23047 4.25782,1.23047 2.20703,0 4.51172,-0.64453 2.32421,-0.66407 4.76562,-1.99219 v 5.39062 q -2.48047,0.9375 -4.96094,1.40625 -2.48047,0.48829 -4.96093,0.48829 -5.9375,0 -9.23829,-3.00782 -3.28125,-3.02734 -3.28125,-8.47656 0,-5.35156 3.22266,-8.41797 3.24219,-3.0664 8.90625,-3.0664 5.15625,0 8.24219,3.10546 3.10547,3.10547 3.10547,8.30079 z m -7.1875,-2.32422 q 0,-1.99219 -1.17188,-3.20313 -1.15234,-1.23047 -3.02734,-1.23047 -2.03125,0 -3.30078,1.15235 -1.26953,1.13281 -1.58203,3.28125 z M 335.1582,285.53906 V 291.75 h 7.20703 v 5 h -7.20703 v 9.27734 q 0,1.52344 0.60547,2.07032 0.60547,0.52734 2.40235,0.52734 h 3.59375 v 5 h -5.9961 q -4.14062,0 -5.8789,-1.71875 -1.71875,-1.73828 -1.71875,-5.87891 V 296.75 h -3.47657 v -5 h 3.47657 v -6.21094 z m -14.375,6.89453 v 5.3125 q -2.24609,-0.9375 -4.33593,-1.40625 -2.08985,-0.46875 -3.94532,-0.46875 -1.99218,0 -2.96875,0.50782 -0.95703,0.48828 -0.95703,1.52343 0,0.83985 0.72266,1.28907 0.74219,0.44921 2.63672,0.66406 l 1.23047,0.17578 q 5.37109,0.68359 7.22656,2.24609 1.85547,1.5625 1.85547,4.90235 0,3.49609 -2.57813,5.2539 -2.57812,1.75782 -7.69531,1.75782 -2.16797,0 -4.49219,-0.35157 -2.30469,-0.33203 -4.74609,-1.01562 v -5.3125 q 2.08984,1.01562 4.27734,1.52344 2.20703,0.50781 4.47266,0.50781 2.05078,0 3.08594,-0.56641 1.03515,-0.5664 1.03515,-1.67969 0,-0.9375 -0.72265,-1.38671 -0.70313,-0.46875 -2.83204,-0.72266 l -1.23046,-0.15625 q -4.66797,-0.58594 -6.54297,-2.16797 -1.875,-1.58203 -1.875,-4.80469 0,-3.47656 2.38281,-5.15625 2.38281,-1.67968 7.30469,-1.67968 1.93359,0 4.0625,0.29296 2.1289,0.29297 4.6289,0.91797 z M 289.94336,291.75 h 6.99219 v 21.875 h -6.99219 z m 0,-8.51563 h 6.99219 v 5.70313 h -6.99219 z m -17.22656,20.54688 q -2.1875,0 -3.30078,0.74219 -1.09375,0.74218 -1.09375,2.1875 0,1.32812 0.8789,2.08984 0.89844,0.74219 2.48047,0.74219 1.97266,0 3.32031,-1.40625 1.34766,-1.42578 1.34766,-3.55469 v -0.80078 z m 10.68359,-2.63672 V 313.625 h -7.05078 v -3.24219 q -1.40625,1.99219 -3.16406,2.91016 -1.75782,0.89844 -4.27735,0.89844 -3.39843,0 -5.52734,-1.97266 -2.10938,-1.99219 -2.10938,-5.15625 0,-3.84766 2.63672,-5.64453 2.65625,-1.79688 8.32032,-1.79688 h 4.12109 v -0.54687 q 0,-1.66016 -1.30859,-2.42188 -1.3086,-0.78125 -4.08204,-0.78125 -2.24609,0 -4.17968,0.44922 -1.9336,0.44922 -3.59375,1.34766 v -5.33203 q 2.24609,-0.54688 4.51172,-0.82032 2.26562,-0.29296 4.53125,-0.29296 5.91796,0 8.53515,2.34375 2.63672,2.32421 2.63672,7.57812 z m -60.01953,-16.67969 h 9.57031 l 6.64063,15.60547 6.67968,-15.60547 h 9.55079 V 313.625 h -7.10938 v -21.32813 l -6.71875,15.72266 h -4.76562 l -6.71875,-15.72266 V 313.625 h -7.12891 z m -18.14453,14.80469 h 12.26562 v 5.68359 h -12.26562 z m -4.08203,3.35938 v 1.99218 h -16.34766 q 0.25391,2.46094 1.77734,3.69141 1.52344,1.23047 4.25782,1.23047 2.20703,0 4.51172,-0.64453 2.32421,-0.66407 4.76562,-1.99219 v 5.39062 q -2.48047,0.9375 -4.96094,1.40625 -2.48047,0.48829 -4.96093,0.48829 -5.9375,0 -9.23829,-3.00782 -3.28125,-3.02734 -3.28125,-8.47656 0,-5.35156 3.22266,-8.41797 3.24219,-3.0664 8.90625,-3.0664 5.15625,0 8.24219,3.10546 3.10547,3.10547 3.10547,8.30079 z m -7.1875,-2.32422 q 0,-1.99219 -1.17188,-3.20313 -1.15234,-1.23047 -3.02734,-1.23047 -2.03125,0 -3.30078,1.15235 -1.26953,1.13281 -1.58203,3.28125 z m -21.17188,0 V 313.625 h -7.03125 v -2.16797 -7.98828 q 0,-2.87109 -0.13672,-3.94531 -0.11718,-1.07422 -0.42968,-1.58203 -0.41016,-0.6836 -1.11329,-1.05469 -0.70312,-0.39063 -1.60156,-0.39063 -2.1875,0 -3.4375,1.69922 -1.25,1.67969 -1.25,4.66797 V 313.625 h -6.99219 v -30.39063 h 6.99219 v 11.71875 q 1.58203,-1.91406 3.35938,-2.8125 1.77734,-0.91796 3.92578,-0.91796 3.78906,0 5.74219,2.32421 1.97265,2.32422 1.97265,6.75782 z M 139.29883,285.53906 V 291.75 h 7.20703 v 5 h -7.20703 v 9.27734 q 0,1.52344 0.60547,2.07032 0.60547,0.52734 2.40234,0.52734 h 3.59375 v 5 h -5.99609 q -4.14063,0 -5.87891,-1.71875 -1.71875,-1.73828 -1.71875,-5.87891 V 296.75 h -3.47656 v -5 h 3.47656 v -6.21094 z m -24.86328,18.24219 q -2.1875,0 -3.30078,0.74219 -1.09375,0.74218 -1.09375,2.1875 0,1.32812 0.8789,2.08984 0.89844,0.74219 2.48047,0.74219 1.97266,0 3.32031,-1.40625 1.34766,-1.42578 1.34766,-3.55469 v -0.80078 z m 10.68359,-2.63672 V 313.625 h -7.05078 v -3.24219 q -1.40625,1.99219 -3.16406,2.91016 -1.75782,0.89844 -4.27735,0.89844 -3.39843,0 -5.52734,-1.97266 -2.10938,-1.99219 -2.10938,-5.15625 0,-3.84766 2.63672,-5.64453 2.65625,-1.79688 8.32032,-1.79688 h 4.12109 v -0.54687 q 0,-1.66016 -1.30859,-2.42188 -1.3086,-0.78125 -4.08204,-0.78125 -2.24609,0 -4.17968,0.44922 -1.9336,0.44922 -3.59375,1.34766 v -5.33203 q 2.24609,-0.54688 4.51172,-0.82032 2.26562,-0.29296 4.53125,-0.29296 5.91796,0 8.53515,2.34375 2.63672,2.32421 2.63672,7.57812 z M 65.099609,284.46484 h 9.570313 l 6.640625,15.60547 6.679687,-15.60547 h 9.550782 V 313.625 h -7.109375 v -21.32813 l -6.71875,15.72266 h -4.765625 l -6.71875,-15.72266 V 313.625 H 65.099609 Z M 411.97461,241.75 h 6.99219 v 21.875 h -6.99219 z m 0,-8.51563 h 6.99219 v 5.70313 h -6.99219 z m -5.27344,19.39454 v 1.99218 h -16.34765 q 0.2539,2.46094 1.77734,3.69141 1.52344,1.23047 4.25781,1.23047 2.20703,0 4.51172,-0.64453 2.32422,-0.66407 4.76563,-1.99219 v 5.39062 q -2.48047,0.9375 -4.96094,1.40625 -2.48047,0.48829 -4.96094,0.48829 -5.9375,0 -9.23828,-3.00782 -3.28125,-3.02734 -3.28125,-8.47656 0,-5.35156 3.22266,-8.41797 3.24218,-3.0664 8.90625,-3.0664 5.15625,0 8.24218,3.10546 3.10547,3.10547 3.10547,8.30079 z m -7.1875,-2.32422 q 0,-1.99219 -1.17187,-3.20313 -1.15235,-1.23047 -3.02735,-1.23047 -2.03125,0 -3.30078,1.15235 -1.26953,1.13281 -1.58203,3.28125 z m -31.67969,8.80859 q 2.2461,0 3.41797,-1.64062 1.19141,-1.64063 1.19141,-4.76563 0,-3.125 -1.19141,-4.76562 -1.17187,-1.64063 -3.41797,-1.64063 -2.24609,0 -3.45703,1.66016 -1.1914,1.64062 -1.1914,4.74609 0,3.10547 1.1914,4.76563 1.21094,1.64062 3.45703,1.64062 z m -4.64843,-14.16016 q 1.44531,-1.91406 3.20312,-2.8125 1.75781,-0.91796 4.04297,-0.91796 4.04297,0 6.64063,3.22265 2.59765,3.20313 2.59765,8.26172 0,5.05859 -2.59765,8.28125 -2.59766,3.20313 -6.64063,3.20313 -2.28516,0 -4.04297,-0.89844 -1.75781,-0.91797 -3.20312,-2.83203 v 3.16406 h -6.99219 v -30.39063 h 6.99219 z m -27.42188,5.35157 V 263.625 h -7.03125 v -2.16797 -8.02734 q 0,-2.83203 -0.13672,-3.90625 -0.11718,-1.07422 -0.42968,-1.58203 -0.41016,-0.6836 -1.11329,-1.05469 -0.70312,-0.39063 -1.60156,-0.39063 -2.1875,0 -3.4375,1.69922 -1.25,1.67969 -1.25,4.66797 V 263.625 h -6.99219 V 241.75 h 6.99219 v 3.20312 q 1.58203,-1.91406 3.35938,-2.8125 1.77734,-0.91796 3.92578,-0.91796 3.78906,0 5.74219,2.32421 1.97265,2.32422 1.97265,6.75782 z m -27.26562,2.32422 v 1.99218 h -16.34766 q 0.25391,2.46094 1.77734,3.69141 1.52344,1.23047 4.25782,1.23047 2.20703,0 4.51172,-0.64453 2.32421,-0.66407 4.76562,-1.99219 v 5.39062 q -2.48047,0.9375 -4.96094,1.40625 -2.48047,0.48829 -4.96093,0.48829 -5.9375,0 -9.23829,-3.00782 -3.28125,-3.02734 -3.28125,-8.47656 0,-5.35156 3.22266,-8.41797 3.24219,-3.0664 8.90625,-3.0664 5.15625,0 8.24219,3.10546 3.10547,3.10547 3.10547,8.30079 z m -7.1875,-2.32422 q 0,-1.99219 -1.17188,-3.20313 -1.15234,-1.23047 -3.02734,-1.23047 -2.03125,0 -3.30078,1.15235 -1.26953,1.13281 -1.58203,3.28125 z m -36.09375,-4.92188 q 1.32812,-2.03125 3.14453,-3.08594 1.83594,-1.07421 4.02344,-1.07421 3.76953,0 5.74218,2.32421 1.97266,2.32422 1.97266,6.75782 V 263.625 h -7.03125 v -11.40625 q 0.0195,-0.25391 0.0195,-0.52734 0.0195,-0.27344 0.0195,-0.78125 0,-2.32422 -0.68359,-3.35938 -0.6836,-1.05469 -2.20703,-1.05469 -1.99219,0 -3.08594,1.64063 -1.07422,1.64062 -1.11328,4.74609 V 263.625 h -7.03125 v -11.40625 q 0,-3.63281 -0.625,-4.66797 -0.625,-1.05469 -2.22656,-1.05469 -2.01172,0 -3.10547,1.66016 -1.09375,1.64062 -1.09375,4.70703 V 263.625 H 244.9043 V 241.75 h 7.03125 v 3.20312 q 1.28906,-1.85546 2.94922,-2.79296 1.67968,-0.9375 3.6914,-0.9375 2.26563,0 4.00391,1.09375 1.73828,1.09375 2.63672,3.0664 z m -41.71875,0 q 1.32812,-2.03125 3.14453,-3.08594 1.83594,-1.07421 4.02344,-1.07421 3.76953,0 5.74218,2.32421 1.97266,2.32422 1.97266,6.75782 V 263.625 h -7.03125 v -11.40625 q 0.0195,-0.25391 0.0195,-0.52734 0.0195,-0.27344 0.0195,-0.78125 0,-2.32422 -0.68359,-3.35938 -0.6836,-1.05469 -2.20703,-1.05469 -1.99219,0 -3.08594,1.64063 -1.07422,1.64062 -1.11328,4.74609 V 263.625 h -7.03125 v -11.40625 q 0,-3.63281 -0.625,-4.66797 -0.625,-1.05469 -2.22656,-1.05469 -2.01172,0 -3.10547,1.66016 -1.09375,1.64062 -1.09375,4.70703 V 263.625 h -7.03125 V 241.75 h 7.03125 v 3.20312 q 1.28906,-1.85546 2.94922,-2.79296 1.67968,-0.9375 3.6914,-0.9375 2.26563,0 4.00391,1.09375 1.73828,1.09375 2.63672,3.0664 z m -37.36328,0.83985 q -2.32422,0 -3.55469,1.67968 -1.21094,1.66016 -1.21094,4.80469 0,3.14453 1.21094,4.82422 1.23047,1.66016 3.55469,1.66016 2.28515,0 3.49609,-1.66016 1.21094,-1.67969 1.21094,-4.82422 0,-3.14453 -1.21094,-4.80469 -1.21094,-1.67968 -3.49609,-1.67968 z m 0,-5 q 5.64453,0 8.80859,3.04687 3.18359,3.04688 3.18359,8.4375 0,5.39063 -3.18359,8.4375 -3.16406,3.04688 -8.80859,3.04688 -5.66407,0 -8.86719,-3.04688 -3.1836,-3.04687 -3.1836,-8.4375 0,-5.39062 3.1836,-8.4375 3.20312,-3.04687 8.86719,-3.04687 z m -35.95704,-7.98829 h 6.99219 v 16.54297 L 165.2168,241.75 h 8.125 l -10.6836,10.03906 11.52344,11.83594 h -8.47656 l -8.53516,-9.12109 v 9.12109 h -6.99219 z m -13.75,0 h 6.99219 V 263.625 h -6.99219 z m -13.75,0 h 6.99219 V 263.625 h -6.99219 z m -13.75,8.51563 h 6.99219 v 21.875 h -6.99219 z m 0,-8.51563 h 6.99219 v 5.70313 h -6.99219 z m -46.308589,1.23047 h 7.207031 l 5.039062,21.19141 5,-21.19141 h 7.246094 l 5,21.19141 5.039063,-21.19141 h 7.148439 L 97.423828,263.625 H 88.751953 L 83.458984,241.45703 78.224609,263.625 h -8.671875 z" />
    </g>
  </g>
</svg>
