<?xml version="1.0" encoding="UTF-8" standalone="no"?>
<!-- Created with Inkscape (http://www.inkscape.org/) -->

<svg
   xmlns:dc="http://purl.org/dc/elements/1.1/"
   xmlns:cc="http://creativecommons.org/ns#"
   xmlns:rdf="http://www.w3.org/1999/02/22-rdf-syntax-ns#"
   xmlns:svg="http://www.w3.org/2000/svg"
   xmlns="http://www.w3.org/2000/svg"
   xmlns:sodipodi="http://sodipodi.sourceforge.net/DTD/sodipodi-0.dtd"
   xmlns:inkscape="http://www.inkscape.org/namespaces/inkscape"
   width="126.64722mm"
   height="63.025002mm"
   viewBox="0 0 126.64721 63.025003"
   version="1.1"
   id="svg8"
   sodipodi:docname="cauchy-integralsatz-kreisringe.svg"
   inkscape:version="0.92.3 (2405546, 2018-03-11)">
  <defs
     id="defs2" />
  <sodipodi:namedview
     id="base"
     pagecolor="#ffffff"
     bordercolor="#666666"
     borderopacity="1.0"
     inkscape:pageopacity="0.0"
     inkscape:pageshadow="2"
     inkscape:zoom="1.7318943"
     inkscape:cx="188.80651"
     inkscape:cy="204.86208"
     inkscape:document-units="mm"
     inkscape:current-layer="layer1"
     showgrid="false"
     inkscape:snap-others="false"
     fit-margin-top="0"
     fit-margin-left="0"
     fit-margin-right="0"
     fit-margin-bottom="0"
     inkscape:window-width="1369"
     inkscape:window-height="1015"
     inkscape:window-x="0"
     inkscape:window-y="0"
     inkscape:window-maximized="0">
    <inkscape:grid
       type="xygrid"
       id="grid22"
       originx="-23.656263"
       originy="-104.3605" />
  </sodipodi:namedview>
  <metadata
     id="metadata5">
    <rdf:RDF>
      <cc:Work
         rdf:about="">
        <dc:format>image/svg+xml</dc:format>
        <dc:type
           rdf:resource="http://purl.org/dc/dcmitype/StillImage" />
        <dc:title />
      </cc:Work>
    </rdf:RDF>
  </metadata>
  <g
     inkscape:groupmode="layer"
     id="layer4"
     inkscape:label="Layer 4"
     transform="translate(-66.141754,-64.875195)"
     style="display:inline">
    <path
       style="fill:none;stroke:#000000;stroke-width:0.60000002;stroke-linecap:butt;stroke-linejoin:miter;stroke-miterlimit:4;stroke-dasharray:none;stroke-opacity:1"
       d="m 99.143532,75.939945 c -3.078726,0.108025 -6.828072,3.583294 -9.722292,6.913629 -3.942929,4.537068 -5.415383,10.900832 -8.804075,15.82573 -4.050954,5.887386 -5.077196,11.342676 -4.645094,14.961526 0.432102,3.61885 6.53554,9.61427 13.449169,10.37044 22.19923,1.24229 22.69534,-1.8229 29.49095,-2.86267 6.08216,-0.93061 18.14828,-7.88586 24.41375,-13.61121 6.26548,-5.72535 12.74701,-15.825728 12.69299,-23.98165 -0.10801,-7.129681 -4.15834,-10.86337 -12.26089,-11.612738 -9.3442,-0.864203 -17.98775,4.270784 -24.14369,4.483057 -6.26547,0.216051 -11.85315,1.182829 -16.04178,0.702166 -3.29477,-0.378089 -4.321014,-0.486115 -4.429038,-1.18828 z"
       id="path1347"
       inkscape:connector-curvature="0"
       sodipodi:nodetypes="cssscsscsssc" />
    <path
       style="fill:none;stroke:#000000;stroke-width:0.5;stroke-linecap:round;stroke-linejoin:round;stroke-miterlimit:4;stroke-dasharray:none;stroke-opacity:1"
       d="m 158.81409,75.899435 c 0.0675,1.336815 -0.37808,4.415541 1.2693,4.429044 1.64739,0.0135 2.5116,-3.524331 2.47108,-4.023948 -0.0405,-0.499618 -0.35108,2.33605 -0.16203,2.714139 0.18904,0.378089 0.8642,1.971465 1.09375,2.228025"
       id="path1349"
       inkscape:connector-curvature="0"
       sodipodi:nodetypes="ccccc" />
    <path
       style="fill:none;stroke:#000000;stroke-width:0.5;stroke-linecap:round;stroke-linejoin:round;stroke-miterlimit:4;stroke-dasharray:none;stroke-opacity:1"
       d="m 171.13367,85.410737 c -0.21006,-0.973915 -1.0694,-3.952951 0.32464,-4.067529 1.39403,-0.114579 1.585,1.623192 0.36283,1.986023"
       id="path1351"
       inkscape:connector-curvature="0" />
    <path
       style="fill:none;stroke:#000000;stroke-width:0.5;stroke-linecap:round;stroke-linejoin:round;stroke-miterlimit:4;stroke-dasharray:none;stroke-opacity:1"
       d="m 169.62506,84.723268 c 0.61108,-0.286446 2.23427,-0.439217 2.23427,-0.439217"
       id="path1353"
       inkscape:connector-curvature="0" />
    <path
       style="fill:none;stroke:#000000;stroke-width:0.5;stroke-linecap:round;stroke-linejoin:round;stroke-miterlimit:4;stroke-dasharray:none;stroke-opacity:1"
       d="m 165.1756,88.542544 c -0.32464,-0.286446 5.95807,-2.768976 11.03771,-1.604097"
       id="path1355"
       inkscape:connector-curvature="0" />
    <path
       style="fill:none;stroke:#000000;stroke-width:0.5;stroke-linecap:round;stroke-linejoin:round;stroke-miterlimit:4;stroke-dasharray:none;stroke-opacity:1"
       d="m 176.38518,85.315254 c 0.26735,0.439217 1.0121,0.68747 1.0121,1.298554 0,0.611085 -1.29855,1.737773 -1.29855,1.737773"
       id="path1357"
       inkscape:connector-curvature="0" />
    <path
       style="fill:none;stroke:#000000;stroke-width:0.5;stroke-linecap:round;stroke-linejoin:round;stroke-miterlimit:4;stroke-dasharray:none;stroke-opacity:1"
       d="m 166.35957,89.87929 c 0.17187,0.305544 1.0694,1.871446 0.87844,2.788074 -0.19097,0.916625 -0.11458,-2.005121 0.78295,-1.795061 0.89753,0.210058 0.49651,1.355842 0.63018,1.604095"
       id="path1359"
       inkscape:connector-curvature="0" />
    <path
       style="fill:none;stroke:#000000;stroke-width:0.5;stroke-linecap:round;stroke-linejoin:round;stroke-miterlimit:4;stroke-dasharray:none;stroke-opacity:1"
       d="m 169.9115,91.196942 c -0.82114,0.553794 -0.80205,1.451324 0.61109,1.336746 1.41313,-0.114578 0.0764,-1.623192 -0.61109,-1.336746 z"
       id="path1361"
       inkscape:connector-curvature="0" />
    <path
       style="fill:none;stroke:#000000;stroke-width:0.5;stroke-linecap:round;stroke-linejoin:round;stroke-miterlimit:4;stroke-dasharray:none;stroke-opacity:1"
       d="m 171.78295,89.516459 c -0.0191,1.031206 0.22915,2.616206 0.22915,2.616206"
       id="path1363"
       inkscape:connector-curvature="0" />
    <path
       style="fill:none;stroke:#000000;stroke-width:0.5;stroke-linecap:round;stroke-linejoin:round;stroke-miterlimit:4;stroke-dasharray:none;stroke-opacity:1"
       d="m 173.94084,91.387905 c -0.64928,0.267348 -0.38193,1.718675 0.72566,0.935723 1.10759,-0.782953 -0.28644,-1.298554 -0.72566,-0.935723 z"
       id="path1365"
       inkscape:connector-curvature="0" />
    <path
       style="fill:none;stroke:#000000;stroke-width:0.5;stroke-linecap:round;stroke-linejoin:round;stroke-miterlimit:4;stroke-dasharray:none;stroke-opacity:1"
       d="m 184.36747,86.919351 c -0.17187,0.668375 0,2.788071 0,2.788071"
       id="path1367"
       inkscape:connector-curvature="0"
       sodipodi:nodetypes="cc" />
    <path
       style="fill:none;stroke:#000000;stroke-width:0.5;stroke-linecap:round;stroke-linejoin:round;stroke-miterlimit:4;stroke-dasharray:none;stroke-opacity:1"
       d="m 186.00975,89.860195 c 0,0 -1.89054,0.152771 -2.36795,-0.171868 -0.47741,-0.324638 -1.85485,-1.325404 0.26735,-3.322772 0.64927,-0.611084 1.92873,0.286446 1.92873,0.286446"
       id="path1369"
       inkscape:connector-curvature="0"
       sodipodi:nodetypes="ccsc" />
    <path
       style="opacity:1;fill:none;fill-opacity:0.50588229;stroke:none;stroke-width:10.9114962;stroke-linecap:round;stroke-linejoin:round;stroke-miterlimit:4;stroke-dasharray:43.6459848, 43.64598480000000080;stroke-dashoffset:0;stroke-opacity:1;paint-order:stroke markers fill"
       d="m 91.869398,222.31163 c -15.987102,-1.02725 -29.782365,-7.61048 -42.16864,-20.12327 -4.986521,-5.03746 -6.526258,-7.02831 -8.554971,-11.06143 -2.247341,-4.46775 -2.503699,-5.41988 -2.798341,-10.39324 -0.894646,-15.10104 5.136824,-32.97608 17.725981,-52.53322 4.586101,-7.12447 7.010086,-11.77389 17.255959,-33.098468 2.8721,-5.977663 6.563267,-13.05563 8.202592,-15.72882 7.961397,-12.982371 24.311392,-28.81683 34.877022,-33.777312 3.89578,-1.829038 7.79493,-2.733515 7.79493,-1.808171 0,1.062136 4.76049,2.383074 11.81277,3.277806 8.74686,1.109724 22.63376,1.117851 36.21058,0.02119 5.82065,-0.470162 16.4292,-1.24777 23.57456,-1.728021 15.46446,-1.039392 18.97836,-1.723554 38.14728,-7.427371 28.99762,-8.6284 40.35881,-10.703576 54.81451,-10.012137 27.32611,1.307052 42.87485,11.127134 48.03487,30.337283 1.70567,6.350008 1.69913,18.395113 -0.0144,26.435455 -4.05383,19.021976 -15.97135,41.626386 -32.07039,60.829086 -13.13456,15.66671 -32.32869,30.88401 -56.94568,45.14707 -19.94861,11.55821 -35.3399,17.99129 -50.01795,20.90595 -4.08848,0.81186 -11.35517,2.64205 -16.14822,4.0671 -20.54784,6.10918 -25.97316,6.76815 -57.39796,6.97164 -13.81435,0.0894 -28.364891,-0.0461 -32.334532,-0.30112 z m 107.139382,-36.6812 c 6.38882,-1.11412 12.48784,-3.14783 18.43802,-6.14813 20.99165,-10.58474 34.55114,-30.1349 37.29995,-53.77926 2.766,-23.79232 -8.48395,-48.741393 -28.22244,-62.589056 -3.63837,-2.552519 -4.04573,-3.006069 -2.99852,-3.338442 0.72877,-0.231304 1.13291,-0.767752 1.01383,-1.345748 -0.16048,-0.778927 -0.78377,-0.929024 -3.28796,-0.791799 -2.44674,0.134077 -4.1251,-0.247972 -8.06281,-1.835355 -10.31309,-4.157452 -20.35377,-5.688512 -31.93916,-4.870267 -17.22619,1.216638 -34.27816,9.925117 -45.79553,23.387868 -17.78055,20.783834 -21.43933,50.433249 -9.21399,74.666719 9.75981,19.34619 27.68826,32.82478 48.72999,36.63515 6.00928,1.0882 17.82268,1.09228 24.03862,0.008 z"
       id="path860"
       inkscape:connector-curvature="0"
       transform="matrix(0.26458333,0,0,0.26458333,66.141754,64.875195)" />
    <path
       style="display:inline;fill:none;stroke:#000000;stroke-width:0.60000002;stroke-linecap:butt;stroke-linejoin:miter;stroke-miterlimit:4;stroke-dasharray:none;stroke-opacity:1"
       d="m 111.29639,98.490258 c -0.35108,-2.295541 0.53445,-7.016093 3.94293,-7.534775 3.72688,-0.567134 7.48077,2.403565 7.50777,3.429808 -0.027,1.674395 -0.99359,3.8495 -5.34726,5.428281 -3.84612,1.394728 -6.09672,-0.67501 -6.10344,-1.323314 z"
       id="path1331"
       inkscape:connector-curvature="0"
       sodipodi:nodetypes="cscsc" />
  </g>
  <g
     inkscape:groupmode="layer"
     id="layer1"
     inkscape:label="Layer 5">
    <path
       style="opacity:1;fill:#00ffff;fill-opacity:0.1658031;stroke:none;stroke-width:6.30032444;stroke-linecap:round;stroke-linejoin:round;stroke-miterlimit:4;stroke-dasharray:25.20129802, 25.20129801999999941;stroke-dashoffset:0;stroke-opacity:1;paint-order:stroke markers fill"
       d="m 91.869398,222.31163 c -15.987102,-1.02725 -29.782365,-7.61048 -42.16864,-20.12327 -4.986521,-5.03746 -6.526258,-7.02831 -8.554971,-11.06143 -2.247341,-4.46775 -2.503699,-5.41988 -2.798341,-10.39324 -0.894646,-15.10104 5.136824,-32.97608 17.725981,-52.53322 4.586101,-7.12447 7.010086,-11.77389 17.255959,-33.098468 2.8721,-5.977663 6.563267,-13.05563 8.202592,-15.72882 7.961397,-12.982371 24.311392,-28.81683 34.877022,-33.777312 3.89578,-1.829038 7.79493,-2.733515 7.79493,-1.808171 0,1.062136 4.76049,2.383074 11.81277,3.277806 8.74686,1.109724 22.63376,1.117851 36.21058,0.02119 5.82065,-0.470162 16.4292,-1.24777 23.57456,-1.728021 15.46446,-1.039392 18.97836,-1.723554 38.14728,-7.427371 28.99762,-8.6284 40.35881,-10.703576 54.81451,-10.012137 27.32611,1.307052 42.87485,11.127134 48.03487,30.337283 1.70567,6.350008 1.69913,18.395113 -0.0144,26.435455 -4.05383,19.021976 -15.97135,41.626386 -32.07039,60.829086 -13.13456,15.66671 -32.32869,30.88401 -56.94568,45.14707 -19.94861,11.55821 -35.3399,17.99129 -50.01795,20.90595 -4.08848,0.81186 -11.35517,2.64205 -16.14822,4.0671 -20.54784,6.10918 -25.97316,6.76815 -57.39796,6.97164 -13.81435,0.0894 -28.364891,-0.0461 -32.334532,-0.30112 z m 99.024522,-87.97788 c 7.68163,-2.08029 16.0582,-6.73419 19.62852,-10.90531 2.54046,-2.96794 4.1845,-6.51862 4.64337,-10.02837 0.32829,-2.51092 0.18341,-3.06323 -1.35966,-5.18345 -2.24839,-3.08934 -8.92183,-7.49417 -14.14949,-9.339422 -4.75753,-1.679312 -12.14261,-2.317289 -15.70045,-1.356318 -8.7598,2.366004 -14.09113,11.16311 -14.58707,24.06975 -0.24074,6.26539 -0.21657,6.41576 1.32577,8.24873 3.83475,4.55733 12.69052,6.52779 20.19901,4.49439 z"
       id="path1158"
       inkscape:connector-curvature="0"
       transform="scale(0.26458333)" />
    <circle
       style="display:inline;opacity:1;fill:none;fill-opacity:1;stroke:#d83a43;stroke-width:0.60000002;stroke-linecap:round;stroke-linejoin:round;stroke-miterlimit:4;stroke-dasharray:none;stroke-opacity:1;paint-order:stroke markers fill"
       id="path1253"
       cx="49.434883"
       cy="31.191227"
       r="12.228851" />
    <circle
       style="display:inline;opacity:1;fill:none;fill-opacity:1;stroke:#f39d3f;stroke-width:0.59344351;stroke-linecap:round;stroke-linejoin:round;stroke-miterlimit:4;stroke-dasharray:none;stroke-opacity:1;paint-order:stroke markers fill"
       id="path1255"
       cx="49.501015"
       cy="31.38966"
       r="17.664215" />
    <path
       style="display:inline;fill:none;fill-opacity:1;stroke:#88338f;stroke-width:0.60000002;stroke-linecap:round;stroke-linejoin:round;stroke-miterlimit:4;stroke-dasharray:none;stroke-opacity:1"
       d="M 35.939392,27.543915 33.361377,27.295662"
       id="path1261"
       inkscape:connector-curvature="0" />
    <path
       style="display:inline;fill:none;fill-opacity:1;stroke:#88338f;stroke-width:0.60000002;stroke-linecap:round;stroke-linejoin:round;stroke-miterlimit:4;stroke-dasharray:none;stroke-opacity:1"
       d="m 36.435892,22.177829 c 0.171871,0.420122 1.83326,1.623195 1.83326,1.623195"
       id="path1263"
       inkscape:connector-curvature="0" />
    <path
       style="display:inline;fill:none;fill-opacity:1;stroke:#88338f;stroke-width:0.60000002;stroke-linecap:round;stroke-linejoin:round;stroke-miterlimit:4;stroke-dasharray:none;stroke-opacity:1"
       d="m 40.541622,21.662228 c 0,0 -0.74476,-1.585 -0.935729,-2.673493"
       id="path1265"
       inkscape:connector-curvature="0" />
    <path
       style="display:inline;fill:none;fill-opacity:1;stroke:#88338f;stroke-width:0.60000002;stroke-linecap:round;stroke-linejoin:round;stroke-miterlimit:4;stroke-dasharray:none;stroke-opacity:1"
       d="m 42.565832,19.580722 c 0.0382,-0.821145 -0.21006,-2.387047 -0.21006,-2.883554"
       id="path1267"
       inkscape:connector-curvature="0" />
    <path
       style="display:inline;fill:none;fill-opacity:1;stroke:#88338f;stroke-width:0.60000002;stroke-linecap:round;stroke-linejoin:round;stroke-miterlimit:4;stroke-dasharray:none;stroke-opacity:1"
       d="m 46.499692,15.646868 c 0.0382,0.782951 0.17186,2.024216 0.30554,2.53982"
       id="path1269"
       inkscape:connector-curvature="0" />
    <path
       style="display:inline;fill:none;fill-opacity:1;stroke:#88338f;stroke-width:0.60000002;stroke-linecap:round;stroke-linejoin:round;stroke-miterlimit:4;stroke-dasharray:none;stroke-opacity:1"
       d="m 50.567222,14.825723 -0.0191,2.253374"
       id="path1271"
       inkscape:connector-curvature="0" />
    <path
       style="display:inline;fill:none;fill-opacity:1;stroke:#88338f;stroke-width:0.60000002;stroke-linecap:round;stroke-linejoin:round;stroke-miterlimit:4;stroke-dasharray:none;stroke-opacity:1"
       d="m 55.952402,16.391626 c -0.11458,0.706566 -0.78295,2.616204 -0.78295,2.616204"
       id="path1273"
       inkscape:connector-curvature="0" />
    <path
       style="display:inline;fill:none;fill-opacity:1;stroke:#88338f;stroke-width:0.60000002;stroke-linecap:round;stroke-linejoin:round;stroke-miterlimit:4;stroke-dasharray:none;stroke-opacity:1"
       d="m 57.804752,20.382772 c 0,0 1.069402,-1.909641 1.546803,-2.138797"
       id="path1275"
       inkscape:connector-curvature="0" />
    <path
       style="display:inline;fill:none;fill-opacity:1;stroke:#88338f;stroke-width:0.60000002;stroke-linecap:round;stroke-linejoin:round;stroke-miterlimit:4;stroke-dasharray:none;stroke-opacity:1"
       d="m 61.28029,19.867168 c -0.687466,0.229158 -2.138799,1.94783 -2.138799,1.94783"
       id="path1277"
       inkscape:connector-curvature="0" />
    <path
       style="display:inline;fill:none;fill-opacity:1;stroke:#88338f;stroke-width:0.60000002;stroke-linecap:round;stroke-linejoin:round;stroke-miterlimit:4;stroke-dasharray:none;stroke-opacity:1"
       d="m 61.146612,25.175963 c 0.72567,0 3.418264,-0.859337 3.93386,-0.744759"
       id="path1279"
       inkscape:connector-curvature="0" />
    <path
       style="display:inline;fill:none;fill-opacity:1;stroke:#88338f;stroke-width:0.60000002;stroke-linecap:round;stroke-linejoin:round;stroke-miterlimit:4;stroke-dasharray:none;stroke-opacity:1"
       d="m 62.674322,27.448433 c 0.76386,-0.03819 2.463443,-0.152771 2.940849,0.03819"
       id="path1281"
       inkscape:connector-curvature="0" />
    <path
       style="display:inline;fill:none;fill-opacity:1;stroke:#88338f;stroke-width:0.60000002;stroke-linecap:round;stroke-linejoin:round;stroke-miterlimit:4;stroke-dasharray:none;stroke-opacity:1"
       d="m 63.05625,32.260723 c 1.298562,1.031203 1.585003,0.248253 3.093623,1.222168"
       id="path1283"
       inkscape:connector-curvature="0" />
    <path
       style="display:inline;fill:none;fill-opacity:1;stroke:#88338f;stroke-width:0.60000002;stroke-linecap:round;stroke-linejoin:round;stroke-miterlimit:4;stroke-dasharray:none;stroke-opacity:1"
       d="m 62.426071,35.831746 c 0.0573,0.95482 0.85934,1.31765 1.585003,2.71169"
       id="path1285"
       inkscape:connector-curvature="0" />
    <path
       style="display:inline;fill:none;fill-opacity:1;stroke:#88338f;stroke-width:0.60000002;stroke-linecap:round;stroke-linejoin:round;stroke-miterlimit:4;stroke-dasharray:none;stroke-opacity:1"
       d="m 59.790774,39.727406 c 0.0573,1.24127 0.0955,2.32976 0.553802,3.456449"
       id="path1287"
       inkscape:connector-curvature="0" />
    <path
       style="display:inline;fill:none;fill-opacity:1;stroke:#88338f;stroke-width:0.60000002;stroke-linecap:round;stroke-linejoin:round;stroke-miterlimit:4;stroke-dasharray:none;stroke-opacity:1"
       d="m 56.009693,42.859216 -0.0191,3.761989"
       id="path1289"
       inkscape:connector-curvature="0" />
    <path
       style="display:inline;fill:none;fill-opacity:1;stroke:#88338f;stroke-width:0.60000002;stroke-linecap:round;stroke-linejoin:round;stroke-miterlimit:4;stroke-dasharray:none;stroke-opacity:1"
       d="m 53.087942,44.577886 c 0,0 -0.43922,2.329759 -0.64928,2.959939"
       id="path1291"
       inkscape:connector-curvature="0" />
    <path
       style="display:inline;fill:none;fill-opacity:1;stroke:#88338f;stroke-width:0.60000002;stroke-linecap:round;stroke-linejoin:round;stroke-miterlimit:4;stroke-dasharray:none;stroke-opacity:1"
       d="m 48.982222,47.499635 c 0.24825,-1.050298 0.19096,-2.46343 0.63018,-2.768979"
       id="path1293"
       inkscape:connector-curvature="0" />
    <path
       style="display:inline;fill:none;fill-opacity:1;stroke:#88338f;stroke-width:0.60000002;stroke-linecap:round;stroke-linejoin:round;stroke-miterlimit:4;stroke-dasharray:none;stroke-opacity:1"
       d="m 46.060472,47.022226 c 0.30554,-0.954821 0.87844,-2.348849 1.10759,-2.48253"
       id="path1295"
       inkscape:connector-curvature="0" />
    <path
       style="display:inline;fill:none;fill-opacity:1;stroke:#88338f;stroke-width:0.60000002;stroke-linecap:round;stroke-linejoin:round;stroke-miterlimit:4;stroke-dasharray:none;stroke-opacity:1"
       d="m 42.393972,45.570907 1.0121,-2.578021"
       id="path1297"
       inkscape:connector-curvature="0" />
    <path
       style="display:inline;fill:none;fill-opacity:1;stroke:#88338f;stroke-width:0.60000002;stroke-linecap:round;stroke-linejoin:round;stroke-miterlimit:4;stroke-dasharray:none;stroke-opacity:1"
       d="m 39.873242,44.386926 1.43223,-2.673491"
       id="path1299"
       inkscape:connector-curvature="0" />
    <path
       style="display:inline;fill:none;fill-opacity:1;stroke:#88338f;stroke-width:0.60000002;stroke-linecap:round;stroke-linejoin:round;stroke-miterlimit:4;stroke-dasharray:none;stroke-opacity:1"
       d="m 36.588663,40.873185 c 0.859339,-0.11457 2.463439,-1.413129 2.463439,-1.413129"
       id="path1301"
       inkscape:connector-curvature="0" />
    <path
       style="display:inline;fill:none;fill-opacity:1;stroke:#88338f;stroke-width:0.60000002;stroke-linecap:round;stroke-linejoin:round;stroke-miterlimit:4;stroke-dasharray:none;stroke-opacity:1"
       d="m 35.328302,38.199696 2.425251,-0.84024"
       id="path1303"
       inkscape:connector-curvature="0" />
    <path
       style="display:inline;fill:none;fill-opacity:1;stroke:#88338f;stroke-width:0.60000002;stroke-linecap:round;stroke-linejoin:round;stroke-miterlimit:4;stroke-dasharray:none;stroke-opacity:1"
       d="m 34.258912,34.896023 c 0.61108,-0.03819 2.67349,-0.458314 2.67349,-0.458314"
       id="path1305"
       inkscape:connector-curvature="0" />
    <path
       style="display:inline;fill:none;stroke:#f39d3f;stroke-width:0.60000002;stroke-linecap:round;stroke-linejoin:round;stroke-miterlimit:4;stroke-dasharray:none;stroke-opacity:1"
       d="M 48.187232,30.74583 32.047652,30.64661"
       id="path1257"
       inkscape:connector-curvature="0" />
    <path
       style="display:inline;fill:none;stroke:#d83a43;stroke-width:0.60000002;stroke-linecap:round;stroke-linejoin:round;stroke-miterlimit:4;stroke-dasharray:none;stroke-opacity:1"
       d="m 48.187232,30.74583 -4.97705,10.782095"
       id="path1259"
       inkscape:connector-curvature="0" />
    <path
       style="display:inline;fill:none;stroke:#000000;stroke-width:0.5;stroke-linecap:round;stroke-linejoin:round;stroke-miterlimit:4;stroke-dasharray:none;stroke-opacity:1"
       d="m 49.826742,29.766657 c 0.49961,0.04051 0.8777,0.05401 0.89121,0.229555 0.0135,0.175541 -1.16128,1.498854 -0.89121,1.782421 0.27006,0.283565 1.02624,0.162037 1.02624,0.162037"
       id="path1333"
       inkscape:connector-curvature="0" />
    <path
       style="display:inline;fill:none;stroke:#000000;stroke-width:0.5;stroke-linecap:round;stroke-linejoin:round;stroke-miterlimit:4;stroke-dasharray:none;stroke-opacity:1"
       d="m 49.354122,31.252009 c 0,0 0.78319,-0.216053 1.35032,-0.08102"
       id="path1335"
       inkscape:connector-curvature="0" />
    <path
       style="display:inline;fill:none;stroke:#000000;stroke-width:0.5;stroke-linecap:round;stroke-linejoin:round;stroke-miterlimit:4;stroke-dasharray:none;stroke-opacity:1"
       d="m 52.014262,31.522071 c -0.32408,0.37809 0.24305,0.661656 0.68866,0.243058 0.32407,-0.337579 -0.32408,-0.648152 -0.68866,-0.243058 z"
       id="path1337"
       inkscape:connector-curvature="0"
       sodipodi:nodetypes="ccc" />
    <path
       style="display:inline;fill:none;stroke:#d83a43;stroke-width:0.5;stroke-linecap:round;stroke-linejoin:round;stroke-miterlimit:4;stroke-dasharray:none;stroke-opacity:1"
       d="m 45.688092,38.218796 c 0,0 0.36283,0.59199 0.35328,0.90708 -0.01,0.31509 -0.69701,-1.0503 0.42967,-1.11714"
       id="path1339"
       inkscape:connector-curvature="0" />
    <path
       style="display:inline;fill:none;stroke:#f39d3f;stroke-width:0.5;stroke-linecap:round;stroke-linejoin:round;stroke-miterlimit:4;stroke-dasharray:none;stroke-opacity:1"
       d="m 39.409032,27.619651 c 0.0878,0.405095 0.4186,2.086242 0.4186,2.086242 -0.290319,-1.546114 -0.70216,-2.430571 0.24306,-2.45758 1.18828,-0.182292 1.269301,1.539365 0.0337,1.573122 0.742681,0.189032 1.06001,0.668406 1.40434,0.648153"
       id="path1341"
       inkscape:connector-curvature="0"
       sodipodi:nodetypes="ccccc" />
    <path
       style="display:inline;fill:none;stroke:#f39d3f;stroke-width:0.60000002;stroke-linecap:round;stroke-linejoin:round;stroke-miterlimit:4;stroke-dasharray:none;stroke-opacity:1"
       d="m 58.578154,17.298704 c -0.0573,-0.563343 -0.907082,-1.269909 -0.887982,-1.508614 0.0191,-0.238704 1.02166,-0.162319 1.413129,-0.31509"
       id="path1343"
       inkscape:connector-curvature="0" />
    <path
       style="display:inline;fill:none;stroke:#d83a43;stroke-width:0.60000002;stroke-linecap:round;stroke-linejoin:round;stroke-miterlimit:4;stroke-dasharray:none;stroke-opacity:1"
       d="m 51.136552,19.922836 c -0.49962,-0.256558 -1.03975,-0.148534 -1.37733,-0.830445 -0.33758,-0.681911 0.95197,-0.843949 1.36382,-1.53261"
       id="path1345"
       inkscape:connector-curvature="0" />
    <ellipse
       style="opacity:1;fill:#00ffff;fill-opacity:0.16580314;stroke:none;stroke-width:2.33582187;stroke-linecap:round;stroke-linejoin:round;stroke-miterlimit:4;stroke-dasharray:9.3432872, 9.3432872;stroke-dashoffset:0;stroke-opacity:1;paint-order:stroke markers fill"
       id="path1234"
       cx="94.641678"
       cy="13.29802"
       rx="4.2012043"
       ry="4.0484333" />
  </g>
</svg>
