<?xml version="1.0" encoding="UTF-8" standalone="no"?>
<!-- Created with Inkscape (http://www.inkscape.org/) -->

<svg
   xmlns:dc="http://purl.org/dc/elements/1.1/"
   xmlns:cc="http://creativecommons.org/ns#"
   xmlns:rdf="http://www.w3.org/1999/02/22-rdf-syntax-ns#"
   xmlns:svg="http://www.w3.org/2000/svg"
   xmlns="http://www.w3.org/2000/svg"
   xmlns:sodipodi="http://sodipodi.sourceforge.net/DTD/sodipodi-0.dtd"
   xmlns:inkscape="http://www.inkscape.org/namespaces/inkscape"
   width="140.16667mm"
   height="95.658333mm"
   viewBox="0 0 140.16666 95.65834"
   version="1.1"
   id="svg8"
   sodipodi:docname="def_hp.svg"
   inkscape:version="0.92.3 (2405546, 2018-03-11)">
  <defs
     id="defs2" />
  <sodipodi:namedview
     id="base"
     pagecolor="#ffffff"
     bordercolor="#666666"
     borderopacity="1.0"
     inkscape:pageopacity="0.0"
     inkscape:pageshadow="2"
     inkscape:zoom="1.2246342"
     inkscape:cx="249.35975"
     inkscape:cy="205.7869"
     inkscape:document-units="mm"
     inkscape:current-layer="layer4"
     showgrid="false"
     inkscape:snap-others="false"
     fit-margin-top="0"
     fit-margin-left="0"
     fit-margin-right="0"
     fit-margin-bottom="0"
     inkscape:window-width="1369"
     inkscape:window-height="1015"
     inkscape:window-x="0"
     inkscape:window-y="0"
     inkscape:window-maximized="0">
    <inkscape:grid
       type="xygrid"
       id="grid22"
       originx="-37.651554"
       originy="-64.686025" />
  </sodipodi:namedview>
  <metadata
     id="metadata5">
    <rdf:RDF>
      <cc:Work
         rdf:about="">
        <dc:format>image/svg+xml</dc:format>
        <dc:type
           rdf:resource="http://purl.org/dc/dcmitype/StillImage" />
        <dc:title></dc:title>
      </cc:Work>
    </rdf:RDF>
  </metadata>
  <g
     inkscape:groupmode="layer"
     id="layer4"
     inkscape:label="Layer 4"
     transform="translate(-80.137051,-71.916359)"
     style="display:inline">
    <circle
       style="opacity:1;fill:none;fill-opacity:1;stroke:#000000;stroke-width:1.20000005;stroke-linecap:round;stroke-linejoin:round;stroke-miterlimit:4;stroke-dasharray:none;stroke-opacity:1;paint-order:stroke markers fill"
       id="path1688"
       cx="131.55716"
       cy="120.51265"
       r="42.974678" />
    <path
       style="fill:none;stroke:#000000;stroke-width:1;stroke-linecap:round;stroke-linejoin:round;stroke-miterlimit:4;stroke-dasharray:none;stroke-opacity:1"
       d="m 145.12505,117.50397 c 0.84024,2.40614 1.48952,7.18024 -1.98602,6.72192 -3.47554,-0.45831 -2.55892,-3.28457 -2.55892,-3.28457 0,0 -0.5347,4.01024 -2.06241,3.24638 -1.52771,-0.76385 -1.6041,-2.6353 -0.87843,-6.91289"
       id="path1690"
       inkscape:connector-curvature="0" />
    <circle
       style="opacity:1;fill:#000000;fill-opacity:1;stroke:none;stroke-width:1.12264156;stroke-linecap:round;stroke-linejoin:round;stroke-miterlimit:4;stroke-dasharray:none;stroke-opacity:1;paint-order:stroke markers fill"
       id="path1692"
       cx="131.54716"
       cy="120.5292"
       r="1.6068788" />
    <path
       style="fill:none;fill-opacity:0.43921569;stroke:#d62932;stroke-width:1;stroke-linecap:round;stroke-linejoin:round;stroke-miterlimit:4;stroke-dasharray:none;stroke-opacity:1"
       d="m 132.50239,114.21011 0.54013,-1.08026"
       id="path1694"
       inkscape:connector-curvature="0" />
    <path
       style="fill:none;stroke:#d62932;stroke-width:1;stroke-linecap:round;stroke-linejoin:round;stroke-miterlimit:4;stroke-dasharray:none;stroke-opacity:1"
       d="m 127.45221,109.42998 c -0.72918,-0.13503 -1.18829,-0.37809 -1.18829,-0.37809"
       id="path1696"
       inkscape:connector-curvature="0" />
    <path
       style="fill:none;stroke:#d62932;stroke-width:1;stroke-linecap:round;stroke-linejoin:round;stroke-miterlimit:4;stroke-dasharray:none;stroke-opacity:1"
       d="m 124.31947,105.271 c 0.16204,-0.91821 0.29707,-1.35031 0.56713,-1.64739"
       id="path1698"
       inkscape:connector-curvature="0" />
    <path
       style="fill:none;stroke:#d62932;stroke-width:1;stroke-linecap:round;stroke-linejoin:round;stroke-miterlimit:4;stroke-dasharray:none;stroke-opacity:1"
       d="m 126.96609,98.897499 c 0.78318,-0.189045 1.21529,-0.675158 1.21529,-0.675158"
       id="path1700"
       inkscape:connector-curvature="0" />
    <path
       style="fill:none;stroke:#d62932;stroke-width:1;stroke-linecap:round;stroke-linejoin:round;stroke-miterlimit:4;stroke-dasharray:none;stroke-opacity:1"
       d="m 132.01628,97.061066 c 0.8372,0 2.02548,-0.13503 2.02548,-0.13503"
       id="path1702"
       inkscape:connector-curvature="0" />
    <path
       style="fill:none;stroke:#d62932;stroke-width:1;stroke-linecap:round;stroke-linejoin:round;stroke-miterlimit:4;stroke-dasharray:none;stroke-opacity:1"
       d="m 135.41908,101.13903 c 0.29707,0.70217 0.97223,0.8372 1.05325,1.59337"
       id="path1704"
       inkscape:connector-curvature="0" />
    <path
       style="fill:none;stroke:#d62932;stroke-width:1;stroke-linecap:round;stroke-linejoin:round;stroke-miterlimit:4;stroke-dasharray:none;stroke-opacity:1"
       d="m 137.71462,106.51329 0.91822,1.05325"
       id="path1706"
       inkscape:connector-curvature="0" />
    <path
       style="fill:none;stroke:#d62932;stroke-width:1;stroke-linecap:round;stroke-linejoin:round;stroke-miterlimit:4;stroke-dasharray:none;stroke-opacity:1"
       d="m 141.92762,109.59202 c 1.59337,0.54013 1.91745,0.37809 2.59261,-0.054"
       id="path1708"
       inkscape:connector-curvature="0" />
    <path
       style="fill:none;stroke:#d62932;stroke-width:1;stroke-linecap:round;stroke-linejoin:round;stroke-miterlimit:4;stroke-dasharray:none;stroke-opacity:1"
       d="m 147.16685,108.18769 1.40433,-1.13427"
       id="path1710"
       inkscape:connector-curvature="0" />
    <path
       style="fill:none;stroke:#d62932;stroke-width:1;stroke-linecap:round;stroke-linejoin:round;stroke-miterlimit:4;stroke-dasharray:none;stroke-opacity:1"
       d="m 151.64991,104.59584 1.75541,-1.32331"
       id="path1712"
       inkscape:connector-curvature="0" />
    <path
       style="fill:none;stroke:#d62932;stroke-width:1;stroke-linecap:round;stroke-linejoin:round;stroke-miterlimit:4;stroke-dasharray:none;stroke-opacity:1"
       d="m 156.43003,101.30107 c 0,0 1.29631,-1.02625 1.80943,-1.13427"
       id="path1714"
       inkscape:connector-curvature="0" />
    <path
       style="fill:none;stroke:#d62932;stroke-width:1;stroke-linecap:round;stroke-linejoin:round;stroke-miterlimit:4;stroke-dasharray:none;stroke-opacity:1"
       d="m 162.04736,101.19304 1.7014,0.64816"
       id="path1716"
       inkscape:connector-curvature="0" />
    <path
       style="fill:none;stroke:#d62932;stroke-width:1;stroke-linecap:round;stroke-linejoin:round;stroke-miterlimit:4;stroke-dasharray:none;stroke-opacity:1"
       d="m 166.28384,104.74758 1.01211,0.42012"
       id="path1718"
       inkscape:connector-curvature="0" />
    <path
       style="fill:none;stroke:#d62932;stroke-width:1;stroke-linecap:round;stroke-linejoin:round;stroke-miterlimit:4;stroke-dasharray:none;stroke-opacity:1"
       d="m 166.60848,107.24921 c 0,-0.19096 -0.45831,-0.76386 0.26735,-1.18398 0.72567,-0.42012 0.82115,-0.59198 1.22217,-0.13367 0.40103,0.45831 0.49651,1.10759 -0.0382,1.08849 -0.5347,-0.0191 -1.0694,0.28645 -0.99301,-0.0955 0.0764,-0.38193 0.4774,-0.49651 0.59198,-0.43922"
       id="path1720"
       inkscape:connector-curvature="0" />
    <path
       style="fill:none;stroke:#d62932;stroke-width:1;stroke-linecap:round;stroke-linejoin:round;stroke-miterlimit:4;stroke-dasharray:none;stroke-opacity:1"
       d="m 172.39079,117.80195 c -2.64662,-1.48534 -3.53783,-4.23999 -2.94369,-4.48305 0.94523,-0.24306 -0.64815,5.69834 -4.05095,4.267 -2.16051,-1.37732 1.53936,-5.5633 4.05095,-4.267"
       id="path1722"
       inkscape:connector-curvature="0"
       sodipodi:nodetypes="cccc" />
    <path
       style="fill:none;stroke:#d62932;stroke-width:1;stroke-linecap:round;stroke-linejoin:round;stroke-miterlimit:4;stroke-dasharray:none;stroke-opacity:1"
       d="m 181.22187,113.69699 c -2.96306,-0.84832 -5.95534,4.48242 0.24306,4.34802"
       id="path1724"
       inkscape:connector-curvature="0"
       sodipodi:nodetypes="cc" />
    <path
       style="fill:none;stroke:#d62932;stroke-width:1;stroke-linecap:round;stroke-linejoin:round;stroke-miterlimit:4;stroke-dasharray:none;stroke-opacity:1"
       d="m 181.65398,115.80348 -3.53783,0.21606"
       id="path1726"
       inkscape:connector-curvature="0" />
    <path
       style="fill:none;stroke:#d62932;stroke-width:1;stroke-linecap:round;stroke-linejoin:round;stroke-miterlimit:4;stroke-dasharray:none;stroke-opacity:1"
       d="m 185.5429,119.82743 c 1.62038,-2.32254 3.45681,-4.94216 3.53783,-6.53554 0.081,-1.59337 0.45911,4.34803 2.70064,7.34573"
       id="path1728"
       inkscape:connector-curvature="0" />
    <path
       style="fill:none;stroke:#d62932;stroke-width:1;stroke-linecap:round;stroke-linejoin:round;stroke-miterlimit:4;stroke-dasharray:none;stroke-opacity:1"
       d="m 191.53831,118.20705 -4.02395,0.16204"
       id="path1730"
       inkscape:connector-curvature="0" />
    <path
       style="fill:none;stroke:#d62932;stroke-width:1;stroke-linecap:round;stroke-linejoin:round;stroke-miterlimit:4;stroke-dasharray:none;stroke-opacity:1"
       d="m 194.07691,113.56196 6.18445,7.12968"
       id="path1734"
       inkscape:connector-curvature="0" />
    <path
       style="fill:none;stroke:#d62932;stroke-width:1;stroke-linecap:round;stroke-linejoin:round;stroke-miterlimit:4;stroke-dasharray:none;stroke-opacity:1"
       d="m 204.98748,112.8868 c -0.29707,-1.97147 -0.97223,-0.91822 -0.94522,2.05248 0.10802,1.29631 -0.94523,1.48535 -0.94523,1.48535 0,0 0.94523,-0.13503 0.91822,2.26854 -0.027,2.40356 0.16204,1.67439 0.75618,2.59261"
       id="path1736"
       inkscape:connector-curvature="0"
       sodipodi:nodetypes="ccccc" />
    <path
       style="fill:none;stroke:#d62932;stroke-width:1;stroke-linecap:round;stroke-linejoin:round;stroke-miterlimit:4;stroke-dasharray:none;stroke-opacity:1"
       d="m 207.71512,115.8575 c -0.91822,1.2963 -1.48535,3.15974 -0.37809,3.45681 1.10726,0.29707 1.78242,-1.21528 1.78242,-1.21528 0,0 0.81019,1.94445 2.43057,1.2963 1.62039,-0.64815 0.29707,-3.10573 0.29707,-3.24076"
       id="path1738"
       inkscape:connector-curvature="0" />
    <path
       style="fill:none;stroke:#d62932;stroke-width:1;stroke-linecap:round;stroke-linejoin:round;stroke-miterlimit:4;stroke-dasharray:none;stroke-opacity:1"
       d="m 213.30544,112.29266 c 0.054,-0.94523 2.51159,-1.29631 1.40433,0.78318 -1.10726,2.07949 0.29707,3.34879 0.62114,3.29478 0.32408,-0.054 -1.24229,0.70216 -0.32407,2.83567 0.91822,2.1335 -0.62115,2.21452 -0.97223,2.1335"
       id="path1740"
       inkscape:connector-curvature="0" />
  </g>
</svg>
