<?xml version="1.0" encoding="UTF-8" standalone="no"?>
<!-- Created with Inkscape (http://www.inkscape.org/) -->

<svg
   xmlns:dc="http://purl.org/dc/elements/1.1/"
   xmlns:cc="http://creativecommons.org/ns#"
   xmlns:rdf="http://www.w3.org/1999/02/22-rdf-syntax-ns#"
   xmlns:svg="http://www.w3.org/2000/svg"
   xmlns="http://www.w3.org/2000/svg"
   xmlns:sodipodi="http://sodipodi.sourceforge.net/DTD/sodipodi-0.dtd"
   xmlns:inkscape="http://www.inkscape.org/namespaces/inkscape"
   width="176.21249mm"
   height="124.35416mm"
   viewBox="0 0 176.2125 124.35416"
   version="1.1"
   id="svg8"
   inkscape:version="0.92.3 (2405546, 2018-03-11)"
   sodipodi:docname="Potenzreihenentwicklungssatz.svg">
  <defs
     id="defs2" />
  <sodipodi:namedview
     id="base"
     pagecolor="#ffffff"
     bordercolor="#666666"
     borderopacity="1.0"
     inkscape:pageopacity="0.0"
     inkscape:pageshadow="2"
     inkscape:zoom="0.98994949"
     inkscape:cx="248.92837"
     inkscape:cy="239.29912"
     inkscape:document-units="mm"
     inkscape:current-layer="layer1"
     showgrid="false"
     fit-margin-top="0"
     fit-margin-left="0"
     fit-margin-right="0"
     fit-margin-bottom="0"
     inkscape:window-width="1422"
     inkscape:window-height="1015"
     inkscape:window-x="0"
     inkscape:window-y="0"
     inkscape:window-maximized="0" />
  <metadata
     id="metadata5">
    <rdf:RDF>
      <cc:Work
         rdf:about="">
        <dc:format>image/svg+xml</dc:format>
        <dc:type
           rdf:resource="http://purl.org/dc/dcmitype/StillImage" />
        <dc:title></dc:title>
      </cc:Work>
    </rdf:RDF>
  </metadata>
  <g
     inkscape:label="Layer 1"
     inkscape:groupmode="layer"
     id="layer1"
     transform="translate(-34.746593,-111.18901)"
     style="display:inline" />
  <g
     inkscape:groupmode="layer"
     id="layer2"
     inkscape:label="Layer 2"
     transform="translate(-34.746593,-111.18901)">
    <path
       style="fill:none;stroke:#000000;stroke-width:0.5;stroke-linecap:round;stroke-linejoin:round;stroke-miterlimit:4;stroke-dasharray:none;stroke-opacity:1"
       d="m 158.33481,127.81906 c 1.26667,-2.0109 9.14527,-7.35842 13.43663,-8.56787"
       id="path882"
       inkscape:connector-curvature="0"
       sodipodi:nodetypes="cc" />
    <path
       style="fill:none;stroke:#000000;stroke-width:0.5;stroke-linecap:round;stroke-linejoin:round;stroke-miterlimit:4;stroke-dasharray:none;stroke-opacity:1"
       d="m 170.81823,118.12983 c 0.69273,-0.0694 2.76396,-0.26254 2.96121,0.0295 0.19723,0.292 -1.45559,2.58573 -1.70333,2.76645"
       id="path884"
       inkscape:connector-curvature="0"
       sodipodi:nodetypes="ccc" />
    <path
       style="fill:none;stroke:#000000;stroke-width:0.5;stroke-linecap:round;stroke-linejoin:round;stroke-miterlimit:4;stroke-dasharray:none;stroke-opacity:1"
       d="m 164.56893,119.55271 c -0.17718,-1.75995 -1.34199,-3.69129 -0.0427,-5.60479 1.29929,-1.91351 1.96865,1.67203 1.03552,2.05"
       id="path886"
       inkscape:connector-curvature="0"
       sodipodi:nodetypes="ccc" />
    <path
       style="fill:none;stroke:#000000;stroke-width:0.5;stroke-linecap:round;stroke-linejoin:round;stroke-miterlimit:4;stroke-dasharray:none;stroke-opacity:1"
       d="m 162.94953,117.86838 c 0.42522,-0.28348 1.7508,-0.36044 2.63668,-0.34863"
       id="path888"
       inkscape:connector-curvature="0"
       sodipodi:nodetypes="cc" />
    <path
       style="fill:none;stroke:#000000;stroke-width:0.5;stroke-linecap:round;stroke-linejoin:round;stroke-miterlimit:4;stroke-dasharray:none;stroke-opacity:1"
       d="m 166.14094,122.92179 1.15096,3.69948 c 0,0 -0.78101,-2.58964 0.78099,-2.48688 1.562,0.10274 0.36995,1.35648 1.4798,2.28135"
       id="path890"
       inkscape:connector-curvature="0" />
    <path
       style="fill:none;stroke:#000000;stroke-width:0.5;stroke-linecap:round;stroke-linejoin:round;stroke-miterlimit:4;stroke-dasharray:none;stroke-opacity:1"
       d="m 171.19689,124.0933 c 1.31538,0.51381 1.23316,1.97304 0.0411,2.28134 -1.19205,0.30829 -1.25371,-1.97306 0.12332,-2.34301"
       id="path892"
       inkscape:connector-curvature="0" />
    <path
       style="fill:none;stroke:#000000;stroke-width:0.5;stroke-linecap:round;stroke-linejoin:round;stroke-miterlimit:4;stroke-dasharray:none;stroke-opacity:1"
       d="m 172.7589,121.97637 c 0.18497,2.07582 0.51381,3.80224 1.31537,4.72711"
       id="path894"
       inkscape:connector-curvature="0" />
    <path
       style="fill:none;stroke:#000000;stroke-width:0.5;stroke-linecap:round;stroke-linejoin:round;stroke-miterlimit:4;stroke-dasharray:none;stroke-opacity:1"
       d="m 175.45129,123.82611 c 1.29483,0.0411 1.99362,1.89084 0.3083,2.3841 -1.68532,0.49327 -1.37703,-2.01415 -0.53437,-2.17858"
       id="path896"
       inkscape:connector-curvature="0" />
    <path
       style="fill:none;stroke:#000000;stroke-width:0.5;stroke-linecap:round;stroke-linejoin:round;stroke-miterlimit:4;stroke-dasharray:none;stroke-opacity:1"
       d="m 142.13769,123.02019 c -0.4489,0.43526 -0.55596,3.30103 1.39518,3.38498 1.95113,0.084 1.68657,-3.37127 1.47329,-3.4374 -0.2133,-0.0662 -0.16242,2.44113 0.87471,3.29708"
       id="path908"
       inkscape:connector-curvature="0" />
    <path
       style="fill:none;stroke:#000000;stroke-width:0.5;stroke-linecap:round;stroke-linejoin:round;stroke-miterlimit:4;stroke-dasharray:none;stroke-opacity:1"
       d="m 184.50944,116.10064 c -0.13839,-0.6484 -3.58316,-1.35159 -4.29718,1.22763 -0.71397,2.57918 1.51251,3.20233 2.7388,3.38077 1.22631,0.17845 2.40024,-0.22161 2.43321,-0.32"
       id="path916"
       inkscape:connector-curvature="0" />
    <path
       style="fill:none;stroke:#000000;stroke-width:0.5;stroke-linecap:round;stroke-linejoin:round;stroke-miterlimit:4;stroke-dasharray:none;stroke-opacity:1"
       d="m 182.72145,115.72024 0.066,4.7424"
       id="path918"
       inkscape:connector-curvature="0" />
    <ellipse
       style="opacity:1;fill:none;fill-opacity:1;stroke:#f59b26;stroke-width:0.7;stroke-linecap:round;stroke-linejoin:round;stroke-miterlimit:4;stroke-dasharray:none;stroke-dashoffset:0;stroke-opacity:1;paint-order:stroke markers fill"
       id="path990"
       cx="87.711426"
       cy="190.42543"
       rx="29.059826"
       ry="28.778605" />
    <path
       style="fill:none;stroke:#f59b26;stroke-width:0.6;stroke-linecap:round;stroke-linejoin:round;stroke-opacity:1;stroke-miterlimit:4;stroke-dasharray:none"
       d="m 111.42851,185.41407 c 0.85045,-0.89769 3.30729,-3.30729 12.85119,-6.09486"
       id="path992"
       inkscape:connector-curvature="0" />
    <path
       style="fill:none;stroke:#f59b26;stroke-width:0.6;stroke-linecap:round;stroke-linejoin:round;stroke-opacity:1;stroke-miterlimit:4;stroke-dasharray:none"
       d="m 128.81542,179.64994 -1.08669,-2.85845"
       id="path994"
       inkscape:connector-curvature="0" />
    <path
       style="fill:none;stroke:#f59b26;stroke-width:0.6;stroke-linecap:round;stroke-linejoin:round;stroke-opacity:1;stroke-miterlimit:4;stroke-dasharray:none"
       d="m 127.23264,177.28759 c 0.49609,-0.4961 1.13393,-1.37017 2.43322,-1.2048 1.2993,0.16536 0.92132,1.03943 0.73233,1.25204 -0.18899,0.21262 -1.81901,1.25205 -1.81901,1.25205 0,0 2.10249,-0.0236 2.36235,0.68508 0.25986,0.70871 0.0472,1.91351 -0.99218,1.7009 -1.03944,-0.21262 -1.18118,-0.23624 -1.74814,-1.08669"
       id="path998"
       inkscape:connector-curvature="0" />
    <path
       style="fill:none;stroke:#f59b26;stroke-width:0.6;stroke-linecap:round;stroke-linejoin:round;stroke-opacity:1;stroke-miterlimit:4;stroke-dasharray:none"
       d="m 131.8156,179.24834 c 0.33073,0.7087 0.94494,1.5119 0.75595,1.63002 -0.18898,0.11812 -0.66145,-1.41741 -0.66145,-1.41741 0,0 0.87407,-0.63783 1.41741,-0.56696"
       id="path1000"
       inkscape:connector-curvature="0" />
    <path
       style="fill:none;stroke:#f59b26;stroke-width:0.6;stroke-linecap:round;stroke-linejoin:round;stroke-opacity:1;stroke-miterlimit:4;stroke-dasharray:none"
       d="m 136.89466,179.98067 c -1.06306,-0.96857 -2.12612,-2.5041 -0.59059,-4.65384"
       id="path1002"
       inkscape:connector-curvature="0" />
    <path
       style="fill:none;stroke:#f59b26;stroke-width:0.6;stroke-linecap:round;stroke-linejoin:round;stroke-opacity:1;stroke-miterlimit:4;stroke-dasharray:none"
       d="m 137.65061,177.02773 c 0,0 1.53553,-0.30711 1.70089,-0.11812 0.16537,0.18899 -1.53553,1.44103 -1.18117,2.17336 0.35435,0.73233 1.1103,0.47248 1.29929,0.51972"
       id="path1004"
       inkscape:connector-curvature="0" />
    <path
       style="fill:none;stroke:#f59b26;stroke-width:0.6;stroke-linecap:round;stroke-linejoin:round;stroke-opacity:1;stroke-miterlimit:4;stroke-dasharray:none"
       d="m 137.36713,178.46876 2.62221,-0.11812"
       id="path1006"
       inkscape:connector-curvature="0" />
    <path
       style="fill:none;stroke:#000000;stroke-width:0.5;stroke-linecap:butt;stroke-linejoin:miter;stroke-opacity:1;stroke-miterlimit:4;stroke-dasharray:none"
       d="m 107.97844,148.68057 c -1.83747,-3.67496 -3.30746,-8.21854 -8.753075,-6.5481 -5.445617,1.67043 -2.572469,8.15172 -1.703842,10.22306 0.868627,2.07134 1.302938,4.14267 -0.701583,5.67947 -2.004523,1.53681 -3.912261,3.1886 -9.109434,2.95236 -5.197174,-0.23623 -12.142486,-1.79538 -17.008928,-1.46465 -4.866444,0.33073 -11.622768,1.22842 -17.528646,7.37053 -5.905878,6.14212 -7.843006,15.68601 -6.756324,22.63133 1.086681,6.94531 5.71689,14.41034 10.961309,19.27678 5.244419,4.86645 15.780505,8.59896 22.584078,10.11087 6.80357,1.5119 19.229538,3.87425 27.734005,3.68526 8.50446,-0.18899 21.664,-0.15052 33.5575,-3.75866 11.89349,-3.60814 26.72695,-12.56166 29.39965,-20.04521 2.67269,-7.48355 1.48779,-9.31629 -4.13461,-10.92269 -5.62239,-1.6064 -23.62718,2.06788 -28.91518,1.70089 -1.52962,-0.10616 -5.03613,-0.0658 -9.07857,-0.86763 -5.41221,-1.73725 -10.79101,-6.08038 -11.86009,-11.1585 -1.06907,-5.07812 8.85331,-9.65511 10.95805,-10.69078 2.10475,-1.03567 25.32379,-6.81537 30.66918,-14.43255 5.34539,-7.61719 5.94675,-11.49259 0.13364,-16.63753 -5.81312,-5.14494 -11.29214,-6.34765 -19.77795,-5.14494 -8.48581,1.20271 -12.62849,4.47676 -16.30344,12.96257 -3.67496,8.48581 -4.74403,10.95805 -7.55036,11.1585 -2.80633,0.20046 -5.81312,-3.94222 -6.81538,-6.08038 z"
       id="path1018"
       inkscape:connector-curvature="0"
       sodipodi:nodetypes="ccsccsssccsscsscccsssscc" />
    <path
       style="fill:none;stroke:#f59b26;stroke-width:0.6;stroke-linecap:round;stroke-linejoin:round;stroke-opacity:1;stroke-miterlimit:4;stroke-dasharray:none"
       d="m 141.69023,178.18528 c 0.70871,0.37798 1.29929,1.65365 0.0472,1.79539 -1.25205,0.14174 -0.59059,-1.55915 -0.0472,-1.79539 z"
       id="path1008"
       inkscape:connector-curvature="0" />
    <path
       style="fill:none;stroke:#f59b26;stroke-width:0.6;stroke-linecap:round;stroke-linejoin:round;stroke-opacity:1;stroke-miterlimit:4;stroke-dasharray:none"
       d="m 143.88722,179.9098 c 0.63783,-1.32292 1.29929,-2.26786 0.0236,-5.43341"
       id="path1010"
       inkscape:connector-curvature="0" />
    <path
       style="fill:none;stroke:#f59b26;stroke-width:0.6;stroke-linecap:round;stroke-linejoin:round;stroke-opacity:1;stroke-miterlimit:4;stroke-dasharray:none"
       d="m 150.9034,175.44495 c -1.22842,-0.11812 -2.83482,0.92132 -2.74033,1.84264 0.0945,0.92131 1.27567,1.25204 2.78758,1.01581"
       id="path1012"
       inkscape:connector-curvature="0" />
    <path
       style="fill:none;stroke:#f59b26;stroke-width:0.6;stroke-linecap:round;stroke-linejoin:round;stroke-opacity:1;stroke-miterlimit:4;stroke-dasharray:none"
       d="m 153.40749,174.50001 c -0.4016,1.63003 -0.68508,2.74033 0.23624,3.35454 0.92131,0.61421 2.17336,-0.49609 2.19698,-1.2048 0.0236,-0.7087 0.44885,-2.36235 0.18899,-2.36235 -0.25986,0 -0.75595,2.14974 0.42522,3.80339"
       id="path1014"
       inkscape:connector-curvature="0" />
    <path
       style="fill:none;stroke:#f59b26;stroke-width:0.6;stroke-linecap:round;stroke-linejoin:round;stroke-opacity:1;stroke-miterlimit:4;stroke-dasharray:none"
       d="m 126.76017,174.07479 c 3.96875,-0.23624 4.53572,-0.73233 8.88244,-1.13393 4.34673,-0.4016 6.16574,-0.70871 7.15793,-0.21261"
       id="path1016"
       inkscape:connector-curvature="0" />
    <path
       style="fill:none;stroke:#000000;stroke-width:0.5;stroke-linecap:round;stroke-linejoin:round;stroke-opacity:1;stroke-miterlimit:4;stroke-dasharray:none"
       d="m 89.978363,188.53238 c 0.637834,-0.4016 1.582775,-0.4016 1.700893,-0.28348 0.118118,0.11811 -1.819011,2.36235 -1.630022,2.64583 0.188987,0.28348 1.299292,0.25986 1.299292,0.25986"
       id="path1020"
       inkscape:connector-curvature="0" />
    <path
       style="fill:none;stroke:#000000;stroke-width:0.5;stroke-linecap:round;stroke-linejoin:round;stroke-opacity:1;stroke-miterlimit:4;stroke-dasharray:none"
       d="m 89.364151,190.02066 c 0.755952,-0.16536 1.960753,-0.21261 1.960753,-0.21261"
       id="path1022"
       inkscape:connector-curvature="0" />
    <path
       style="fill:none;stroke:#000000;stroke-width:0.5;stroke-linecap:round;stroke-linejoin:round;stroke-opacity:1;stroke-miterlimit:4;stroke-dasharray:none"
       d="m 93.356526,190.94198 c -0.519718,0.35435 -0.779576,1.37016 0.779576,1.13392 1.55915,-0.23623 -0.118118,-1.39378 -0.779576,-1.13392 z"
       id="path1024"
       inkscape:connector-curvature="0" />
    <ellipse
       style="opacity:1;fill:#000000;fill-opacity:1;stroke:none;stroke-width:0.5869565;stroke-linecap:round;stroke-linejoin:round;stroke-miterlimit:4;stroke-dasharray:none;stroke-dashoffset:0;stroke-opacity:1;paint-order:stroke markers fill"
       id="path1026"
       cx="87.233925"
       cy="189.28835"
       rx="0.61010289"
       ry="0.63783485" />
    <path
       style="fill:none;stroke:#000000;stroke-width:0.5;stroke-linecap:round;stroke-linejoin:round;stroke-opacity:1;stroke-miterlimit:4;stroke-dasharray:none"
       d="m 93.044757,225.40363 c 0.434313,0.46772 -0.05011,3.842 0.434313,4.81085"
       id="path1028"
       inkscape:connector-curvature="0" />
    <path
       style="fill:none;stroke:#000000;stroke-width:0.5;stroke-linecap:round;stroke-linejoin:round;stroke-opacity:1;stroke-miterlimit:4;stroke-dasharray:none"
       d="m 95.81768,225.92146 c -0.501131,0.91874 -0.985557,1.63703 -1.469982,1.93771 -0.484426,0.30068 -0.935445,0.41761 -0.935445,0.41761 0,0 1.219419,0.16704 2.372018,1.5702"
       id="path1030"
       inkscape:connector-curvature="0" />
    <path
       style="fill:none;stroke:#000000;stroke-width:0.5;stroke-linecap:round;stroke-linejoin:round;stroke-opacity:1;stroke-miterlimit:4;stroke-dasharray:none"
       d="m 97.571635,228.12644 c -1.135896,0.51783 -1.820773,1.95441 0.05012,2.42213 1.870884,0.46772 1.319641,-2.45554 -0.05012,-2.42213 z"
       id="path1032"
       inkscape:connector-curvature="0" />
    <path
       style="fill:none;stroke:#000000;stroke-width:0.5;stroke-linecap:round;stroke-linejoin:round;stroke-opacity:1;stroke-miterlimit:4;stroke-dasharray:none"
       d="m 99.475931,228.10973 c 0.400905,1.18601 0.467722,2.40543 0.467722,2.40543 0,0 -0.150339,-2.42213 0.785107,-2.2885 0.93261,0.13364 0.3286,1.93771 0.96885,2.43884"
       id="path1034"
       inkscape:connector-curvature="0"
       sodipodi:nodetypes="cccc" />
    <path
       style="fill:none;stroke:#000000;stroke-width:0.5;stroke-linecap:round;stroke-linejoin:round;stroke-opacity:1;stroke-miterlimit:4;stroke-dasharray:none"
       d="m 102.08181,228.00951 c 0.3675,1.46998 1.30294,2.42213 1.45328,2.57247 0.15034,0.15033 0.41761,-2.20498 0.26727,-2.52236"
       id="path1036"
       inkscape:connector-curvature="0" />
    <path
       style="fill:none;stroke:#000000;stroke-width:0.5;stroke-linecap:round;stroke-linejoin:round;stroke-opacity:1;stroke-miterlimit:4;stroke-dasharray:none"
       d="m 104.82132,228.66098 c 0.80181,0.70158 2.23838,0.51783 1.57021,-0.56795 -0.66817,-1.08578 -1.95441,-0.0334 -1.87089,0.95215 0.13363,1.1359 0.68488,1.5368 1.5034,1.43657 0.81851,-0.10023 0.76839,-0.50113 0.76839,-0.50113"
       id="path1038"
       inkscape:connector-curvature="0"
       sodipodi:nodetypes="csccc" />
    <path
       style="fill:none;stroke:#000000;stroke-width:0.5;stroke-linecap:round;stroke-linejoin:round;stroke-opacity:1;stroke-miterlimit:4;stroke-dasharray:none"
       d="m 107.31027,228.04292 c 0,0 0.80181,2.55576 0.51783,2.58917 -0.28397,0.0334 -0.13363,-2.07134 -0.13363,-2.07134 0,0 1.33635,-0.58465 1.72055,-0.23386"
       id="path1040"
       inkscape:connector-curvature="0" />
    <path
       style="fill:none;stroke:#000000;stroke-width:0.5;stroke-linecap:round;stroke-linejoin:round;stroke-opacity:1;stroke-miterlimit:4;stroke-dasharray:none"
       d="m 112.12112,228.54405 c -0.80181,-0.78511 -2.57247,0.28397 -1.95441,1.33634 0.61806,1.05238 2.20498,0.3675 2.2885,-0.23386 0.0835,-0.60135 0.20045,-0.98555 0.0334,-1.00226 -0.16705,-0.0167 0.0334,3.80859 -0.40091,4.30972 -0.43431,0.50113 -1.58691,1.73726 -1.90429,-0.0501 -0.31739,-1.78736 0.31738,-1.87088 0.31738,-1.87088"
       id="path1042"
       inkscape:connector-curvature="0"
       sodipodi:nodetypes="ccccscc" />
    <path
       style="fill:none;stroke:#000000;stroke-width:0.5;stroke-linecap:round;stroke-linejoin:round;stroke-opacity:1;stroke-miterlimit:4;stroke-dasharray:none"
       d="m 113.65792,228.57746 c 1.23612,0.16704 2.27179,0.36749 2.22168,-0.26727 -0.0501,-0.63477 -0.86863,-1.41987 -1.46999,-1.01897 -0.60135,0.40091 -1.33634,1.72055 -0.10022,2.55576 1.23612,0.83522 1.73725,0.0334 1.73725,0.0334"
       id="path1044"
       inkscape:connector-curvature="0" />
    <path
       style="fill:none;stroke:#000000;stroke-width:0.5;stroke-linecap:round;stroke-linejoin:round;stroke-opacity:1;stroke-miterlimit:4;stroke-dasharray:none"
       d="m 116.68141,227.74224 c 0.13363,0.58465 0.3842,2.6894 0.30067,2.72281 -0.0835,0.0334 -0.0835,-2.17157 -0.0835,-2.17157 0,0 0.96885,-1.28623 1.85418,-0.0167 0.15035,1.26952 -0.11693,2.20497 -0.11693,2.20497"
       id="path1046"
       inkscape:connector-curvature="0"
       sodipodi:nodetypes="ccccc" />
    <path
       style="fill:none;stroke:#000000;stroke-width:0.5;stroke-linecap:round;stroke-linejoin:round;stroke-opacity:1;stroke-miterlimit:4;stroke-dasharray:none"
       d="m 119.7383,227.95939 c 0.68488,-0.4176 1.80407,-0.7684 1.97112,-0.4176 0.16704,0.35079 -1.62033,1.78736 -1.18601,2.25508 0.43431,0.46772 1.40316,0.21716 1.5535,0.16705"
       id="path1048"
       inkscape:connector-curvature="0" />
    <path
       style="fill:none;stroke:#000000;stroke-width:0.5;stroke-linecap:round;stroke-linejoin:round;stroke-opacity:1;stroke-miterlimit:4;stroke-dasharray:none"
       d="m 119.7383,228.87813 c 0,0 2.10475,-0.18374 2.45554,-0.0334"
       id="path1050"
       inkscape:connector-curvature="0" />
    <path
       style="fill:none;stroke:#000000;stroke-width:0.5;stroke-linecap:round;stroke-linejoin:round;stroke-opacity:1;stroke-miterlimit:4;stroke-dasharray:none"
       d="m 122.8119,227.74224 c 0.33409,0.63476 1.01897,2.6894 0.71829,2.60588 -0.30068,-0.0835 -0.46772,-1.41987 -0.43432,-1.67044 0.0334,-0.25056 1.30295,-0.68488 1.53681,-0.53454"
       id="path1052"
       inkscape:connector-curvature="0" />
    <path
       style="fill:none;stroke:#000000;stroke-width:0.5;stroke-linecap:round;stroke-linejoin:round;stroke-opacity:1;stroke-miterlimit:4;stroke-dasharray:none"
       d="m 126.05254,228.54405 c -0.96885,-0.3842 -2.18826,-0.0167 -1.83747,1.26953 0.35079,1.28623 1.97111,0.50113 1.98781,0.23386 0.0167,-0.26727 0.10023,-1.83748 0,-1.73725 -0.10022,0.10022 -0.53454,1.43657 0.83522,2.47224"
       id="path1054"
       inkscape:connector-curvature="0" />
    <path
       style="fill:none;stroke:#000000;stroke-width:0.5;stroke-linecap:round;stroke-linejoin:round;stroke-opacity:1;stroke-miterlimit:4;stroke-dasharray:none"
       d="m 128.84217,228.82802 c -0.55124,-0.46772 -1.78736,-0.81851 -1.73725,0.10023 0.0501,0.91873 1.10249,2.58917 1.78736,1.11919 0.68488,-1.46998 0.68488,-4.2095 0.51784,-4.14268 -0.16705,0.0668 -0.30068,3.89211 0.26727,5.0113"
       id="path1056"
       inkscape:connector-curvature="0" />
    <path
       style="fill:none;stroke:#000000;stroke-width:0.5;stroke-linecap:round;stroke-linejoin:round;stroke-opacity:1;stroke-miterlimit:4;stroke-dasharray:none"
       d="m 132.7844,226.35578 c -0.68488,0.55124 -2.35532,2.90655 -0.3675,4.32642"
       id="path1058"
       inkscape:connector-curvature="0" />
    <path
       style="fill:none;stroke:#000000;stroke-width:0.5;stroke-linecap:round;stroke-linejoin:round;stroke-opacity:1;stroke-miterlimit:4;stroke-dasharray:none"
       d="m 133.9537,227.92599 c 0.13363,0.8018 0.66817,3.32416 0.53454,3.44109 -0.13364,0.11693 -0.30068,-2.62258 -0.13364,-2.85644 0.16705,-0.23386 2.43884,-1.11919 2.52236,-0.0167 0.0835,1.10249 -1.90429,1.921 -2.47224,0.58465"
       id="path1060"
       inkscape:connector-curvature="0" />
    <path
       style="fill:none;stroke:#000000;stroke-width:0.5;stroke-linecap:round;stroke-linejoin:round;stroke-opacity:1;stroke-miterlimit:4;stroke-dasharray:none"
       d="m 138.5474,225.98828 c 0.35079,0.93544 1.01896,3.0736 -0.83522,4.49347"
       id="path1062"
       inkscape:connector-curvature="0" />
    <path
       style="fill:none;stroke:#000000;stroke-width:0.5;stroke-linecap:round;stroke-linejoin:round;stroke-opacity:1;stroke-miterlimit:4;stroke-dasharray:none"
       d="m 140.45169,226.13862 c 1.03567,0.3842 2.50565,0.70158 2.50565,0.98556 0,0.28397 -2.27179,1.38646 -2.27179,1.38646"
       id="path1064"
       inkscape:connector-curvature="0" />
    <path
       style="fill:none;stroke:#000000;stroke-width:0.5;stroke-linecap:round;stroke-linejoin:round;stroke-opacity:1;stroke-miterlimit:4;stroke-dasharray:none"
       d="m 143.27472,228.3603 c -0.10022,0.0668 -2.50565,1.77066 -2.50565,1.77066"
       id="path1066"
       inkscape:connector-curvature="0" />
    <path
       style="fill:none;stroke:#000000;stroke-width:0.5;stroke-linecap:round;stroke-linejoin:round;stroke-opacity:1;stroke-miterlimit:4;stroke-dasharray:none"
       d="m 146.11446,229.94721 c 0.93545,-1.33635 1.85418,-5.02801 2.02123,-5.12823 0.16704,-0.10023 1.60362,3.79188 1.63702,4.37654 0.0334,0.58465 0.20046,0.91874 -0.0835,1.11919"
       id="path1068"
       inkscape:connector-curvature="0" />
    <path
       style="fill:none;stroke:#000000;stroke-width:0.5;stroke-linecap:round;stroke-linejoin:round;stroke-opacity:1;stroke-miterlimit:4;stroke-dasharray:none"
       d="m 147.11672,228.42712 c 0,0 1.83748,-0.0334 2.15487,-0.40091"
       id="path1070"
       inkscape:connector-curvature="0" />
    <path
       style="fill:none;stroke:#000000;stroke-width:0.5;stroke-linecap:round;stroke-linejoin:round;stroke-opacity:1;stroke-miterlimit:4;stroke-dasharray:none"
       d="m 150.59123,225.45374 c 0.53454,0.18375 0.43431,3.37428 0.41761,3.70837 -0.0167,0.33408 0,-1.88759 1.33634,-1.36976 1.33635,0.51784 0.16705,2.33861 -0.50113,2.15486 -0.66817,-0.18375 -0.7684,-0.85192 -0.7684,-0.85192"
       id="path1072"
       inkscape:connector-curvature="0" />
    <path
       style="fill:none;stroke:#000000;stroke-width:0.5;stroke-linecap:round;stroke-linejoin:round;stroke-opacity:1;stroke-miterlimit:4;stroke-dasharray:none"
       d="m 155.13481,227.29122 c -0.3842,-0.4009 -1.82078,-0.4009 -0.91874,0.71829 0.90203,1.11919 0.53454,1.67043 -0.0167,1.68714 -0.55125,0.0167 -0.85193,-0.0167 -0.80181,-0.3842"
       id="path1074"
       inkscape:connector-curvature="0" />
    <path
       style="fill:none;stroke:#000000;stroke-width:0.5;stroke-linecap:round;stroke-linejoin:round;stroke-opacity:1;stroke-miterlimit:4;stroke-dasharray:none"
       d="m 156.33752,224.31785 c 0.0167,0.26727 0.70159,4.92778 0.30068,5.34539"
       id="path1076"
       inkscape:connector-curvature="0" />
    <path
       style="fill:none;stroke:#000000;stroke-width:0.5;stroke-linecap:round;stroke-linejoin:round;stroke-opacity:1;stroke-miterlimit:4;stroke-dasharray:none"
       d="m 155.36867,228.09303 c 0.0668,0.0167 1.98782,-0.0668 1.98782,-0.0668"
       id="path1078"
       inkscape:connector-curvature="0" />
    <path
       style="fill:none;stroke:#000000;stroke-width:0.5;stroke-linecap:round;stroke-linejoin:round;stroke-opacity:1;stroke-miterlimit:4;stroke-dasharray:none"
       d="m 160.096,228.20996 c -0.26727,-0.56795 -1.72055,-1.36976 -2.25509,0.90203 -0.53453,2.27179 2.95667,0.3508 2.65599,-0.23386 -0.30067,-0.58465 0.0668,-1.21941 0.0668,-1.21941 0,0 -0.53454,1.11919 0.51784,1.87088"
       id="path1080"
       inkscape:connector-curvature="0" />
    <path
       style="fill:none;stroke:#000000;stroke-width:0.5;stroke-linecap:round;stroke-linejoin:round;stroke-opacity:1;stroke-miterlimit:4;stroke-dasharray:none"
       d="m 161.96689,227.34133 c 0.13363,0.61806 0.71828,2.07134 0.45102,2.22168 -0.26728,0.15034 0.0668,-1.00226 0.28397,-1.31964 0.21715,-0.31738 1.5368,-2.03793 1.85418,1.25282"
       id="path1082"
       inkscape:connector-curvature="0" />
    <path
       style="fill:none;stroke:#000000;stroke-width:0.5;stroke-linecap:round;stroke-linejoin:round;stroke-opacity:1;stroke-miterlimit:4;stroke-dasharray:none"
       d="m 167.0283,228.10973 c -0.7851,-0.48442 -1.57021,-0.75169 -1.62032,0.30068 -0.0501,1.05238 1.46999,2.37202 2.08804,0.80181 0.61807,-1.57021 0.61807,-3.59143 0.3508,-3.49121 -0.26727,0.10023 -0.53454,2.78963 0.36749,4.00904"
       id="path1084"
       inkscape:connector-curvature="0" />
    <path
       style="fill:none;stroke:#000000;stroke-width:0.5;stroke-linecap:round;stroke-linejoin:round;stroke-opacity:1;stroke-miterlimit:4;stroke-dasharray:none"
       d="m 173.47618,225.03613 c -0.46772,0.50113 -2.60588,4.54359 0.63477,6.19732"
       id="path1086"
       inkscape:connector-curvature="0" />
    <path
       style="fill:none;stroke:#000000;stroke-width:0.5;stroke-linecap:round;stroke-linejoin:round;stroke-opacity:1;stroke-miterlimit:4;stroke-dasharray:none"
       d="m 175.24684,227.5919 c 0.73499,-0.20045 2.03793,-0.43432 2.12145,-0.21716 0.0835,0.21716 -1.98781,2.10475 -1.40316,2.70611 0.58465,0.60135 1.10248,0.26727 1.21941,0.20045"
       id="path1088"
       inkscape:connector-curvature="0" />
    <path
       style="fill:none;stroke:#000000;stroke-width:0.5;stroke-linecap:round;stroke-linejoin:round;stroke-opacity:1;stroke-miterlimit:4;stroke-dasharray:none"
       d="m 174.72901,229.16211 3.14041,-0.0167"
       id="path1090"
       inkscape:connector-curvature="0" />
    <path
       style="fill:none;stroke:#000000;stroke-width:0.5;stroke-linecap:round;stroke-linejoin:round;stroke-opacity:1;stroke-miterlimit:4;stroke-dasharray:none"
       d="m 178.83827,229.39597 c -0.50112,0.30068 -0.21715,2.15486 0.735,1.33634 0.95214,-0.81851 -0.28398,-1.35305 -0.46773,-1.31964"
       id="path1092"
       inkscape:connector-curvature="0" />
    <path
       style="fill:none;stroke:#000000;stroke-width:0.5;stroke-linecap:round;stroke-linejoin:round;stroke-opacity:1;stroke-miterlimit:4;stroke-dasharray:none"
       d="m 182.88073,229.21222 c -0.0167,0.50113 -0.46773,1.9043 -0.60136,2.15486"
       id="path1094"
       inkscape:connector-curvature="0" />
    <path
       style="fill:none;stroke:#000000;stroke-width:0.5;stroke-linecap:round;stroke-linejoin:round;stroke-opacity:1;stroke-miterlimit:4;stroke-dasharray:none"
       d="m 188.19271,226.22214 c -0.3675,-0.43431 -3.17383,0.20045 -3.09031,2.23839 0.0835,2.03792 4.25961,2.57247 3.87541,0.63476"
       id="path1096"
       inkscape:connector-curvature="0" />
    <path
       style="fill:none;stroke:#000000;stroke-width:0.5;stroke-linecap:round;stroke-linejoin:round;stroke-opacity:1;stroke-miterlimit:4;stroke-dasharray:none"
       d="m 186.40535,226.62305 0.30067,3.4745"
       id="path1098"
       inkscape:connector-curvature="0" />
    <path
       style="fill:none;stroke:#000000;stroke-width:0.5;stroke-linecap:round;stroke-linejoin:round;stroke-opacity:1;stroke-miterlimit:4;stroke-dasharray:none"
       d="m 189.74621,225.38692 c 0.66818,0.56795 3.97564,3.77519 4.15938,4.35984"
       id="path1102"
       inkscape:connector-curvature="0" />
    <path
       style="fill:none;stroke:#000000;stroke-width:0.5;stroke-linecap:round;stroke-linejoin:round;stroke-opacity:1;stroke-miterlimit:4;stroke-dasharray:none"
       d="m 196.17739,225.2867 c -0.3508,0.0835 -1.70385,2.3052 -0.0835,3.34087 1.62032,1.03567 2.00452,-0.61806 2.12145,-1.05237 0.11693,-0.43432 0.13363,-1.83748 -0.0835,-1.78737 -0.21715,0.0501 -0.35079,2.63929 1.60362,3.39098"
       id="path1106"
       inkscape:connector-curvature="0" />
    <path
       style="fill:none;stroke:#000000;stroke-width:0.5;stroke-linecap:round;stroke-linejoin:round;stroke-opacity:1;stroke-miterlimit:4;stroke-dasharray:none"
       d="m 200.50381,224.38466 c 0.35079,0.10023 2.80633,3.15713 -0.43431,6.46459"
       id="path1108"
       inkscape:connector-curvature="0" />
  </g>
</svg>
