<?xml version="1.0" encoding="UTF-8" standalone="no"?>
<!-- Created with Inkscape (http://www.inkscape.org/) -->
<svg xmlns:dc="http://purl.org/dc/elements/1.1/" xmlns:cc="http://creativecommons.org/ns#" xmlns:rdf="http://www.w3.org/1999/02/22-rdf-syntax-ns#" xmlns:svg="http://www.w3.org/2000/svg" xmlns="http://www.w3.org/2000/svg" xmlns:sodipodi="http://sodipodi.sourceforge.net/DTD/sodipodi-0.dtd" xmlns:inkscape="http://www.inkscape.org/namespaces/inkscape" width="330.65527" height="360.96542" id="svg2" sodipodi:version="0.32" inkscape:version="0.48.0 r9654" version="1.0" sodipodi:docname="Beziehungen_zwischen_mathematischen_Räumen3.svg" inkscape:output_extension="org.inkscape.output.svg.inkscape">
  <defs id="defs4">
    <marker inkscape:stockid="Arrow1Mend" orient="auto" refY="0" refX="0" id="Arrow1Mend" style="overflow: visible;">
      <path id="path3247" d="M 0,0 L 5,-5 L -12.5,0 L 5,5 L 0,0 z" style="fill-rule: evenodd; stroke: rgb(0, 0, 0); stroke-width: 1pt; marker-start: none;" transform="matrix(-0.4, 0, 0, -0.4, -4, 0)"/>
    </marker>
    <marker inkscape:stockid="Arrow1Lend" orient="auto" refY="0" refX="0" id="Arrow1Lend" style="overflow: visible;">
      <path id="path3241" d="M 0,0 L 5,-5 L -12.5,0 L 5,5 L 0,0 z" style="fill-rule: evenodd; stroke: rgb(0, 0, 0); stroke-width: 1pt; marker-start: none;" transform="matrix(-0.8, 0, 0, -0.8, -10, 0)"/>
    </marker>
    <inkscape:perspective sodipodi:type="inkscape:persp3d" inkscape:vp_x="0 : 526.18109 : 1" inkscape:vp_y="0 : 1000 : 0" inkscape:vp_z="744.09448 : 526.18109 : 1" inkscape:persp3d-origin="372.04724 : 350.78739 : 1" id="perspective10"/>
    <marker inkscape:stockid="Arrow1Mend" orient="auto" refY="0" refX="0" id="Arrow1Mend-7" style="overflow: visible;">
      <path inkscape:connector-curvature="0" id="path3247-0" d="M 0,0 5,-5 -12.5,0 5,5 0,0 z" style="fill-rule: evenodd; stroke: rgb(0, 0, 0); stroke-width: 1pt; marker-start: none;" transform="matrix(-0.4, 0, 0, -0.4, -4, 0)"/>
    </marker>
    <marker inkscape:stockid="Arrow1Mend" orient="auto" refY="0" refX="0" id="Arrow1Mend-0" style="overflow: visible;">
      <path inkscape:connector-curvature="0" id="path3247-6" d="M 0,0 5,-5 -12.5,0 5,5 0,0 z" style="fill-rule: evenodd; stroke: rgb(0, 0, 0); stroke-width: 1pt; marker-start: none;" transform="matrix(-0.4, 0, 0, -0.4, -4, 0)"/>
    </marker>
    <marker inkscape:stockid="Arrow1Mend" orient="auto" refY="0" refX="0" id="Arrow1Mend-0-7" style="overflow: visible;">
      <path inkscape:connector-curvature="0" id="path3247-6-5" d="M 0,0 5,-5 -12.5,0 5,5 0,0 z" style="fill-rule: evenodd; stroke: rgb(0, 0, 0); stroke-width: 1pt; marker-start: none;" transform="matrix(-0.4, 0, 0, -0.4, -4, 0)"/>
    </marker>
    <marker inkscape:stockid="Arrow1Mend" orient="auto" refY="0" refX="0" id="Arrow1Mend-0-2" style="overflow: visible;">
      <path inkscape:connector-curvature="0" id="path3247-6-7" d="M 0,0 5,-5 -12.5,0 5,5 0,0 z" style="fill-rule: evenodd; stroke: rgb(0, 0, 0); stroke-width: 1pt; marker-start: none;" transform="matrix(-0.4, 0, 0, -0.4, -4, 0)"/>
    </marker>
  </defs>
  <sodipodi:namedview id="base" pagecolor="#ffffff" bordercolor="#666666" borderopacity="1.0" inkscape:pageopacity="0.0" inkscape:pageshadow="2" inkscape:zoom="2.2993892" inkscape:cx="84.654041" inkscape:cy="225.73411" inkscape:document-units="px" inkscape:current-layer="layer1" showgrid="true" gridtolerance="10000" guidetolerance="10000" inkscape:window-width="1920" inkscape:window-height="1018" inkscape:window-x="-8" inkscape:window-y="-8" inkscape:window-maximized="1">
    <inkscape:grid type="xygrid" id="grid3205" visible="true" enabled="false" empspacing="5" snapvisiblegridlinesonly="true"/>
  </sodipodi:namedview>
  <metadata id="metadata7">
    <rdf:RDF>
      <cc:Work rdf:about="">
        <dc:format>image/svg+xml</dc:format>
        <dc:type rdf:resource="http://purl.org/dc/dcmitype/StillImage"/>
      </cc:Work>
    </rdf:RDF>
  </metadata>
  <g inkscape:label="Ebene 1" inkscape:groupmode="layer" id="layer1" transform="translate(-169.509, -71.871)">
    <text xml:space="preserve" style="font-size: 12px; font-style: normal; font-variant: normal; font-weight: normal; font-stretch: normal; text-align: start; line-height: 100%; text-anchor: start; fill: rgb(0, 0, 0); fill-opacity: 1; stroke: none; font-family: Bitstream Vera Sans;" x="432" y="344.461" id="text5100" sodipodi:linespacing="100%"><tspan sodipodi:role="line" x="432" y="344.461" id="tspan3047">muss nicht</tspan><tspan sodipodi:role="line" x="432" y="356.461" id="tspan3137">abgeleitet</tspan><tspan sodipodi:role="line" x="432" y="368.461" id="tspan3139">sein von</tspan></text>
    <text xml:space="preserve" style="font-size: 12px; font-style: normal; font-variant: normal; font-weight: normal; font-stretch: normal; text-align: center; line-height: 100%; text-anchor: middle; fill: rgb(0, 0, 0); fill-opacity: 1; stroke: none; font-family: Bitstream Vera Sans;" x="208.101" y="357.211" id="text5106" sodipodi:linespacing="100%"><tspan sodipodi:role="line" id="tspan5108" x="208.101" y="357.211">induziert</tspan></text>
    <text xml:space="preserve" style="font-size: 12px; font-style: normal; font-variant: normal; font-weight: normal; font-stretch: normal; text-align: start; line-height: 100%; text-anchor: start; fill: rgb(0, 0, 0); fill-opacity: 1; stroke: none; font-family: Bitstream Vera Sans;" x="432" y="244.461" id="text5084" sodipodi:linespacing="100%"><tspan sodipodi:role="line" x="432" y="244.461" id="tspan3043">muss nicht</tspan><tspan sodipodi:role="line" x="432" y="256.461" id="tspan3131">abgeleitet</tspan><tspan sodipodi:role="line" x="432" y="268.461" id="tspan3133">sein von</tspan></text>
    <text xml:space="preserve" style="font-size: 12px; font-style: normal; font-variant: normal; font-weight: normal; font-stretch: normal; text-align: center; line-height: 100%; text-anchor: middle; fill: rgb(0, 0, 0); fill-opacity: 1; stroke: none; font-family: Bitstream Vera Sans;" x="208.101" y="257.211" id="text5090" sodipodi:linespacing="100%"><tspan sodipodi:role="line" id="tspan5092" x="208.101" y="257.211">induziert</tspan></text>
    <text xml:space="preserve" style="font-size: 12px; font-style: normal; font-variant: normal; font-weight: normal; font-stretch: normal; text-align: start; line-height: 100%; text-anchor: start; fill: rgb(0, 0, 0); fill-opacity: 1; stroke: none; font-family: Bitstream Vera Sans;" x="432" y="144.461" id="text5059" sodipodi:linespacing="100%"><tspan sodipodi:role="line" x="432" y="144.461" id="tspan3035">muss nicht</tspan><tspan sodipodi:role="line" x="432" y="156.461" id="tspan3127">abgeleitet</tspan><tspan sodipodi:role="line" x="432" y="168.461" id="tspan3039">sein von</tspan></text>
    <text xml:space="preserve" style="font-size: 12px; font-style: normal; font-variant: normal; font-weight: normal; font-stretch: normal; text-align: center; line-height: 100%; text-anchor: middle; fill: rgb(0, 0, 0); fill-opacity: 1; stroke: none; font-family: Bitstream Vera Sans;" x="208.101" y="157.211" id="text5065" sodipodi:linespacing="100%"><tspan sodipodi:role="line" id="tspan5067" x="208.101" y="157.211">induziert</tspan></text>
    <rect style="fill: rgb(204, 204, 204); fill-opacity: 1; stroke: rgb(0, 0, 0); stroke-width: 0.982449; stroke-miterlimit: 4; stroke-dasharray: none; stroke-opacity: 1;" id="rect3209" width="319.91061" height="59.982975" x="170" y="172.37921"/>
    <rect style="fill: rgb(204, 204, 204); fill-opacity: 1; stroke: rgb(0, 0, 0); stroke-width: 0.982449; stroke-miterlimit: 4; stroke-opacity: 1; stroke-dasharray: none;" id="rect2403" width="319.91061" height="59.982975" x="170" y="72.362183"/>
    <text xml:space="preserve" style="font-size: 20px; font-style: normal; font-variant: normal; font-weight: normal; font-stretch: normal; text-align: center; line-height: 125%; text-anchor: middle; fill: rgb(0, 0, 0); fill-opacity: 1; stroke: none; font-family: Bitstream Vera Sans;" x="329.96" y="95.3712" id="text2405" sodipodi:linespacing="125%"><tspan sodipodi:role="line" id="tspan2407" x="329.96" y="95.3712">Skalarprodukt</tspan><tspan sodipodi:role="line" x="329.96" y="120.371" id="tspan2409">(Euklidischer Raum)</tspan></text>
    <text xml:space="preserve" style="font-size: 20px; font-style: normal; font-variant: normal; font-weight: normal; font-stretch: normal; text-align: center; line-height: 100%; text-anchor: middle; fill: rgb(0, 0, 0); fill-opacity: 1; stroke: none; font-family: Bitstream Vera Sans;" x="329.828" y="198.65" id="text3187" sodipodi:linespacing="100%"><tspan sodipodi:role="line" id="tspan3189" x="329.828" y="198.65">Norm</tspan><tspan sodipodi:role="line" x="329.828" y="218.65" id="tspan3191">(Normierter Raum)</tspan></text>
    <rect style="fill: rgb(204, 204, 204); fill-opacity: 1; stroke: rgb(0, 0, 0); stroke-width: 0.982449; stroke-miterlimit: 4; stroke-opacity: 1; stroke-dasharray: none;" id="rect3207" width="319.91061" height="59.982975" x="170.08939" y="272.37921"/>
    <text xml:space="preserve" style="font-size: 20px; font-style: normal; font-variant: normal; font-weight: normal; font-stretch: normal; text-align: center; line-height: 100%; text-anchor: middle; fill: rgb(0, 0, 0); fill-opacity: 1; stroke: none; font-family: Bitstream Vera Sans;" x="329.918" y="298.65" id="text3193" sodipodi:linespacing="100%"><tspan sodipodi:role="line" id="tspan3195" x="329.918" y="298.65">Metrik</tspan><tspan sodipodi:role="line" x="329.918" y="318.65" id="tspan3197">(Metrischer Raum)</tspan></text>
    <rect style="fill: rgb(204, 204, 204); fill-opacity: 1; stroke: rgb(0, 0, 0); stroke-width: 0.982449; stroke-miterlimit: 4; stroke-opacity: 1; stroke-dasharray: none;" id="rect3211" width="319.91061" height="59.982975" x="170.0894" y="372.36218"/>
    <text xml:space="preserve" style="font-size: 20px; font-style: normal; font-variant: normal; font-weight: normal; font-stretch: normal; text-align: center; line-height: 100%; text-anchor: middle; fill: rgb(0, 0, 0); fill-opacity: 1; stroke: none; font-family: Bitstream Vera Sans;" x="330.928" y="397.871" id="text3199" sodipodi:linespacing="100%"><tspan sodipodi:role="line" id="tspan3201" x="330.928" y="397.871">Topologie</tspan><tspan sodipodi:role="line" x="330.928" y="417.871" id="tspan3203">(Topologischer Raum)</tspan></text>
    <path style="fill: none; stroke: rgb(0, 0, 0); stroke-width: 1px; stroke-linecap: butt; stroke-linejoin: miter; stroke-opacity: 1; marker-end: url(#Arrow1Mend);" d="m 237.95961,132.75669 0,37.83614" id="path3025" inkscape:connector-curvature="0"/>
    <path style="fill: none; stroke: rgb(0, 0, 0); stroke-width: 1px; stroke-linecap: butt; stroke-linejoin: miter; stroke-opacity: 1; marker-end: url(#Arrow1Mend);" d="m 237.95961,232.62571 0,37.83613" id="path3025-4" inkscape:connector-curvature="0"/>
    <path style="fill: none; stroke: rgb(0, 0, 0); stroke-width: 1px; stroke-linecap: butt; stroke-linejoin: miter; stroke-opacity: 1; marker-end: url(#Arrow1Mend);" d="m 237.95962,332.21737 0,37.83613" id="path3025-0" inkscape:connector-curvature="0"/>
    <path style="fill: none; stroke: rgb(0, 0, 0); stroke-width: 1; stroke-linecap: butt; stroke-linejoin: miter; stroke-miterlimit: 4; stroke-opacity: 1; stroke-dasharray: 6, 6; stroke-dashoffset: 0pt; marker-end: url(#Arrow1Mend-0);" d="m 423.75234,373.08085 0,-39.14083" id="path4210" inkscape:connector-curvature="0"/>
    <path style="fill: none; stroke: rgb(0, 0, 0); stroke-width: 1; stroke-linecap: butt; stroke-linejoin: miter; stroke-miterlimit: 4; stroke-opacity: 1; stroke-dasharray: 6, 6; stroke-dashoffset: 0pt; marker-end: url(#Arrow1Mend-0);" d="m 423.75234,272.29908 0,-39.14083" id="path4210-4" inkscape:connector-curvature="0"/>
    <path style="fill: none; stroke: rgb(0, 0, 0); stroke-width: 1; stroke-linecap: butt; stroke-linejoin: miter; stroke-miterlimit: 4; stroke-opacity: 1; stroke-dasharray: 6, 6; stroke-dashoffset: 0pt; marker-end: url(#Arrow1Mend-0);" d="m 423.75234,172.70742 0,-39.14083" id="path4210-9" inkscape:connector-curvature="0"/>
  </g>
</svg>