{
    "model_id": 415500341,
    "model_name": "Mathe-Maister",
    "deck_id": 88282272,
    "deck_description": "Analysis 3 bei Prof Dirk Blömker, WiSe 18/19, Uni Augsburg.\nFertigstellung vermutlich April 2019. Aber vielleicht erstmal ohne Lp-Räume.\n\nalex.m.s@gmx.de für Fragen und Änderungsvorschläge.\noder gitlab.com/CptMaister\n\nBesonderen Dank an Daniel, Markus, Michael, Pilex und Rainer!",
    "deck_name": " Mathe-Maister::Analysis III",
    "start_note_id": 671781316,
    "start_card_id": 700362207,
    "guid_random_string": "maPsa",
    "image_dir": "Analysis-III"
}
