{
    "model_id": 730105242,
    "model_name": "Mathe-Maister",
    "deck_id": 267752390,
    "deck_description": "Funktionentheorie bei Prof Marco Hien, SoSe 19, Uni Augsburg.\n\nalex.m.s@gmx.de für Fragen und Änderungsvorschläge.\noder gitlab.com/CptMaister\n\nBesonderen Dank an Alina und Ingo!",
    "deck_name": " Mathe-Maister::Funktionentheorie",
    "start_note_id": 42428008,
    "start_card_id": 734424734,
    "guid_random_string": "YapYu",
    "image_dir": "Funktionentheorie"
}
