Hallo Freund der Mathematik! Willkommen zum Geometrie I Deck! Das ist die Vorderseite einer Karte. Drücke mal auf den Knopf ganz unten.	Das ist die Rückseite einer Karte. Jetzt, wo du beide Seiten der Karte siehst, kannst du unten auf noch mehr Informationen zugreifen. Probier's mal aus!<br>Kurzer Hinweis: dieses und andere Decks findest du kostenfrei auf https://gitlab.com/CptMaister/Mathe-Maister/	Was in diesem Feld steht, ist auf den Karten unsichtbar *geheim*.	Geometrie	Anleitung	Anki kennenlernen	Hier werden auf allen folgenden Karten Formeln stehen. Hinter allen Feldern verbirgt sich meistens das, was der Name verspricht. Die Felder erscheinen jedoch nur auf deiner Karte, wenn sie nicht leer sind.	Bis auf das Feld "Formel" dienen die extra-Felder als extra Informationen, die eher nicht als notwendig erachtet wurden fürs Auswendiglernen, sondern beim ersten Sehen der Karten beim Verständnis helfen sollen. Schau sie dir auf jeden Fall an, wenn du eine Karte zum ersten Mal siehst!	Du kannst, am Handy wie auch am Rechner, während dem Lernen bzw jederzeit den Inhalt dieser Felder, der Vorder- und Rückseite und auch unsichtbarer Felder ändern. Auf dem Handy einfach oben rechts auf die 3 Punkte klicken -> Notiz bearbeiten	Trivia: Hier wirst du alternative Schreibweisen finden	Beispiele: alle kommenden Karten sind Beispiele für dieses Layout!	Lesehinweis: Hier findest du Erklärungen zu Mengen etc, die auf dieser Karte benutzt wurden, aber schon so lange nicht mehr benutzt wurden, dass man hier nochmal an die Bedeutung erinnern wollte.	Extras: Dieses Feld ist selten befüllt und für dich zum Befüllen gedacht, falls du es brauchst. Diese Anleitungskarte braucht aber niemand auswendig lernen. Vielleicht möchtest du sie aber auch nicht löschen. In dem Fall solltest du (auf dem Handy) oben rechts auf die 3 Punkte gehen und dort auf "Notiz Aussetzen" (oder gleich "Notiz Löschen" (aber wenn du sie löschst, taucht sie wieder als neue Karte auf, wenn du danach irgendwann eine neue Version von diesem Deck runterlädtst!)). Ausgesetzte Karten erscheinen nicht mehr, können aber am Computer wieder angesehen und auch wieder nicht-ausgesetzt gemacht werden.		Hier kannst du dir die Übersetzung des Begriffs in deiner gewünschten Sprache notieren. Bei manchen Notizen wird hier die Übersetzung angezeigt, die namensgebend für die Abkürzung ist (wie etwa im Lineare Algebra I Deck bei GL(n, K) für General Linear Group).			<img src="testbild.svg" />	KaiCieliebak Geometrie WiSe18/19 AlexanderMai UniAugsburg	0	K1	1
Kurve	eine glatte Abbildung $(a, b) \to \mathbb{R}^3$		Geometrie	Definition	Lokale Kurventheorie			Intervall, aus dem abgebildet wird, sollte offen sein, da es sonst Probleme mit dem fehlenden Differenzenquotienten in $a$ und $b$ gäbe und damit mit der Glattheit der Kurve.			Auf allen folgenden Karten sei $\alpha$ eine Kurve $(a, b) \to \mathbb{R}_n ,$ wenn nicht anders angegeben.							KaiCieliebak Geometrie WiSe18/19 AlexanderMai UniAugsburg	1001		
Kurvenlänge $\operatorname{L}(\alpha)$	$\int \limits_{a}^{b} |\alpha'(t)| dt$ von Kurve $\alpha$		Geometrie	Formel	Lokale Kurventheorie													KaiCieliebak Geometrie WiSe18/19 AlexanderMai UniAugsburg	1002		
Umparametrisierung	Diffeomorphismus $J \to (a, b) ,$ mit Kurve von $(a, b) \to \mathbb{R}^3$		Geometrie	Definition	Lokale Kurventheorie						$J$ ist ein offenes Intervall.							KaiCieliebak Geometrie WiSe18/19 AlexanderMai UniAugsburg	1003		
Reguläre Kurve	Kurve $\alpha: (a, b) \to \mathbb{R}^3$ mit $\alpha ' (s) \neq 0$ für alle $s \in (a, b)$		Geometrie	Definition	Lokale Kurventheorie													KaiCieliebak Geometrie WiSe18/19 AlexanderMai UniAugsburg	1004		
Nach Bogenlänge parametrisiert	Kurve $\alpha$ mit $|\alpha '(s)| = 1 \; \forall s \in (a, b)$		Geometrie	Definition	Lokale Kurventheorie													KaiCieliebak Geometrie WiSe18/19 AlexanderMai UniAugsburg	1005		
Krümmung $\operatorname{k}(s)$	$|\alpha ''(s)| ,$ mit $\alpha$ parametrisiert nach Bogenlänge		Geometrie	Formel	Lokale Kurventheorie			$= \theta'(s)$ für ebene Kurven, wenn $\theta(s)$ definiert als Winkel zwischen $\operatorname{t}(s)$ und einer beliebigen Geraden in der Ebene.										KaiCieliebak Geometrie WiSe18/19 AlexanderMai UniAugsburg	1006		
Krümmungsradius	$\dfrac{1}{k(s)}$ von allgemeiner Kurve $\alpha$		Geometrie	Definition	Lokale Kurventheorie													KaiCieliebak Geometrie WiSe18/19 AlexanderMai UniAugsburg	1007		
Tangentialvektor $\operatorname{t}(s)$ von Kurve $\alpha$	$\alpha '(s)$ von Kurve $\alpha$		Geometrie	Definition	Lokale Kurventheorie													KaiCieliebak Geometrie WiSe18/19 AlexanderMai UniAugsburg	1008		
Normalenvektor $\operatorname{n}(s)$ von Kurve $\alpha$	$\dfrac{\alpha ''(s)}{|\alpha ''(s)|}$ von Kurve $\alpha$		Geometrie	Definition	Lokale Kurventheorie													KaiCieliebak Geometrie WiSe18/19 AlexanderMai UniAugsburg	1009		
Binormalenvektor $\operatorname{b}(s)$ von Kurve $\alpha$	$\operatorname{t}(s) \times \operatorname{n}(s)$		Geometrie	Definition	Lokale Kurventheorie			$t$ und $n$ sind normiert.										KaiCieliebak Geometrie WiSe18/19 AlexanderMai UniAugsburg	1010		
Frenet-Dreibein	$\operatorname{t}(s), \operatorname{n}(s), \operatorname{b}(s) ,$ positiv orientierte ONB des $\mathbb{R}^3$ an Kurve $\alpha$ in $s$		Geometrie	Definition	Lokale Kurventheorie						ONB steht für Orthonormalbasis.<br>Nach <b>Jean Frédéric Frenet</b> (🇫🇷 1816-1900).							KaiCieliebak Geometrie WiSe18/19 AlexanderMai UniAugsburg	1011		
Schmiegeebene	$t$-$n$-Ebene einer Kurve mit Tangentialvektor $t$ und Normalenvektor $n$		Geometrie	Definition	Lokale Kurventheorie													KaiCieliebak Geometrie WiSe18/19 AlexanderMai UniAugsburg	1012		
Normalenebene	$n$-$b$-Ebene einer Kurve mit Normalenvektor $n$ und Binormalenvektor $b$		Geometrie	Definition	Lokale Kurventheorie													KaiCieliebak Geometrie WiSe18/19 AlexanderMai UniAugsburg	1013		
Torsion $|\tau(s)|$	$|\operatorname{b}'(s)|$		Geometrie	Formel	Lokale Kurventheorie		Geschwindigkeit, mit der sich die Schmiegeebene der Kurve $\alpha$ dreht.											KaiCieliebak Geometrie WiSe18/19 AlexanderMai UniAugsburg	1014		
Frenet-Formeln	$\operatorname{t}'(s) = \operatorname{k}(s) \operatorname{n}(s)$<br/>$\operatorname{n}'(s) = -\operatorname{k}(s) \operatorname{t}(s) -\tau (s) \operatorname{b}(s)$<br/>$\operatorname{b}'(s) = \tau (s) \operatorname{n}(s)$		Geometrie	Formel	Lokale Kurventheorie			Manchmal $-\tau$ statt $\tau$ je nach Literatur und Interpretation von $\tau$.			Nach <b>Jean Frédéric Frenet</b> (🇫🇷 1816-1900).							KaiCieliebak Geometrie WiSe18/19 AlexanderMai UniAugsburg	1015		
Euklidische Bewegung	eine abstandserhaltende Abbildung $\mathbb{R}^3 \to \mathbb{R}^3$		Geometrie	Definition	Lokale Kurventheorie		D.h. $|\operatorname{M}(p) - \operatorname{M}(q)| = |p - q| \; \forall p,q \in \mathbb{R}^3$				Nach <b>Euklid</b> von Alexandria (🇬🇷 ca 300-200 BC).							KaiCieliebak Geometrie WiSe18/19 AlexanderMai UniAugsburg	1016		
Hauptsatz der lokalen Kurventheorie	(a) Zu glatter Funktion $\operatorname{k}, \tau: I \to \mathbb{R}$ mit $\operatorname{k}(s) &gt; 0 \; \forall s$ existiert eine nach Bogenlänge parametrisierte Kurve $\alpha: I \to \mathbb{R}^3$ mit Krümmung $\operatorname{k}(s)$ und Torsion $\tau(s)$<br/>(b) Zwei nach Bogenlänge parametrisierte Kurven $\alpha, \bar{\alpha}: I \to \mathbb{R}^3$ mit derselben Krümmung und Torsion unterscheiden sich nur durch eine orientierungserhaltende euklidische Bewegung, d.h. $\bar{\alpha}(s) = A \alpha(s) + b, b \in \mathbb{R}^3, A \in \operatorname{SO}(3)$<br/>„Kurven sind durch ihre Krümmung und Torsion bis auf euklidische Bewegung eindeutig bestimmt."		Geometrie	Satz	Lokale Kurventheorie													KaiCieliebak Geometrie WiSe18/19 AlexanderMai UniAugsburg	1017		
#																					
#Name	Beschreibung	X Notizen	Vorlesung	Typ	Themenbereich	Formel	Interpretation	FunFacts	Trivia	Beispiele	Lesehinweis	Extras	Literaturhinweis	Übersetzung	X Lernhinweis (F)	X Lernhinweis (B)	Illustration	Tags	ID	einseitig	Priorität
#																					
Glatter Rand eines beschränkten Gebietes $R \subset \mathbb{R}^2$	Rand eines beschränkten Gebietes $R \subset \mathbb{R}^2 ,$ der eine disjunkte Vereinigung geschlossener, regulärer Kurven ist		Geometrie	Definition	Globale Theorie ebener Kurven													KaiCieliebak Geometrie WiSe18/19 AlexanderMai UniAugsburg	2001		
Satz von Fubini	Für $R = \{(x, y) \in \mathbb{R}^2 \; | \; a \le x \le b, f(x) \le y \le g(x)\}$ mit stetigen Funktionen $f, g: [a, b] \to \mathbb{R}$ gilt $\iint \limits_R F(x, y) \ d(x, y) = \int \limits_a^b(\int \limits_{f(x)}^{g(x)} F(x, y) \ dy) \ dx$		Geometrie	Satz	Globale Theorie ebener Kurven						Nach <b>Guido Fubini</b> (🇮🇹 1879-1943).							KaiCieliebak Geometrie WiSe18/19 AlexanderMai UniAugsburg	2002		
Kurvenintegral	$\int \limits_\alpha v$		Geometrie	Definition	Globale Theorie ebener Kurven	$:= \int \limits_a^b \langle \operatorname{v}(\alpha(t)), \alpha'(t) \rangle dt$ mit $\alpha: (a, b) \to \mathbb{R}^2$												KaiCieliebak Geometrie WiSe18/19 AlexanderMai UniAugsburg	2003		
Rotation eines Vektorfelds $\operatorname{v}$	$\operatorname{rot} \operatorname{v}(x, y)$		Geometrie	Definition	Globale Theorie ebener Kurven	$:= \frac{\partial}{\partial x} \operatorname{v}_2 - \frac{\partial}{\partial y} \operatorname{v}_1$ mit $\operatorname{v}(x, y) = \begin{pmatrix} \operatorname{v}_1\\ \operatorname{v}_2 \end{pmatrix}$			Wenn überall gleich $0 ,$ nennt man das Vektorfeld konservativ bzw. wirbelfrei.									KaiCieliebak Geometrie WiSe18/19 AlexanderMai UniAugsburg	2004		
Satz von Green	Sei $R \subset \mathbb{R}^2$ beschränktes Gebiet mit (stückweise) glatter Randkurve $\partial R ,$ $\operatorname{v}$ Vektorfeld auf Umgebung von $R$. Dann gilt: $$\int \limits_{\partial R} \operatorname{v} = \iint \limits_R \operatorname{rot} \operatorname{v}(x, y) \, dx \, dy$$		Geometrie	Satz	Globale Theorie ebener Kurven						Nach <b>George Green</b> (🇬🇧 1793-1841).							KaiCieliebak Geometrie WiSe18/19 AlexanderMai UniAugsburg	2005		
Kritischer Punkt von $f$	$x \in \mathbb{R} ,$ wenn $f'(x) = 0 ,$ $f:\mathbb{R} \to \mathbb{R}$ glatte Abbildung		Geometrie	Definition	Globale Theorie ebener Kurven													KaiCieliebak Geometrie WiSe18/19 AlexanderMai UniAugsburg	2006		
Kritischer Wert von $f$	$y \in \mathbb{R} ,$ wenn $\exists$kritischer Punkt $x$ mit $f(x) = y$		Geometrie	Definition	Globale Theorie ebener Kurven													KaiCieliebak Geometrie WiSe18/19 AlexanderMai UniAugsburg	2007		
Satz von Sard	Sei $U \subseteq \mathbb{R}$ offen, $f:U \to \mathbb{R}$ glatt. Dann hat die Menge der kritischen Werte von $f$ Maß Null.		Geometrie	Satz	Globale Theorie ebener Kurven						Nach <b>Arthur Sard</b> (🇺🇸 1909-1980).							KaiCieliebak Geometrie WiSe18/19 AlexanderMai UniAugsburg	2008		
Maß Null einer Menge $M \subset \mathbb{R}$	wenn es, für eine Menge $M \subset \mathbb{R}, \; \forall \varepsilon &gt; 0$ abzählbar viele abgeschlossene Intervalle $[a_i, b_i],$ $i \in \mathbb{N}$ gibt mit $M \subset \bigcup \limits_{i = 1}^{\infty} [a_i, b_i]$ und $\sum \limits_{i=1}^{\infty} |b_i - a_i| &lt; \varepsilon$		Geometrie	Definition	Globale Theorie ebener Kurven					$\mathbb{Q} \subset \mathbb{R}$ hat Maß Null, aber $(a, b) \subseteq \mathbb{R} ,$ mit $a &lt; b ,$ nicht.								KaiCieliebak Geometrie WiSe18/19 AlexanderMai UniAugsburg	2009		
Geschlossene Kurve in der Ebene	Kurve $\alpha:[a, b] \to \mathbb{R}^2$ mit $\alpha(a) = \alpha(b) ,$ $\alpha'(a) = \alpha'(b) ,$ $\alpha''(a) = \alpha''(b) ,$ ...		Geometrie	Definition	Globale Theorie ebener Kurven													KaiCieliebak Geometrie WiSe18/19 AlexanderMai UniAugsburg	2010		
Homotopie zwischen geschlossenen Kurven	glatte Abbildung $\operatorname{H}:[0, 1] \times [a, b] \to \mathbb{R}^2$ mit $\operatorname{H}(0, t) = \alpha_0(t) ,$ $\operatorname{H}(1, t) = \alpha_1(t) ,$ wobei $t \mapsto \operatorname{H}(s, t)$ geschlossene Kurve ist $\forall s \in [0, 1]$ und $\alpha_0, \alpha_1:[a, b] \to \mathbb{R}^2$ geschlossene Kurven		Geometrie	Definition	Globale Theorie ebener Kurven													KaiCieliebak Geometrie WiSe18/19 AlexanderMai UniAugsburg	2011		
Homotopieinvarianz von Kurvenintegralen	$\alpha_0, \alpha_1:[a, b] \to U$ homotope geschlossene Kurven, $U \subseteq \mathbb{R}^2$ offen, $\operatorname{v}$ Vektorfeld auf $U$ mit $\operatorname{rot} \operatorname{v} = 0 ,$ dann $\int \limits_{\alpha_0} \operatorname{v} = \int \limits_{\alpha_1} \operatorname{v}$		Geometrie	Satz	Globale Theorie ebener Kurven		Interpretation für Physiker: egal, welcher Weg, die Arbeit bleibt gleich.											KaiCieliebak Geometrie WiSe18/19 AlexanderMai UniAugsburg	2012		
Wegzusammenhängend	$U \subseteq \mathbb{R}^2$ offen, mit je zwei beliebige Punkte $p, q \in U$ können durch eine glatte Kurve in $U$ verbunden werden		Geometrie	Definition	Globale Theorie ebener Kurven													KaiCieliebak Geometrie WiSe18/19 AlexanderMai UniAugsburg	2013		
Einfach zusammenhängend	$U \subseteq \mathbb{R}^2$ offen, wegzusammenhängend und jede geschlossene Kurve in $U$ homotop zu einer konstanten Kurve		Geometrie	Definition	Globale Theorie ebener Kurven													KaiCieliebak Geometrie WiSe18/19 AlexanderMai UniAugsburg	2014		
Konstante Kurve	Kurve $\alpha:[a, b] \to \mathbb{R}^n$ mit $\alpha(t) = p \&gt; \forall t ,$ mit $p \in \mathbb{R}^n$		Geometrie	Definition	Globale Theorie ebener Kurven													KaiCieliebak Geometrie WiSe18/19 AlexanderMai UniAugsburg	2015		
$U \subseteq \mathbb{R}^2$ sternförmig bzgl $p \in U$	sei $p \in U ,$ $\forall q \in U \subseteq \mathbb{R}^2$ liegt die Strecke von $p$ nach $q$ ganz in $U$		Geometrie	Definition	Globale Theorie ebener Kurven			Ist $U$ sternförmig bzgl. einem enthaltenen Punkt, so ist $U$ auch einfach zusammenhängend.										KaiCieliebak Geometrie WiSe18/19 AlexanderMai UniAugsburg	2016		
Vektorfeld $\vartheta$ mit $\operatorname{rot} \vartheta = 0$	$ \vartheta(x, y) := (\frac{-y}{x^2 + y^2}, \frac{x}{x^2 + y^2})$		Geometrie	Hilfsdefinition / Formel	Globale Theorie ebener Kurven			$\operatorname{rot} \vartheta = \frac{\partial}{\partial x} (\frac{x}{x^2 + y^2}) - \frac{\partial}{\partial y} (\frac{-y}{x^2 + y^2}) = 0$										KaiCieliebak Geometrie WiSe18/19 AlexanderMai UniAugsburg	2017		
Windungszahl von geschlossener Kurve $\alpha:[a, b] \to \mathbb{R}^2 \setminus \{0\}$ um den Ursprung $0$	$\operatorname{w}(\alpha)$		Geometrie	Definition / Formel	Globale Theorie ebener Kurven	$:= \frac{1}{2\pi} \int \limits_{\alpha} \vartheta = \frac{1}{2\pi} \int \limits_{\alpha} \frac{xdy - ydx}{x^2 + y^2}$	Misst, wie oft $\alpha$ gegen den Uhrzeigersinn um $0$ herumläuft.				$\vartheta = (\frac{-y}{x^2 + y^2}, \frac{x}{x^2 + y^2})$							KaiCieliebak Geometrie WiSe18/19 AlexanderMai UniAugsburg	2018		
Windungszahl von $\alpha \to \mathbb{R}^2$ um $p \in \mathbb{R}^2 \setminus \operatorname{Bild}(\alpha)$	$\operatorname{w}(\alpha, p)$		Geometrie	Definition	Globale Theorie ebener Kurven			$:= \operatorname{w}(\alpha - p)$ mit $(\alpha - p)(t)$ := $\alpha(t) - p \neq 0$										KaiCieliebak Geometrie WiSe18/19 AlexanderMai UniAugsburg	2019		
(Weg)Zusammenhangskomponente von $\mathbb{R}^2 \setminus \operatorname{Bild}(\alpha)$	eine maximale (weg)zusammenhängende Teilmenge von $\mathbb{R}^2 \setminus \operatorname{Bild}(\alpha)$		Geometrie	Definition	Globale Theorie ebener Kurven			Windungszahl aller Punkte einer Zusammenhangskomponente ist konstant.										KaiCieliebak Geometrie WiSe18/19 AlexanderMai UniAugsburg	2020		
Jordanscher Kurvensatz für glatte Kurven	$\alpha: [a, b] \to \mathbb{R}^2$ einfach geschlossene reguläre glatte Kurve. Dann hat $\mathbb{R}^2 \setminus \operatorname{Bild}(\alpha)$ genau zwei Zusammenhangskomponenten: $U_0$: unbeschränkt, $\operatorname{w}(\alpha, U_0) = 0$ und $U_1$: beschränkt, $\operatorname{w}(\alpha, U_1) = \pm 1$		Geometrie	Satz	Globale Theorie ebener Kurven			(Wikipedia:) Dieser Satz erscheint so offensichtlich, dass Generationen von Mathematikern ihn benutzt haben, ohne ihn explizit zu formulieren, geschweige denn ihn zu beweisen. Der Beweis ist allerdings äußerst schwierig und aufwändig. Ein erster – noch inkorrekter – Beweisversuch wurde 1887 von Camille Jordan im dritten Band seines Werks Cours d’Analyse de l’Ecole Polytechnique veröffentlicht. Der erste korrekte Beweis des jordanschen Kurvensatzes wurde 1905 von Oswald Veblen erbracht. Der jordansche Kurvensatz findet heute etwa in Geoinformationssystemen Anwendung beim Punkt-in-Polygon-Test nach Jordan. 			Nach Marie Ennemond <b>Camille Jordan</b> (🇫🇷 1838-1922).							KaiCieliebak Geometrie WiSe18/19 AlexanderMai UniAugsburg	2021		
Einfache Kurve	Kurve $\alpha: [a, b] \to \mathbb{R}^2 ,$ $\alpha(s) = \alpha(t), s &lt; t \Rightarrow s = a, t = b$		Geometrie	Definition	Globale Theorie ebener Kurven		Also keine Kreuzungen.											KaiCieliebak Geometrie WiSe18/19 AlexanderMai UniAugsburg	2022		
Rotationszahl einer Kurve $\alpha$	$\operatorname{r}(\alpha) ,$ mit Kurve $\alpha: [a, b] \to \mathbb{R}^2$ reguläre geschlossene Kurve		Geometrie	Definition	Globale Theorie ebener Kurven	$:= \operatorname{w}(\alpha') \in \mathbb{Z}$	Entspricht Anzahl der Rotationen des Geschwindigkeitsvektors, wenn wir $\alpha$ durchlaufen.	Ist $\alpha$ nach Bogenlänge parametrisierte geschlossene Kurve, dann ist $\operatorname{r}(\alpha) = \frac{1}{2\pi} \int \limits_{a}^{b} \operatorname{k}(s) \; ds$										KaiCieliebak Geometrie WiSe18/19 AlexanderMai UniAugsburg	2023		
Einheitskreis	$S^1$		Geometrie	Definition	Globale Theorie ebener Kurven	$:= \{u \in \mathbb{R}^2 \; | \; |u| = 1\}$												KaiCieliebak Geometrie WiSe18/19 AlexanderMai UniAugsburg	2024		
Reguläre Homotopie zwischen regulären geschlossenen Kurven	glatte Abbildung $\operatorname{H}: [0, 1] \times [a, b] \to \mathbb{R}^2$ mit $\operatorname{H}(0, t) = \alpha_0(t) ,$ $\operatorname{H}(1, t) = \alpha_1(t) ,$ $t \mapsto \operatorname{H}(s, t)$ ist eine reguläre geschlossene Kurve $\forall s \in [0, 1]$		Geometrie	Definition	Globale Theorie ebener Kurven			Für reguläre geschlossene Kurven $\alpha_0, \alpha_1: [a, b] \to \mathbb{R}^2$ gilt: $\alpha_0, \alpha_1$ regulär homotop $\Leftrightarrow r(\alpha_0) = r(\alpha_1)$ (Rückrichtung durch Satz von Whitney-Graustein).<br/>Dadurch lässt sich die $1$-dimensionale Sphäre (Kreis) in $\mathbb{R}^2$ nicht von Innen nach Außen kehren. Aber die $2$-dimensionale Sphäre (Kugel) in $\mathbb{R}^3$ lässt sich von Innen nach Außen kehren!			$\operatorname{r}(\alpha)$ ist die Rotationszahl von $\alpha$.							KaiCieliebak Geometrie WiSe18/19 AlexanderMai UniAugsburg	2025		
Index von Vektorfeld $\operatorname{v}$ über Kurve $\alpha$	$\operatorname{ind}(\operatorname{v}, \alpha)$		Geometrie	Definition	Globale Theorie ebener Kurven	$:= \operatorname{w}(\operatorname{v} \circ \alpha) ,$ $\operatorname{v} \circ \alpha : [a, b] \to \mathbb{R}^2 \setminus \{0\} ,$ $\alpha: [a, b] \to \mathbb{R}^2$ geschlossene Kurve, $\operatorname{v}$ glattes Vektorfeld.	Anzahl der Rotationen von $v$ entlang $\alpha$.	(a) seien $\alpha_0, \alpha_1: [a, b] \to \mathbb{R}^2$ geschlossene Kurven, $\operatorname{v}_0, \operatorname{v}_1$ Vektorfelder auf $\mathbb{R}^2$ mit $\operatorname{v}_i \neq 0$ entlang $\alpha_i ,$ es existiere eine Homotopie $\operatorname{H}$ von $\alpha_0$ zu $\alpha_1$ und eine Homotopie $\operatorname{V}: [0, 1] \times \mathbb{R}^2 \to \mathbb{R}^2$ von $\operatorname{v}_0(x) = \operatorname{V}(0, x)$ zu $\operatorname{v}_1(x) = \operatorname{V}(1, x)$ XXXXXXX<br/>(b) ist $R \subseteq \mathbb{R}^2$ kompakt mit glattem Rand $\partial R$ und $\operatorname{v}$ ein Vektorfeld mit $\operatorname{v} \neq 0$ auf ganz $R ,$ dann ist $\operatorname{ind}(\operatorname{v}, \partial R) = 0$			$\operatorname{w}(\alpha)$ ist die Windungszahl von $\alpha$.							KaiCieliebak Geometrie WiSe18/19 AlexanderMai UniAugsburg	2026		
Isolierte Nullstelle des Vektorfelds $\operatorname{v}$	$p \in \mathbb{R}^2 ,$ mit $\operatorname{v}(p) = 0 ,$ $\operatorname{v}$ Vektorfeld, und $U$ offene Umgebung von $p ,$ mit $\operatorname{v}(q) \neq 0 \; \forall q \in U \setminus \{p\}$		Geometrie	Definition	Globale Theorie ebener Kurven													KaiCieliebak Geometrie WiSe18/19 AlexanderMai UniAugsburg	2027		
Index von Vektorfeld $\operatorname{v}$ an $p$	$\operatorname{ind}(\operatorname{v}, p) ,$ mit $p$ isolierte Nullstelle von $\operatorname{v}$		Geometrie	Definition	Globale Theorie ebener Kurven	$:= \operatorname{ind}(\operatorname{v}, \alpha) ,$ mit $\alpha$ kleiner Kreis um $p ,$ der einmal positiv durchlaufen wird.												KaiCieliebak Geometrie WiSe18/19 AlexanderMai UniAugsburg	2028		
Indexsatz von Poincaré-Hopf	Sei $R \subset \mathbb{R}^2$ kompakt, $\partial R$ glatt, Vektorfeld $\operatorname{v}$ mit $\operatorname{v} \neq 0$ auf $\partial R ,$ $R$ enthält endlich viele isolierte Nullstellen $p_1, \ldots , p_k \in R^\circ ,$ dann: $$\operatorname{ind}(\operatorname{v}, \partial R) = \sum \limits_{i = 1}^k \operatorname{ind}(\operatorname{v}, p_i)$$		Geometrie	Satz	Globale Theorie ebener Kurven		Der Index von $\operatorname{v}$ über den Rand von $R$ ist also gleich der Summe der Vektorfeldindizes der isolierten Nullstellen in $R$.				$\operatorname{ind}(\operatorname{v}, p) = \operatorname{ind}(\operatorname{v}, \alpha) = \operatorname{w}(\operatorname{v} \circ \alpha) ,$ mit $\alpha$ kleiner Kreis um $p ,$ positiv durchlaufen.<br>Nach Jules <b>Henri Poincaré</b> (🇫🇷 1854-1912) und <b>Heinz Hopf</b> (🇩🇪/🇨🇭 1894-1971).							KaiCieliebak Geometrie WiSe18/19 AlexanderMai UniAugsburg	2029		
Brouwerscher Fixpunktsatz	Jede stetige Abbildung $f: R = \{ x \in \mathbb{R}^n \; | \; ||x|| \le 1 \} \to R$ hat einen Fixpunkt, also $\exists x \in R: f(x) = x$		Geometrie	Satz	Globale Theorie ebener Kurven						Nach <b>Luitzen</b> Egbertus Jan <b>Brouwer</b> (🇳🇱 1881-1966).							KaiCieliebak Geometrie WiSe18/19 AlexanderMai UniAugsburg	2030		
Kondomkorollar	Es gibt keine stetige Abbildung $f: R = \{ x \in \mathbb{R}^n \; | \; ||x|| \le 1 \} \to \partial R$ mit $f(x) = x \; \forall x \in \partial R$		Geometrie	Satz	Globale Theorie ebener Kurven		Im Sinne von: Gummi kann sich, solange es nicht zerrissen wird, nur stetig verformen. Ohne dem Kondomkorollar (im $2$-dimensionalen) könnte das Kondom sich aber an der Spitze stetig komplett an den Rand verziehen und, ohne Riss, ein Loch bilden.											KaiCieliebak Geometrie WiSe18/19 AlexanderMai UniAugsburg	2031		
#																					
#Name	Beschreibung	X Notizen	Vorlesung	Typ	Themenbereich	Formel	Interpretation	FunFacts	Trivia	Beispiele	Lesehinweis	Extras	Literaturhinweis	Übersetzung	X Lernhinweis (F)	X Lernhinweis (B)	Illustration	Tags	ID	einseitig	Priorität
#																					
(glatte, parametrisierte) Fläche in $\mathbb{R}^3$	glatte Abbildung $\operatorname{X}: U \to \mathbb{R}^3 ,$ $U \subseteq \mathbb{R}^2$ offen		Geometrie	Definition	Flächen im Raum			$\operatorname{X}(u, v) = \begin{pmatrix} \operatorname{x}(u, v) \\ \operatorname{y}(u, v) \\ \operatorname{z}(u, v) \end{pmatrix} ,$ $\operatorname{x}, \operatorname{y}, \operatorname{z}$ sind glatte Funktionen $U \to \mathbb{R}$		$\operatorname{X} (u, v) = \left(u, v, \sqrt{1 - (u^2 + v^2) } \right) ,$ $U = \{ (u, v) \; | \; u^2 + v^2 &lt; 1 \}$ bildet die offene Einheitskreisscheibe auf die obere Einheitshemisphäre ab (am Rand "offen", also ohne Elemente in der $x$-$y$-Ebene).	Auf folgenden Karten seien $U, V$ immer eine offene Teilmenge von $\mathbb{R}^2 ,$ wenn nicht anders erwähnt, auch wenn nur die Teilmengenbeziehung $U \subseteq \mathbb{R}^2$ angegeben wird.<br/>Auf folgenden Karten seien partielle Ableitungen geschrieben als $\operatorname{x}_u := \frac{\partial \operatorname{x}}{\partial u} ,$ $\operatorname{x}_{uv} := \frac{\partial \operatorname{x}}{\partial u \partial v} ,$ $\operatorname{X}_u := \frac{\partial \operatorname{X}}{\partial u} = \begin{pmatrix} \operatorname{x}_u \\ \operatorname{y}_u \\ \operatorname{z}_u \end{pmatrix}$<br/>Und $\operatorname{d}_{(u, v)} \operatorname{X} = \begin{pmatrix} \operatorname{x}_u (u, v) & \operatorname{x}_v (u, v) \\ \operatorname{y}_u (u, v) & \operatorname{y}_v (u, v) \\ \operatorname{z}_u (u, v) & \operatorname{z}_v (u, v) \end{pmatrix} \in \mathbb{R}^{3 \times 2}$							KaiCieliebak Geometrie WiSe18/19 AlexanderMai UniAugsburg			
Flächeninhalt der Fläche $\operatorname{X} : U \to \mathbb{R}^3$	$\operatorname{A}(\operatorname{X})$		Geometrie	Definition / Formel	Flächen im Raum	$:= \iint \limits_U \, | \operatorname{X}_u (u, v) \times \operatorname{X}_v (u, v) | \, du \, dv$					$\times$ ist das altbekannte Kreuzprodukt.							KaiCieliebak Geometrie WiSe18/19 AlexanderMai UniAugsburg			
Singulärer Punkt von parametrisierter Fläche $\operatorname{X}$	$(u, v) \in U \subseteq \mathbb{R}^2$ mit $d_{(u, v)} \operatorname{X} : \mathbb{R}^2 \to \mathbb{R}^3$ nicht injektiv		Geometrie	Definition	Flächen im Raum					Zum Beispiel die Spitze der um die $z$-Achse rotierten Neilschen Parabel $\operatorname{X}(u, v) = (v^3 \cos (u), v^3 \sin (u), v^2) ,$ mit $U = \mathbb{R}^2$								KaiCieliebak Geometrie WiSe18/19 AlexanderMai UniAugsburg			
Regulärer Punkt von parametrisierter Fläche $\operatorname{X}$	$(u, v) \in U \subseteq \mathbb{R}^2$ mit $d_{(u, v)} \operatorname{X} : \mathbb{R}^2 \to \mathbb{R}^3$ injektiv		Geometrie	Definition	Flächen im Raum													KaiCieliebak Geometrie WiSe18/19 AlexanderMai UniAugsburg			
Reguläre parametrisierte Fläche	$X : U \to \mathbb{R}^3$ parametrisierte Fläche, mit alle $(u, v) \in U$ regulär, also $\operatorname{X}_u \times \operatorname{X}_v \neq 0 \; \forall (u, v) \in U$			Definition	Flächen im Raum			Eine reguläre Fläche kann lokal flächenerhaltend parametrisiert werden, d.h. $\forall q \in U \; \exists$Umgebung $U_q \subset U$ und ein flächenerhaltender XXXXXXXXXXXXXXXXXXXXXXXX													
Diffeomorphismus $U \to V$ orientierungserhaltend, $U, V \subseteq \mathbb{R}^2$				Definition	Flächen im Raum																
Transformationsformel für Integrale				Formel	Flächen im Raum																
$S \subset \mathbb{R}^3$ eingebettete Fläche				Definition	Flächen im Raum						Auf folgenden Karten sei $S$ eine eingebettete Fläche $\subset \mathbb{R}^3$ und $p \in S .$										
$S \subset \mathbb{R}^3$ lokal flach				Definition	Flächen im Raum																
$S \subset \mathbb{R}^3$ lokal Nullstellenmenge				Definition	Flächen im Raum																
$S \subset \mathbb{R}^3$ lokal Graph				Definition	Flächen im Raum																
$S \subset \mathbb{R}^3$ lokal Karte				Definition	Flächen im Raum																
Tangentialvektor an $S$ in $p$				Definition	Flächen im Raum						$S \subset \mathbb{R}^3$ eingebettete Fläche, $p \in S .$										
Tangentialebene von $S$ in $p$				Definition	Flächen im Raum						$S \subset \mathbb{R}^3$ eingebettete Fläche, $p \in S .$										
1. Fundamentalform von $S$ in $p$				Definition	Flächen im Raum						$S \subset \mathbb{R}^3$ eingebettete Fläche, $p \in S .$										
Matrix von $\mathrm{I}_p$ ???in der Basis $X_u, X_v$ von $T_p S$???				Formel	Flächen im Raum																
Einheitsnormalenvektor von $S$ in $p$				Definition	Die zweite Fundamentalform						$S \subset \mathbb{R}^3$ eingebettete Fläche, $p \in S .$										
Gaußabbildung				Definition	Die zweite Fundamentalform																
Hauptkrümmungen von $S$ in $p$	$k_2, k_2$ von $S \in p$			Definition	Die zweite Fundamentalform						$S \subset \mathbb{R}^3$ eingebettete Fläche, $p \in S .$										
Gaußkrümmung von $S$ in $p$	$K$ von $p \in S$			Definition	Die zweite Fundamentalform			Haben zwei eingebettete Flächen $S, \bar{S}$ konstant überall die gleiche Gaußkrümmung, also $K \equiv \bar{K} \equiv c ,$ mit $c \in \mathbb{R} ,$ dann sind $S$ und $\bar{S}$ lokal isometrisch.			$S \subset \mathbb{R}^3$ eingebettete Fläche, $p \in S .$<br>Nach Johann <b>Carl Friedrich Gauss</b> (🇩🇪 1777-1855).										
Mittlere Krümmung von $S$ in $p$	$H$ von $p \in S$			Definition	Die zweite Fundamentalform						$S \subset \mathbb{R}^3$ eingebettete Fläche, $p \in S .$										
2. Fundamentalform von $S$ in $p$				Definition	Die zweite Fundamentalform						$S \subset \mathbb{R}^3$ eingebettete Fläche, $p \in S .$										
Normalenkrümmung ??? von $S$ in $p$ ??? /???von Kurve???				Definition	Die zweite Fundamentalform																
$p \in S$ elliptisch				Definition	Die zweite Fundamentalform						$S \subset \mathbb{R}^3$ eingebettete Fläche, $p \in S .$										
$p \in S$ hyperbolisch				Definition	Die zweite Fundamentalform						$S \subset \mathbb{R}^3$ eingebettete Fläche, $p \in S .$										
$p \in S$ parabolisch				Definition	Die zweite Fundamentalform						$S \subset \mathbb{R}^3$ eingebettete Fläche, $p \in S .$										
$p \in S$ flach				Definition	Die zweite Fundamentalform						$S \subset \mathbb{R}^3$ eingebettete Fläche, $p \in S .$										
Verhalten der Krümmungen unter Orientierungswechsel				Trick	Die zweite Fundamentalform																
?Bez.? $\operatorname{X}: U \to S$ orientierungserhaltend				Definition	Die zweite Fundamentalform						$S \subset \mathbb{R}^3$ eingebettete Fläche.										
Matrix von $\mathrm{II}_p$ in der Basis $X_u, X_v$ von $T_p S$				Formel	Die zweite Fundamentalform						$S \subset \mathbb{R}^3$ eingebettete Fläche, $p \in S .$										
Gauß Theorema Egregium				Satz	Die zweite Fundamentalform						Nach Johann <b>Carl Friedrich Gauss</b> (🇩🇪 1777-1855).										
?Bez.? $\operatorname{X}: U \to S$ längentreu				Definition	Die zweite Fundamentalform																
Hauptsatz der lokalen Flächentheorie				Satz	Die zweite Fundamentalform																
#																					
#Name	Beschreibung	X Notizen	Vorlesung	Typ	Themenbereich	Formel	Interpretation	FunFacts	Trivia	Beispiele	Lesehinweis	Extras	Literaturhinweis	Übersetzung	X Lernhinweis (F)	X Lernhinweis (B)	Illustration	Tags	ID	einseitig	Priorität
#																					
Rotationsfläche				Defintiion	Geometrie der Gaußabbildung																
$S$ vollständig	$S$ ist abgeschlossen		Geometrie	Defintiion	Geometrie der Gaußabbildung			Ist $S$ vollständig mit $K(p) &gt; 0 \; \forall p \in S \Rightarrow$ Gausabbildung $\operatorname{N}$ injektiv.<br/>Ist $S$ sogar vollständig mit der schärferen Bedingung $K(p) \ge \varepsilon %gt; 0 \; \forall p \in S ,$ dann ist $S$ kompakt und $\operatorname{N}: S \to S^2$ ist ein Diffeomorphismus.<br/>Ist $S$ vollständig mit $K(p) = 0 \; \forall p \in S \Rightarrow S$ ist Zylinder oder Ebene.			$S \subset \mathbb{R}^3$ eingebettete Fläche.										
$S$ kompakt	$S$ ist beschränkt und abgeschlossen		Geometrie	Defintiion	Geometrie der Gaußabbildung			Ist $S$ kompakt, so gilt<br/>a) Gausabbildung $\operatorname{N}: S \to S^2$ surjektiv<br/>b) $\exists p \in S$ mit $K(p) &gt; 0$			$S \subset \mathbb{R}^3$ eingebettete Fläche.										
$S$ Minimalfläche				Defintiion	Geometrie der Gaußabbildung																
Intrinsischer Abstand von $p, q \in S ,$ $S \in \mathbb{R}^3$				Definition / Formel	Intrinsische Geometrie von Flächen			Lemma 6.1 $d$ ist eine Metrik auf $S ,$ Lemma 6.2													
Korollar zur Berechnung des Intrinsischen Abstand (6.3)				Satz / Formel	Intrinsische Geometrie von Flächen																
Isometrie (mit äquivalenten Eigenschaften in Satz 6.4)				Definition / Satz	Intrinsische Geometrie von Flächen																
Lokale Isometrie				Definition	Intrinsische Geometrie von Flächen			Lokale Isometrien (und damit auch Isometrien) erhalten die Gaußkrümmung. Ist also die Gaußkrümmung zweier Flächen verschieden (wie bei der Kugel $= 1 / r^2$ und beim normalen Papier $= 0$), so gibt es keine abstandserhaltende Abbildung von der einen zur anderen (also keine lokale Isometrie, und im Falle der Kugel und des Papiers: alle flachen Papierkarten verzerren Abstände).													
Katenoide (FORMEL FINDEN ODER ASCII BILD wär sick)				Definition	Intrinsische Geometrie von Flächen																
Helikoide (FORMEL FINDEN ODER ASCII BILD)				Definition	Intrinsische Geometrie von Flächen																
???nötig??? Tangentialvektorfeld entlang Kurve $\alpha$	Vektorfeld $\operatorname{w}: I ????$			Definition	Intrinsische Geometrie von Flächen																
Kovariante Ableitung eines Tangentialvektorfeldes $\operatorname{v}(t) \in \operatorname{T}_{\alpha (t)} \! S$ entlang der Kurve $\alpha$	$\frac{\operatorname{Dv}(t)}{\operatorname{d}t} ,$ $\operatorname{v}$ Tangentialvektorfeld			Definition / Formel	Intrinsische Geometrie von Flächen	$:= \operatorname{pr}_{\operatorname{T}_{\alpha (t)} \! S}^{\bot} \! \operatorname{v} ' (t)$	Also die Projektion von der Ableitung des Tangentialvektorfelds auf die Tangentialebene.				$S$ ist eine (weg)zusammenhängende Fläche $\subset \mathbb{R}^3 .$										
Geodäte auf $S$	reguläre Kurve $\alpha : [a, b] \to S$ mit kovarianter Ableitung $= 0$ entlang $\alpha$		Geometrie ???	Definition	Intrinsische Geometrie von Flächen		Man stelle sich ein Fahrzeug auf der Fläche $S$ vor. Fährt es geradeaus, ohne seitlich zu lenken (das Fahrzeug wird durch eine Schwerkraft der Fläche $S$ festgehalten, welche an jedem Punkt genau senkrecht auf der Fläche steht), so fährt es entlang einer Geodäte.<br/>Gibt es eine lokale Isometrie $\varphi$ von einer Ebene auf die Fläche $S ,$ so sind Geodäten alle die Kurven $\varphi(\alpha) ,$ bei denen $\alpha \in$ Ebene gerade verläuft.	Geodäten sind durch die 1. Fundamentalform bestimmt und bleiben daher unter lokaler Isometrie erhalten.			$S$ ist eine (weg)zusammenhängende Fläche $\subset \mathbb{R}^3 .$										
Satz von Clairaut				Satz	Intrinsische Geometrie von Flächen						Nach <b>Alexis-Claude Clairaut</b> (🇫🇷 1713-1765).										
Vektorfeld $\operatorname{w}: [a, b] \to \mathbb{R}^3$ parallel				Definition	Intrinsische Geometrie von Flächen																
Paralleltransport				Definition	Intrinsische Geometrie von Flächen																
Geodätische Krümmung				Definition	Intrinsische Geometrie von Flächen																
$\operatorname{X}: U \to S$ orthogonal				Definition	Intrinsische Geometrie von Flächen																
Zellzerlegung				Definition	Intrinsische Geometrie von Flächen																
Euler-Charakteristik von $S$				Definition	Intrinsische Geometrie von Flächen						Nach <b>Leonhard Euler</b> (🇨🇭 1707-1783).										
Platonische Körper				Definition	Intrinsische Geometrie von Flächen																
Satz von Gauß-Bonnet I				Satz	Intrinsische Geometrie von Flächen						Nach Johann <b>Carl Friedrich Gauss</b> (🇩🇪 1777-1855) und <b>Pierre Ossian Bonnet</b> (🇫🇷 1819-1892).										
Satz von Gauß-Bonnet II				Satz	Intrinsische Geometrie von Flächen						Nach Johann <b>Carl Friedrich Gauss</b> (🇩🇪 1777-1855) und <b>Pierre Ossian Bonnet</b> (🇫🇷 1819-1892).										
Satz von Gauß-Bonnet III				Satz	Intrinsische Geometrie von Flächen						Nach Johann <b>Carl Friedrich Gauss</b> (🇩🇪 1777-1855) und <b>Pierre Ossian Bonnet</b> (🇫🇷 1819-1892).										
Satz von Gauß-Bonnet IV				Satz	Intrinsische Geometrie von Flächen						Nach Johann <b>Carl Friedrich Gauss</b> (🇩🇪 1777-1855) und <b>Pierre Ossian Bonnet</b> (🇫🇷 1819-1892).										
Satz von Poincaré-Hopf I				Satz	Intrinsische Geometrie von Flächen						Nach Jules <b>Henri Poincaré</b> (🇫🇷 1854-1912) und <b>Heinz Hopf</b> (🇩🇪/🇨🇭 1894-1971).										
Satz von Poincaré-Hopf II				Satz	Intrinsische Geometrie von Flächen						Nach Jules <b>Henri Poincaré</b> (🇫🇷 1854-1912) und <b>Heinz Hopf</b> (🇩🇪/🇨🇭 1894-1971).										
Satz von Poincaré-Hopf III				Satz	Intrinsische Geometrie von Flächen						Nach Jules <b>Henri Poincaré</b> (🇫🇷 1854-1912) und <b>Heinz Hopf</b> (🇩🇪/🇨🇭 1894-1971).										
Satz von Poincaré-Hopf IV				Satz	Intrinsische Geometrie von Flächen						Nach Jules <b>Henri Poincaré</b> (🇫🇷 1854-1912) und <b>Heinz Hopf</b> (🇩🇪/🇨🇭 1894-1971).										
Satz vom Igel				Satz	Intrinsische Geometrie von Flächen																
Satz von Fenchel				Satz	Intrinsische Geometrie von Flächen																
#																					
#																					
Name	Beschreibung	X Notizen	Vorlesung	Typ	Themenbereich	Formel	Interpretation	FunFacts	Trivia	Beispiele	Lesehinweis	Extras	Literaturhinweis	Übersetzung	X Lernhinweis (F)	X Lernhinweis (B)	Illustration	Tags	ID	einseitig	Priorität
#																					
# FF: Gaußkrümmung K ist aus der ersten Fundamentalform berechenbar																					
# FF bei "Reguläre parametrisierte Fläche": lokal flächenerhaltend parametrisiert ...																					
# fehlt: Matrix von d_p N, Weingarten-Gleichungen																					
# fehlt: Torus Parametrisierungen etc (Blatt hinten)																					
