{
    "model_id": 410488297,
    "model_name": "Mathe-Maister",
    "deck_id": 990541618,
    "deck_description": "Lineare Algebra 2 bei Prof Wolfgang Schneider, SoSe 19, Uni Augsburg.\nFertigstellung voraussichtlich August 2019.\n\nalex.m.s@gmx.de für Fragen und Änderungsvorschläge.\noder gitlab.com/CptMaister",
    "deck_name": " Mathe-Maister::Lineare Algebra II",
    "start_note_id": 821743592,
    "start_card_id": 370874134,
    "guid_random_string": "MUwbP",
    "image_dir": "Lineare-Algebra-II"
}
