Hallo Freund der Mathematik! Willkommen zum Numerik I Deck! Das ist die Vorderseite einer Karte. Drücke mal auf den Knopf ganz unten.	Das ist die Rückseite einer Karte. Jetzt, wo du beide Seiten der Karte siehst, kannst du unten auf noch mehr Informationen zugreifen. Probier's mal aus!<br>Kurzer Hinweis: dieses und andere Decks findest du kostenfrei auf https://gitlab.com/CptMaister/Mathe-Maister/	Was in diesem Feld steht, ist auf den Karten unsichtbar *geheim*.	Numerik I	Anleitung	Anki kennenlernen	Hier werden auf allen folgenden Karten Formeln stehen. Hinter allen Feldern verbirgt sich meistens das, was der Name verspricht. Die Felder erscheinen jedoch nur auf deiner Karte, wenn sie nicht leer sind.	Bis auf das Feld "Formel" dienen die extra-Felder als extra Informationen, die eher nicht als notwendig erachtet wurden fürs Auswendiglernen, sondern beim ersten Sehen der Karten beim Verständnis helfen sollen. Schau sie dir auf jeden Fall an, wenn du eine Karte zum ersten Mal siehst!	Du kannst, am Handy wie auch am Rechner, während dem Lernen bzw jederzeit den Inhalt dieser Felder, der Vorder- und Rückseite und auch unsichtbarer Felder ändern. Auf dem Handy einfach oben rechts auf die 3 Punkte klicken -> Notiz bearbeiten	Trivia: Hier wirst du alternative Schreibweisen finden	Beispiele: alle kommenden Karten sind Beispiele für dieses Layout!	Lesehinweis: Hier findest du Erklärungen zu Mengen etc, die auf dieser Karte benutzt wurden, aber schon so lange nicht mehr benutzt wurden, dass man hier nochmal an die Bedeutung erinnern wollte.	Extras: Dieses Feld ist selten befüllt und für dich zum Befüllen gedacht, falls du es brauchst. Diese Anleitungskarte braucht aber niemand auswendig lernen. Vielleicht möchtest du sie aber auch nicht löschen. In dem Fall solltest du (auf dem Handy) oben rechts auf die 3 Punkte gehen und dort auf "Notiz Aussetzen" (oder gleich "Notiz Löschen" (aber wenn du sie löschst, taucht sie wieder als neue Karte auf, wenn du danach irgendwann eine neue Version von diesem Deck runterlädtst!)). Ausgesetzte Karten erscheinen nicht mehr, können aber am Computer wieder angesehen und auch wieder nicht-ausgesetzt gemacht werden.		Hier kannst du dir die Übersetzung des Begriffs in deiner gewünschten Sprache notieren. Bei manchen Notizen wird hier die Übersetzung angezeigt, die namensgebend für die Abkürzung ist (wie etwa im Lineare Algebra I Deck bei GL(n, K) für General Linear Group).			<img src="testbild.svg" />	Daniel Peterseim, Numerik, WiSe 18/19, Alexander Mai, Uni Augsburg	0	K1	1
Menge der Gleitkommazahlen auf einem Computer	$\operatorname{R}(t, s)$		Numerik I	Definition	Computerarithmetik			$\operatorname{R}(t, s)$ ist endlich und die Gleitkommazahlen sind nicht gleichmäßig auf dem reellen Zahlenstrahl verteilt.			$t$ ist die Anzahl der Binärstellen der Mantisse $f ,$ $s$ die Anzahl der Binärstellen des Exponenten $e .$							Daniel Peterseim, Numerik, WiSe 18/19, Alexander Mai, Uni Augsburg	1001		
Gleitkommazahl	$x = f \, 2^e$ mit Mantisse $f$ und Exponent $e$		Numerik I	Formel	Computerarithmetik	$f \, 2^e = \pm (\sum \limits_{k=0}^{t-1} b_{-k} 2^{-k}) 2^e$<br/>$f = \pm (b_0 . b_{-1} b_{-2} \ldots  b_{-t+1})_2$<br/>$e = \pm(b_{s-1} b_{s-2} \ldots b_0 .)_2$<br/>mit $x \in \mathbb{R}(t, s)$		$x$ heißt normalisierte Gleitkommazahl, wenn $b_0 = 1$	Auch bekannt als Fließkommazahlen.									Daniel Peterseim, Numerik, WiSe 18/19, Alexander Mai, Uni Augsburg	1002		
Symmetrisches Runden einer Gleitkommazahl im Binärsystem	$x^\ast = \operatorname{rd}(x) = \operatorname{chop}(x + 2^{-t} 2^e)$		Numerik I	Formel	Computerarithmetik		Letzte Stellen von $x$: $\ldots ?0$ oder $\ldots ?1 ,$ durch $+ 2^{-t} 2^e$ dann $\ldots ?1$ oder $\ldots (?+1)0 ,$ durch $\operatorname{chop}$ dann $\ldots ?$ oder $\ldots (?+1)$				$\operatorname{chop}(x)$ entfernt die letzte Nachkommastelle von $x .$							Daniel Peterseim, Numerik, WiSe 18/19, Alexander Mai, Uni Augsburg	1003		
Relative Maschinengenauigkeit	$eps$		Numerik I	Definition	Computerarithmetik	$$:= 2^{-t}$$	Bestimmt die Genauigkeit von Gleitkommarechnungen auf dem zugehörigen Rechner.				$t$ ist die Anzahl der Binärstellen der Mantisse $f ,$ $s$ die Anzahl der Binärstellen des Exponenten $e .$							Daniel Peterseim, Numerik, WiSe 18/19, Alexander Mai, Uni Augsburg	1004		
#																					
#Name	Beschreibung	X Notizen	Vorlesung	Typ	Themenbereich	Formel	Interpretation	FunFacts	Trivia	Beispiele	Lesehinweis	Extras	Literaturhinweis	Übersetzung	X Lernhinweis (F)	X Lernhinweis (B)	Illustration	Tags	ID	einseitig	Priorität
Bisektionsverfahren	Sei $f:[a, b] \to \mathbb{R}$ stetig und $f(a)f(b) &lt; 0 .$ Die Folge $(x_n)_{n \in \mathbb{N}} ,$ deren Glieder durch $x_n = \frac{1}{2}(a_n + b_n)$ mit $a_{n+1} = a_n, b_{n+1} = x_n ,$ falls $f(a)f(x_n) \le 0$ und $a_{n+1} = x_n, b_{n+1} = b_n ,$ sonst, gegeben sind, erfüllt: $$\lim\limits_{n \to \infty} x_n = \bar{x}, f(\bar{x}) = 0$$ $$|x_n -\bar{x}| \le \frac{1}{2}(b_n - a_n) = \frac{1}{2^{n+1}}(b_0 - a_0)$$ Jedes Intervall $[a_n, b_n]$ enthält die Nullstelle $\bar{x} .$		Numerik I	Satz / Formel	Skalare Gleichungen													Daniel Peterseim, Numerik, WiSe 18/19, Alexander Mai, Uni Augsburg	2001		
Newton-Verfahren	$x_{n+1} = x_n - \frac{f(x_n)}{f'(x_n)}$		Numerik I	Formel	Skalare Gleichungen			Konvergiert bei einfachen Nullstellen quadratisch, nicht aber bei mehrfachen Nullstellen.			Es gibt ausgiebige Konvergenzbedingungen, je nach Anzahl der Nullstellen und Diff'barkeit etc der Funktion, aber das würde den Rahmen eines Lesehinweises sprengen (bzw man schlage es bei Bedarf nach) (ähnliches gilt für das Sekantenverfahren etc).<br>Nach <b>Isaac Newton</b> (🇬🇧 1643-1727).							Daniel Peterseim, Numerik, WiSe 18/19, Alexander Mai, Uni Augsburg	2002		
Modifiziertes Newton-Verfahren	$x_{n+1} = x_n - \frac{F(x_n) }{F'(x_n)}$ mit $F(x) = \frac{f(x)}{f'(x)}$		Numerik I	Formel	Skalare Gleichungen			Wird benutzt, um die quadratische Konvergenz bei mehrfachen Nullstellen zu gewährleisten.			Nicht vergessen, beim Ableiten von $F(x)$ die altbekannte Regel zum Ableiten von Brüchen anzuwenden: $\frac{NAZ – ZAN}{N^2}$ mit $N =$ Nenner, $Z =$ Zähler, $Af =$ Ableitung von $f ,$ womit $F'(x) = 1- \frac{f(x) f''(x)}{(f'(x))^2}$							Daniel Peterseim, Numerik, WiSe 18/19, Alexander Mai, Uni Augsburg	2003		
Banachscher Fixpunktsatz	$\phi:[a, b] \to \mathbb{R}$ sei Selbstabbildung auf abgeschlossenem Intervall $[a, b] ,$ Lipschitz-stetig auf $[a, b]$ mit fester Lipschitz-Konstante $L &lt; 1 ,$ also $\forall x, y \in [a, b]\!: |\phi(x) - \phi(y)| \le L|x - y| .$ Dann besitzt $\phi$ genau einen Fixpunkt $\bar{x}$ in $[a, b] .$ $\forall x_0 \in [a, b]$ strebt die durch $x_{n+1} = \phi(x_n), n \in \mathbb{N}$ definierte Folge gegen $\bar{x} .$ Es gelten die a posteriori und die a priori Abschätzung $$|x_n - \bar{x}| \le \frac{L}{1-L} |x_n - x_{n-1}|$$ $$|x_n - \bar{x}| \le \frac{L^n}{1-L} |x_1 - x_0|$$		Numerik I	Satz	Skalare Gleichungen				Auch bekannt als <b>Fixpunktsatz von Banach</b>.		Nach <b>Stefan Banach</b> (🇵🇱 1892-1945).							Daniel Peterseim, Numerik, WiSe 18/19, Alexander Mai, Uni Augsburg	2004		
Sekantenverfahren	$x_{n+1} = x_n - \frac{x_n - x_{n-1}}{f(x_n) - f(x_{n-1})} f(x_n), n &gt; 1$		Numerik I	Formel	Skalare Gleichungen				Auch bekannt als <b>Regula falsi</b>.									Daniel Peterseim, Numerik, WiSe 18/19, Alexander Mai, Uni Augsburg	2005		
#																					
#Name	Beschreibung	X Notizen	Vorlesung	Typ	Themenbereich	Formel	Interpretation	FunFacts	Trivia	Beispiele	Lesehinweis	Extras	Literaturhinweis	Übersetzung	X Lernhinweis (F)	X Lernhinweis (B)	Illustration	Tags	ID	einseitig	Priorität
Norm auf $\mathbb{R}^n$	Abbildung $\mathbb{R}^n \to \mathbb{R}$ mit $\forall x, y \in \mathbb{R}^n, \lambda \in \mathbb{R}$ gilt<br/>$\bullet$ $ \| x \| \ge 0$ und $ \| x \| = 0 \Leftrightarrow x = 0$<br/>$\bullet$ $ \| \lambda x \| = | \lambda | \cdot \| x \| $<br/>$\bullet$ $ \| x + y \| \le \| x \| + \| y \| $		Numerik I	Definition	Lineare Gleichungssysteme		Die Größe $ \| x-y \| $ ist der Abstand von $x$ und $y$ bezüglich der Norm $ \| \cdot \| .$											Daniel Peterseim, Numerik, WiSe 18/19, Alexander Mai, Uni Augsburg	3001		
Euklidische Norm	$ \| \cdot \| _2$		Numerik I	Definition / Formel	Lineare Gleichungssysteme	$$:= (\sum \limits_{i = 1}^n x_i^2)^{1/2}, x \in \mathbb{R}^n$$	$\sqrt{x_1^2 + … x_n^2} ,$ der Abstand, wie man ihn normalerweise standardmäßig interpretieren würde.		Auch bekannt als $2$-Norm.		Nach <b>Euklid</b> von Alexandria (🇬🇷 ca 300-200 BC).							Daniel Peterseim, Numerik, WiSe 18/19, Alexander Mai, Uni Augsburg	3002		
Schwarz‘sche Ungleichung	$\forall x, y \in \mathbb{R}^n: \langle x, y \rangle \le \| x \| \cdot \| y \| $		Numerik I	Formel	Lineare Gleichungssysteme			Die Ungleichung gilt sogar für komplexe $x, y ,$ dann aber mit dem linken Teil der Ungleichung im Betrag.	Auch bekannt als <b>Cauchy-Schwarz-Ungleichung</b>. Ungleichung auch bekannt als $| \langle x, y \rangle | ^2 \le \| x \| ^2 \cdot \| y \| ^2$ oder $| \langle x, y \rangle | ^2 \le \langle x, x \rangle \cdot \langle y, y \rangle$		Nach <b>Hermann Amandus Schwarz</b> (🇩🇪 1843-1921).							Daniel Peterseim, Numerik, WiSe 18/19, Alexander Mai, Uni Augsburg	3003		
Unendlichnorm	$ \| \cdot \| _\infty$		Numerik I	Definition / Formel	Lineare Gleichungssysteme	$$= \max \limits_{i = 1, …, n} |x_i|, x \in \mathbb{R}^n$$			Auch bekannt als <b>Maximumsnorm</b>.									Daniel Peterseim, Numerik, WiSe 18/19, Alexander Mai, Uni Augsburg	3004		
$1$-Norm	$ \| \cdot \| _1$		Numerik I	Definition / Formel	Lineare Gleichungssysteme	$$:= \sum \limits_{i=1}^n |x_i|, x \in \mathbb{R}^n$$			Auch bekannt als <b>Betragssummennorm</b>.									Daniel Peterseim, Numerik, WiSe 18/19, Alexander Mai, Uni Augsburg	3005		
Äquivalenz von Normen auf $\mathbb{R}^n$	Sind $ \| \cdot \| _a$ und $ \| \cdot \| _b$ zwei beliebige Normen auf dem $\mathbb{R}^n ,$ so gibt es Konstanten $c_1, c_2 &gt; 0$ mit $c_1 \| x \| _a \le \| x \| _b \le c_2 \| x \| _a \forall x \in \mathbb{R}^n .$		Numerik I	Satz	Lineare Gleichungssysteme													Daniel Peterseim, Numerik, WiSe 18/19, Alexander Mai, Uni Augsburg	3006		
Matrixnorm $ \| A \| ,$ $A \in \mathbb{R}^{n \times n} ,$ zu gegebener Norm $ \| \cdot \| $	$\max \limits_{x \neq 0} \frac { \| Ax \| }{ \| x \| }$ mit $A$ Matrix, $ \| \cdot \| $ Norm auf $\mathbb{R}^n$		Numerik I	Definition	Lineare Gleichungssysteme						Für folgende Karten sei $A$ immer eine Matrix, im Zweifel weder quadratisch noch invertierbar.							Daniel Peterseim, Numerik, WiSe 18/19, Alexander Mai, Uni Augsburg	3007		
Zeilensummennorm	$ \| A \| _\infty$		Numerik I	Definition / Formel	Lineare Gleichungssysteme	$$= \max \limits_{i = 1, …, n} \sum \limits_{j=1}^n |a_{ij}|$$												Daniel Peterseim, Numerik, WiSe 18/19, Alexander Mai, Uni Augsburg	3008		
Spaltensummennorm	$ \| A \| _1$		Numerik I	Definition / Formel	Lineare Gleichungssysteme	$$= \max \limits_{j = 1, …, n} \sum \limits_{i=1}^n |a_{ij}|$$												Daniel Peterseim, Numerik, WiSe 18/19, Alexander Mai, Uni Augsburg	3009		
Spektralnorm	$ \| A \| _2$		Numerik I	Definition / Formel	Lineare Gleichungssysteme	$$= \big(\max \limits_{\lambda_i \in \sigma(A^T A)} \lambda_i \big)^{1/2}$$	Wurzel aus dem größten Eigenwert der Matrix $A^T \cdot A$	$A^T A$ ist eine symmetrische Matrix und nach dem Spektralsatz aus der Linearen Algebra gibt es eine Orthonormalbasis $x_1, …, x_n$ des $\mathbb{R}^n$ aus Eigenvektoren von $A^T A$ mit $A^T A x_i = \lambda_i x_i, \; \forall i$			Wobei $\sigma(A)$ das Spektrum der quadratischen Matrix $A$ ist, also die Eigenwerte der Matrix $A .$							Daniel Peterseim, Numerik, WiSe 18/19, Alexander Mai, Uni Augsburg	3010		
Spektralnorm von $A^{-1}$	$ \| A^{-1} \| _2$		Numerik I	Definition / Formel	Lineare Gleichungssysteme	$$= \frac {1}{\big(\min \limits_{\lambda_i \in \sigma(A^T A)} \lambda_i \big)^{1/2}}$$					Wobei $\sigma(A)$ das Spektrum der quadratischen Matrix $A$ ist, also die Eigenwerte der Matrix $A .$							Daniel Peterseim, Numerik, WiSe 18/19, Alexander Mai, Uni Augsburg	3011		
Fehler $e$ und Residuum $r$ einer Näherungslösung $\hat{x}$ des LGS $Ax=b$ mit der exakten Lösung $x$	$e = x - \hat{x}, r = b - A \hat{x}$		Numerik I	Definition	Lineare Gleichungssysteme													Daniel Peterseim, Numerik, WiSe 18/19, Alexander Mai, Uni Augsburg	3012		
Kondition einer Matrix	$\kappa(A)$		Numerik I	Definition / Formel	Lineare Gleichungssysteme	$$:= \| A \| \cdot \| A^{-1} \| $$		Die Matrix muss invertierbar sein, sonst ist offensichtlich keine Kondition zu errechnen.<br/>$\kappa(A) \ge 1$ für alle Matrizen.<br/>Ist $\kappa(A) \approx 1 ,$ spricht man von einer gut konditionierten Matrix, und ist $\kappa(A) \gg 1 ,$ so ist $A$ schlecht konditioniert (also die Lösung des LGS der Form $Ax = b$ wird anfälliger für Störungen und dadurch auch anfälliger für Rundungsfehler (Rundungen sind Störungen) beim Lösen mittels Computer).	Auch bekannt als <b>Konditionszahl</b>.									Daniel Peterseim, Numerik, WiSe 18/19, Alexander Mai, Uni Augsburg	3013		
$LR$-Zerlegung	Ist der Gaußsche Algorithmus für $A \in \mathbb{R}^{n \times n}$ durchführbar, so $\exists L, R \in \mathbb{R}^{n \times n},$ sodass $PA = LR ,$ mit $L$ ist untere Dreiecksmatrix mit $1$ern auf der Hauptdiagonalen, $R$ ist obere Dreiecksmatrix.		Numerik I	Satz / Definition	Lineare Gleichungssysteme		$LR$-Zerlegung scheint zunächst nicht sinnvoller als das normale Verfahren zu sein, bei dem man zuerst klassisch per Gaußalgorithmus die Matrix in obere Dreiecksform bringt und dabei $b$ mitgaußt und dann nach $x$ auflöst. Durch die $LR$-Zerlegung kann jetzt aber mit der Vorwärts- und Rückwärtselimination nach $x$ aufgelöst werden für beliebiges $b .$ Es muss also nicht nochmal $b$ nachgegaußt werden.	Führt man beim Gaußschen Algorithmus eine Spaltenpivotsuche durch, ist die Zerlegung $PA = LR ,$ wobei $P$ die Zeilen von $A$ vertauscht. Ohne Spaltenpivotsuche ist $P$ die Einheitsmatrix, also ist die Zerlegung $A = LR$		$\begin{pmatrix} 2&1&1 \\ 4&1&0 \\ -2&2&1 \end{pmatrix} \rightarrow \begin{pmatrix} 2&1&1 \\ saved(2)&-1&-2 \\ saved(-1)&3&2 \end{pmatrix} \rightarrow \begin{pmatrix} 2&1&1 \\ saved(2)&-1&-2 \\ saved(-1)&saved(-3)&-4 \end{pmatrix} \Rightarrow \underbrace{\begin{pmatrix} 1&0&0 \\ 2&1&0 \\ -1&-3&1 \end{pmatrix}}_{L} \cdot \underbrace{\begin{pmatrix} 2&1&1 \\ 0&-1&-2 \\ 0&0&-4 \end{pmatrix}}_{R} = \begin{pmatrix} 2&1&1 \\ 4&1&0 \\ -2&2&1 \end{pmatrix}$								Daniel Peterseim, Numerik, WiSe 18/19, Alexander Mai, Uni Augsburg	3014		
Vorwärts- und Rückwärtselimination nach $LR$-Zerlegung	Löse $Ax=b$ durch $Ly = b ,$ dann $Rx = y$		Numerik I	Formel	Lineare Gleichungssysteme			Falls $PA = LR ,$ mit $P$ ist Zeilenvertauschende Permutationsmatrix, dann löse auf durch $Ly = Pb$ und dann $Rx = y$										Daniel Peterseim, Numerik, WiSe 18/19, Alexander Mai, Uni Augsburg	3015	C1	
Matrix $A$ symmetrisch	$A^T = A$		Numerik I	Definition	Lineare Gleichungssysteme			Die Matrix muss offensichtlich quadratisch sein.										Daniel Peterseim, Numerik, WiSe 18/19, Alexander Mai, Uni Augsburg	3016		
Matrix $A$ positiv definit	$\forall x \in \mathbb{R}^n, x \neq 0: x^T A x = \langle x, Ax \rangle _2 &gt; 0$		Numerik I	Definition	Lineare Gleichungssysteme			Eine Matrix ist auch genau dann positiv definit, wenn alle ihre Eigenwerte echt positiv sind.<br/>Die Matrix muss offensichtlich quadratisch sein.										Daniel Peterseim, Numerik, WiSe 18/19, Alexander Mai, Uni Augsburg	3017		
$LR$-Zerlegung von symmetrischer, positiv definiter Matrix $A$	$A = LR = LDL^T$		Numerik I	Satz / Definition	Lineare Gleichungssysteme			Eine symmetrische Matrix ist genau dann positiv definit, wenn der Gaußsche Algorithmus ohne Pivotsuche durchführbar ist und die entstehende obere Dreiecksmatrix positive Diagonalelemente hat.										Daniel Peterseim, Numerik, WiSe 18/19, Alexander Mai, Uni Augsburg	3018		
Cholesky-Zerlegung	$A = CC^T ,$ $C = LD^{1/2}$ untere Dreiecksmatrix, $A$ ist symmetrisch und positiv definit, also zerlegbar in $LDL^T .$		Numerik I	Satz / Definition	Lineare Gleichungssysteme						Nach <b>André-Louis Cholesky</b> (🇫🇷 1875-1918).							Daniel Peterseim, Numerik, WiSe 18/19, Alexander Mai, Uni Augsburg	3019		
Jacobi-Verfahren	$A$ habe die Darstellung $A = L + D + R$ mit $L$ untere Dreiecksmatrix, $D$ Diagonalmatrix, $R$ obere Dreiecksmatrix, $L, R$ haben nur $0$er auf der Hauptdiagonalen, $D$ invertierbar. Dann iteriere $x^{(i+1)} = x^{(i)} + D^{-1} (b - Ax^{(i)}), \; i = 1, 2, \ldots ,$ mit $x^{(0)}$ gegeben		Numerik I	Definition / Formel	Lineare Gleichungssysteme	Komponentenweise gilt $x_k^{(i+1)} = x_k^{(i)} + \frac{1}{a_{kk}} \left( b_k - \sum \limits_{j = 1}^n a_{kj} x_j^{(i)} \right) = \frac{1}{a_{kk}} \left( b_k - \sum \limits_{j = 1 \atop j \neq k}^n a_{kj} x_j^{(i)} \right)$ sowie $= \frac{1}{a_{kk}} \left( b_k - \sum \limits_{j &lt; k} a_{kj} x_j^{(i)} - \sum \limits_{j &gt; k} a_{kj} x_j^{(i)} \right) ,$ für $k = 1, \ldots , n$ und $i = 1, 2, \ldots$		Das Jacobi-Verfahren konvergiert, wenn die Matrix $A$ strikt diagonaldominant ist.	Auch bekannt als <b>Gesamtschritt-Verfahren</b>, da es vom Schritt davor abhängt.		Nach <b>Carl Gustav Jacob Jacobi</b> (🇩🇪 1804-1851).							Daniel Peterseim, Numerik, WiSe 18/19, Alexander Mai, Uni Augsburg	3020		
Matrix $A$ strikt diagonaldominant	$A \in \mathbb{R}^{n \times n}$ mit $\forall i: \sum \limits_{j = 1 \atop j \neq i}^n | a_{ij} | &lt; | a_{ii} |$		Numerik I	Definition	Lineare Gleichungssysteme		Der Betrag des Diagonaleintrags jeder Zeile der Matrix ist also größer als die Summe der Beträge der restlichen Einträge der jeweiligen Zeile.											Daniel Peterseim, Numerik, WiSe 18/19, Alexander Mai, Uni Augsburg	3021		
Gauß-Seidel-Verfahren	$A$ habe die Darstellung $A = L + D + R$ mit $L$ untere Dreiecksmatrix, $D$ Diagonalmatrix, $R$ obere Dreiecksmatrix, $L, R$ haben nur $0$er auf der Hauptdiagonalen. Dann iteriere $x^{(i+1)} = x^{(i)} + (L + D)^{-1} (b - Ax^{(i)}), \; i = 1, 2, \ldots ,$ mit $x^{(0)}$ gegeben		Numerik I	Definition / Formel	Lineare Gleichungssysteme	Komponentenweise gilt $x_k^{(i+1)} = \frac{1}{a_{kk}} \left( b_k - \sum \limits_{j &lt; k} a_{kj} x_j^{(i + 1)} - \sum \limits_{j &gt; k} a_{kj} x_j^{(i)} \right) ,$ für $k = 1, \ldots , n$ und $i = 1, 2, \ldots$		Gauß-Seidel konvergiert, wenn die Matrix $A$ strikt diagonaldominant ist.	Auch bekannt als <b>Einzelschritt-Verfahren</b>, da $x_k^{(i+1)}$ von $x_j^{(i+1)}$ abhängt.		Nach <b>Philipp Ludwig</b> Ritter <b>von Seidel</b> (🇩🇪 1821-1896).							Daniel Peterseim, Numerik, WiSe 18/19, Alexander Mai, Uni Augsburg	3022		
Spektralradius von $C \in \mathbb{C}^{n \times n}$	$\rho (C)$		Numerik I	Definition	Lineare Gleichungssysteme	$\max \limits_{\lambda \in \sigma (C)} | \lambda |$, also der Betrag des betragsmäßig größten Eigenwerts $\lambda \in \mathbb{C}$ von $C .$												Daniel Peterseim, Numerik, WiSe 18/19, Alexander Mai, Uni Augsburg	3023		
Quadratische Konvergenz einer Iterierten zur Lösung	iteriere $x$ durch $x^{(k)} ,$ $\exists C &gt; 0 \;\; \forall k \in \mathbb{N}: \| x - x^{(k + 1)} \| \le C \| x - x^{(k)} \| ^2$		Numerik I	Definition	Lineare Gleichungssysteme													Daniel Peterseim, Numerik, WiSe 18/19, Alexander Mai, Uni Augsburg	3024		
#																					
#Name	Beschreibung	X Notizen	Vorlesung	Typ	Themenbereich	Formel	Interpretation	FunFacts	Trivia	Beispiele	Lesehinweis	Extras	Literaturhinweis	Übersetzung	X Lernhinweis (F)	X Lernhinweis (B)	Illustration	Tags	ID	einseitig	Priorität
Element bester Approximation an $x \in V$	$V$ normierter reeller VR, $M$ Unterraum, $y^\ast \in M, \forall y \in M: \| x - y^\ast \| \le \| x - y \| $		Numerik I	Definition	Lineare Ausgleichsprobleme			Wird die Norm von $V$ durch ein Skalarprodukt $\langle \cdot , \cdot \rangle$ induziert, dann ist $y^\ast \in M$ genau dann ein Element bester Approximation an $x \in V ,$ wenn $$\forall v \in M: \langle x - y^\ast, v \rangle = 0$$										Daniel Peterseim, Numerik, WiSe 18/19, Alexander Mai, Uni Augsburg	4001		
Normalengleichungssystem	$\sum \limits_{i=1}^n a_i \langle v_i, v_j \rangle = \langle x , v_j \rangle, \quad j = 1, \ldots , n$		Numerik I	Definition / Formel	Lineare Ausgleichsprobleme	Ist $v_1, \ldots , v_n$ eine Basis vom endlichdimensionalen UR $M \subset V ,$ dann erfüllt $(a_i)_{i=1}^n$ das Normalengleichungssystem genau dann, wenn $\sum \limits_{i=1}^n a_i v_i =: y \in M$ ein Element bester Approximation an $x \in V$ ist.<br/>$\sum \limits_{i=1}^n a_i \langle v_i, v_j \rangle = \sum \limits_{i=1}^n \langle a_i v_i, v_j \rangle = \langle y , v_j \rangle$												Daniel Peterseim, Numerik, WiSe 18/19, Alexander Mai, Uni Augsburg	4002		
Monom	ein Polynom, das aus nur einem Glied besteht		Numerik I	Definition	Lineare Ausgleichsprobleme		Ein Monom ist also ein Produkt, bestehend aus einem Koeffizienten und Potenzen von einer, selten auch mehreren Variablen.	Die Monome $1, X, X^2, X^3, \ldots , X^n$ bilden eine Basis des Polynomrings $K_n[X]$	Als Monom werden manchmal auch nur die Produkte der Variablen bezeichnet, also ohne Koeffizienten.	$a,\ x^2,\ 7b \cdot a,\ -5b^4 a^2$								Daniel Peterseim, Numerik, WiSe 18/19, Alexander Mai, Uni Augsburg	4003		
Hilbertmatrix	Matrix $M$ mit $M_{ij} = \frac{1}{i+j-1}$ 		Numerik I	Definition	Lineare Ausgleichsprobleme			Die Hilbertmatrix $H$ ist ein oft angegebenes Beispiel für eine schlecht konditionierte Matrix. Ihre Kondition wächst stark mit der Dimension, weswegen mit wachsender Dimension die Berechnung von $Hx = b$ mittels Computer immer fehlerhafter wird.			Nach <b>David Hilbert</b> (🇩🇪 1862-1943).							Daniel Peterseim, Numerik, WiSe 18/19, Alexander Mai, Uni Augsburg	4004		
Abstandsmaß zwischen Funktion und Werten zu Stützstellen	$\sum \limits_{i=1}^n | f(x_i) - \varphi(x_i) |^2$		Numerik I	Definition	Lineare Ausgleichsprobleme													Daniel Peterseim, Numerik, WiSe 18/19, Alexander Mai, Uni Augsburg	4005		
Lineares Ausgleichsproblem	Gegeben sei eine ($n \times m$)-Matrix $A$ mit $n \ge m ,$ gesucht ist die beste Approximation eines Vektors $b \in \mathbb{R}^n$ durch eine Linearkombination der Spalten von $A$		Numerik I	Definition	Lineare Ausgleichsprobleme	Wir suchen also einen Vektor $x^\ast$ mit $$ \| Ax^\ast - b \| _2 \le \| Ax - b \| _2, \; \forall x \in \mathbb{R}^m$$												Daniel Peterseim, Numerik, WiSe 18/19, Alexander Mai, Uni Augsburg	4006		
$QR$-Zerlegung	Zerlegung einer Matrix $A \in \mathbb{R}^{n \times m}$ in $A = QR ,$ mit $Q \in \operatorname{O}(n)$ und $R$ obere Dreiecksmatrix $\in \mathbb{R}^{n \times m}$		Numerik I	Definition	Lineare Ausgleichsprobleme			Die ersten $k \le m$ Spalten von $A$ lassen sich durch die ersten $k$ Spalten von $Q$ darstellen.<br/>$\operatorname{Rang}(A) = \operatorname{Rang}(R)$<br/>Hat $A$ vollen Rang $m ,$ so sind die ersten $m$-Spalten von $Q$ bis auf Vorzeichen eindeutig bestimmt.			$\operatorname{O}(n)$ ist die Gruppe der orthogonalen $n \times n$-Matrizen.							Daniel Peterseim, Numerik, WiSe 18/19, Alexander Mai, Uni Augsburg	4007		
Householder-Transformation	Lineare Abbildung im $\mathbb{R}^n ,$ die den Raum an einer Hyperebene spiegelt, die orthogonal zu einem beliebigen Vektor $v \in \mathbb{R}^n$ steht		Numerik I	Definition / Formel	Lineare Ausgleichsprobleme	Ist $v$ normiert, also $ \| v \| _2 = 1 ,$ so ist $$H_v(x) = x - 2 \langle x, v \rangle v$$	$\forall v \in \{ v \in \mathbb{R}^n \; | \; \| v \| _2 = 1 \}, \; \forall x \in \mathbb{R}^n$ gilt $\operatorname{H_v}^2(x) = id ,$ also ist $\operatorname{H_v}(x)$ eine Spiegelung.	Die Hyperebene, an der gespiegelt wird und orthogonal auf $v$ steht, lässt sich beschreiben durch $H_v = \{ x \in \mathbb{R}^n \; | \; \langle x, v \rangle = 0 \}$			Nach <b>Alston Scott Householder</b> (🇺🇸 1904-1993).							Daniel Peterseim, Numerik, WiSe 18/19, Alexander Mai, Uni Augsburg	4008		
Matrixdarstellung der Householder-Transformation	$\operatorname{H_v} (x) = (\mathbb{I}_n - 2 v v^T) x$		Numerik I	Definition / Formel	Lineare Ausgleichsprobleme													Daniel Peterseim, Numerik, WiSe 18/19, Alexander Mai, Uni Augsburg	4009		
Lösung mit kürzester euklidischer Länge für ein Ausgleichsproblem	$x^\ast$  als Lösung eines Problems, wenn $ \| x^\ast \| _2 \le \| x \| _2$ für alle $x ,$ die Lösung des gleichen Problems sind		Numerik I	Definition	Lineare Ausgleichsprobleme		Bei linearen Ausgleichsproblemen gibt es genau einen Vektor $x^\ast$ kürzester euklidischer Länge unter allen $x \in \mathbb{R}^n$ mit $ \| Ax - b \| _2 = \min \limits_{y \in \mathbb{R}^n} \| Ay - b \| _2$	Ist $A^+$ die Pseudoinverse von $A \in \mathbb{R}^{n \times m}$ und $b \in \mathbb{R}^n ,$ so ist $x^\ast = A^+ b$ der Vektor kürzester euklidischer Länge, der $ \| Ax - b \| _2$ minimiert.										Daniel Peterseim, Numerik, WiSe 18/19, Alexander Mai, Uni Augsburg	4010		
Singulärwertzerlegung	Zu jeder $(n \times m)$-Matrix $A ,$ $n \ge m ,$ gibt es eine orthogonale Matrix $U \in \operatorname{O}(n)$ und eine orthogonale Matrix $V \in \operatorname{O}(m)$ und eine diagonale $(n \times m)$-Matrix $D$ mit $A = U D V^T .$		Numerik I	Definition / Satz	Lineare Ausgleichsprobleme			Der Spektralsatz sagt, dass sich jede symmetrische Matrix $A \in \mathbb{R}^{n \times n}$ in der Form $A = U D U^T$ und einer Orthogonalmatrix $U$ und Diagonalmatrix $D$ schreiben lässt. Die SWZ kann also als Verallgemeinerung des Spektralsatzes verstanden werden.<br/>$D$ ist eindeutig bestimmt, $U$ und $V$ aber im Allgemeinen nicht.										Daniel Peterseim, Numerik, WiSe 18/19, Alexander Mai, Uni Augsburg	4011		
Singulärwerte von $A \in \mathbb{R}^{n \times m}$	eindeutig bestimmte Diagonaleinträge $\sigma_1, \ldots , \sigma_n$ von $D$ in SWZ $A = U D V^T$		Numerik I	Definition	Lineare Ausgleichsprobleme													Daniel Peterseim, Numerik, WiSe 18/19, Alexander Mai, Uni Augsburg	4012		
Pseudoinverse einer Diagonalmatrix $D \in \mathbb{R}^{n \times m}$	$D^+$		Numerik I	Definition	Lineare Ausgleichsprobleme	Sind $d_i$ die Diagonaleinträge von $D ,$ dann sind die Diagonaleinträge $\delta_i$ von $D^+$ definiert als $$\delta_i = \begin{cases} \frac{1}{d_i}, \quad d_i \neq 0 \\0, \quad d_i = 0 \end{cases}$$												Daniel Peterseim, Numerik, WiSe 18/19, Alexander Mai, Uni Augsburg	4013		
Pseudoinverse einer allgemeinen Matrix $A \in \mathbb{R}^{n \times m}$	$A^+$		Numerik I	Definition	Lineare Ausgleichsprobleme	Ist $A = U D V^T$ Singulärwertzerlegung von $A ,$ dann ist $$A^+ = V D^+ U^T$$		Jede Matrix hat genau eine Pseudoinverse.										Daniel Peterseim, Numerik, WiSe 18/19, Alexander Mai, Uni Augsburg	4014		
Ultimative Lösung von $\min \limits_{x \in \mathbb{R}^m} \| Ax - b \| _2$ mit $x$ kürzester euklidischer Länge	Ist $A^+$ die Pseudoinverse von $A \in R^{n \times m}$ und $b \in \mathbb{R}^n ,$ so ist $x^\ast = A^+ b$ der Vektor kürzester euklidischer Länge, der $ \| Ax - b \| _2$ minimiert		Numerik I	Trick / Formel	Lineare Ausgleichsprobleme			Hat $A$ vollen Rang, so gilt $A^+ = (A^T A)^{-1} A^T ,$ also muss keine Singulärwertzerlegung durchgeführt werden, um $A^+$ zu berechnen.										Daniel Peterseim, Numerik, WiSe 18/19, Alexander Mai, Uni Augsburg	4015		
Alternative Darstellung der Singulärwertzerlegung	$A = U D V^T = \sum \limits_{i = 1}^m \sigma_i u_i v_i^T$		Numerik I	Definition	Lineare Ausgleichsprobleme			Die bestmögliche Approximation der $n \times m$-Matrix $A$ mit Singulärwertzerlegung $A = \sum \limits_{i = 1}^{\min (m,n)}\sigma_i u_i v_i^T$ mit $\sigma_1 \ge \sigma_2 \ge \ldots \ge \sigma_{\min (m,n)} \ge 0$ durch eine Matrix $B$ vom Rang $k \le \min (m,n)$ im Sinne der Frobeniumsnorm ist $B^\ast = \sum_{i=1}^k \sigma_i u_i v_i^T$ Das ist z.B. zur Bildkompression einsetzbar, da offensichtlich die ersten paar Singulärwerte den größten Informationsgehalt tragen.			$A = U D V^T$ ist eine SWZ von $A ,$ $u_i$ ist die $i$-te Spalte von $U ,$ $v_i^T$ ist die $i$-te Spalte von $V ,$ diese dann zu einem Zeilenvektor transponiert.							Daniel Peterseim, Numerik, WiSe 18/19, Alexander Mai, Uni Augsburg	4016		
Frobeniusnorm	$ \| A \| _F$		Numerik I	Definition	Lineare Ausgleichsprobleme	$$:= \sqrt{\sum \limits_{i=1}^n \sum \limits_{j=1}^m a_{ij}^2}$$	Also alle Matrixeinträge quadrieren, aufsummieren und davon die Wurzel.				Nach <b>Ferdinand Georg Frobenius</b> (🇩🇪 1849-1917).							Daniel Peterseim, Numerik, WiSe 18/19, Alexander Mai, Uni Augsburg	4017		
#																					
#Name	Beschreibung	X Notizen	Vorlesung	Typ	Themenbereich	Formel	Interpretation	FunFacts	Trivia	Beispiele	Lesehinweis	Extras	Literaturhinweis	Übersetzung	X Lernhinweis (F)	X Lernhinweis (B)	Illustration	Tags	ID	einseitig	Priorität
Interpolation	Zu gegebenen diskreten Daten, z.B. Messwerten, soll eine stetige Funktion gefunden werden, die diese Daten abbildet		Numerik I	Definition	Interpolation				Diese stetige Funktion heißt dann <b>Interpolierende</b> und man sagt, dann, die Funktion <b>interpoliert</b> die Daten.									Daniel Peterseim, Numerik, WiSe 18/19, Alexander Mai, Uni Augsburg	5001		
Eindeutiges Polynom mit Lagrangeschen Grundpolynomen zu paarweise verschiedenen Stützstellen $x_0, \ldots , x_n \in \mathbb{R}$ und in $x_j$ vorgegebenen Werten $f_j$	$P(x) = \sum \limits_{j = 0}^n f_j l_j(x)$		Numerik I	Definition	Interpolation			Sind die Stützstellen $x_0, \ldots , x_n \in \mathbb{R}$ paarweise verschieden, dann gibt es ein eindeutig bestimmtes Polynom $P(x) = \sum \limits_{j = 0}^n a_i x^i$ vom Grad $\le n ,$ das in den Stützstellen $x_j$ vorgegebene Werte $f_j$ annimmt<br/>durch die Lagrangeschen Grundpolynome gilt $P(x_k) = \sum \limits_{j = 0}^n f_j l_j(x_k) = \sum \limits_{j = 0}^n f_j \lambda _{jk} = f_k, \; k = 0, \ldots, n$										Daniel Peterseim, Numerik, WiSe 18/19, Alexander Mai, Uni Augsburg	5002		
Lagrangesches Grundpolynom $l_j(x)$ zu Stützstellen $x_0, \ldots , x_n \in \mathbb{R}$	$\prod \limits_{i = 0 \atop i \neq j}^n \frac{x - x_i}{x_j - x_i}$		Numerik I	Definition/Formel	Interpolation			Es ist $l_j(x_j) = 1$ und $l_j(x_k) = 0$ für $k \neq j$			$j \in \{ 0, \ldots, n \}$<br>Nach <b>Joseph-Louis</b> de <b>Lagrange</b> (🇮🇹 1736-1813).							Daniel Peterseim, Numerik, WiSe 18/19, Alexander Mai, Uni Augsburg	5003		
Eindeutiges Polynom in Newtonscher Darstellung zu paarweise verschiedenen Stützstellen $x_0, \ldots , x_n \in \mathbb{R}$ und in $x_j$ vorgegebenen Werten $f_j$	$P(x) = a_0 + \sum \limits_{i = 1}^n a_i \prod \limits_{j = 0}^{i - 1} (x - x_j)$		Numerik I	Definition/Formel	Interpolation			Für $P_m (x) = a_0 + \sum \limits_{i = 1}^m a_i \prod \limits_{j = 0}^{i - 1} (x - x_j)$ gelte $P_m (x_k) = f_k, \; k = 0, \ldots , m ,$ dann gilt für jedes Polynom $P_{m +1} (x) = P_m (x) + a \prod \limits_{j = 0}^m (x - x_j)$ für $k = 0, \ldots , m$: $P_{m+1}(x_k) = f_k ,$ wähle also $a$ passend, sodass $P_{m+1}(x_{m+1}) = f_{m+1}$<br/>Effiziente Bestimmung von $P_n(x)$ für $x \neq x_j$ mit dem Horner-Schema: Bestimme $S_n = f[x_0, \ldots , x_n]$ und rekursiv $S_i = f[x_0, \ldots , x_{i-1}] + (x - x_i) S_{i+1} ,$ dann ist $P_n(x) = S_0$			Wähle für die Koeffizienten die entsprechende dividierte Differenz, also $a_i = f[x_0, \ldots , x_i]$ 							Daniel Peterseim, Numerik, WiSe 18/19, Alexander Mai, Uni Augsburg	5004		
Dividierte Differenz	$f[x_k, \ldots , x_i]$ mit $0 \le k &lt; i \le n$		Numerik I	Definition/Formel	Interpolation	$$:= \frac{f[x_{k + 1}, \ldots , x_i] - f[x_k, \ldots , x_{i -1}]}{x_i - x_k}$$ und $$f[x_i] = f_i$$	Finden Verwendung als Koeffizienten in der Newtonschen Darstellung für interpolierende Polynome.	Die dividierte Differenz $f[x_0, \ldots , x_m]$ ist von der Anordnung der Stützstellen unabhängig.										Daniel Peterseim, Numerik, WiSe 18/19, Alexander Mai, Uni Augsburg	5005		
Fehler der besten Approximation	$E_n (f)$		Numerik I	Definition	Interpolation	$$:= \inf \big \{\max \limits_{a \le x \le b} | f(x) - P(x) | \; \big | \; P \text{ Polynom von Grad $\le n$ } \big \}$$												Daniel Peterseim, Numerik, WiSe 18/19, Alexander Mai, Uni Augsburg	5006		
Polynom vom Grad $\le n$ bester Approximation an $f$	Polynom $P$ mit $E_n(f) = \max \limits_{a \le x \le b} | f(x) - P(x) |$		Numerik I	Definition	Interpolation													Daniel Peterseim, Numerik, WiSe 18/19, Alexander Mai, Uni Augsburg	5007		
#																					
#Name	Beschreibung	X Notizen	Vorlesung	Typ	Themenbereich	Formel	Interpretation	FunFacts	Trivia	Beispiele	Lesehinweis	Extras	Literaturhinweis	Übersetzung	X Lernhinweis (F)	X Lernhinweis (B)	Illustration	Tags	ID	einseitig	Priorität
