Hallo Freund der Mathematik! Willkommen zum Optimierung I Deck! Das ist die Vorderseite einer Karte. Drücke mal auf den Knopf ganz unten.	Das ist die Rückseite einer Karte. Jetzt, wo du beide Seiten der Karte siehst, kannst du unten auf noch mehr Informationen zugreifen. Probier's mal aus!<br>Kurzer Hinweis: dieses und andere Decks findest du kostenfrei auf https://gitlab.com/CptMaister/Mathe-Maister/	Was in diesem Feld steht, ist auf den Karten unsichtbar *geheim*.	Optimierung I	Anleitung	Anki kennenlernen	Hier werden auf allen folgenden Karten Formeln stehen. Hinter allen Feldern verbirgt sich meistens das, was der Name verspricht. Die Felder erscheinen jedoch nur auf deiner Karte, wenn sie nicht leer sind.	Bis auf das Feld "Formel" dienen die extra-Felder als extra Informationen, die eher nicht als notwendig erachtet wurden fürs Auswendiglernen, sondern beim ersten Sehen der Karten beim Verständnis helfen sollen. Schau sie dir auf jeden Fall an, wenn du eine Karte zum ersten Mal siehst!	Du kannst, am Handy wie auch am Rechner, während dem Lernen bzw jederzeit den Inhalt dieser Felder, der Vorder- und Rückseite und auch unsichtbarer Felder ändern. Auf dem Handy einfach oben rechts auf die 3 Punkte klicken -> Notiz bearbeiten	Trivia: Hier wirst du alternative Schreibweisen finden	Beispiele: alle kommenden Karten sind Beispiele für dieses Layout!	Lesehinweis: Hier findest du Erklärungen zu Mengen etc, die auf dieser Karte benutzt wurden, aber schon so lange nicht mehr benutzt wurden, dass man hier nochmal an die Bedeutung erinnern wollte.	Extras: Dieses Feld ist selten befüllt und für dich zum Befüllen gedacht, falls du es brauchst. Diese Anleitungskarte braucht aber niemand auswendig lernen. Vielleicht möchtest du sie aber auch nicht löschen. In dem Fall solltest du (auf dem Handy) oben rechts auf die 3 Punkte gehen und dort auf "Notiz Aussetzen" (oder gleich "Notiz Löschen" (aber wenn du sie löschst, taucht sie wieder als neue Karte auf, wenn du danach irgendwann eine neue Version von diesem Deck runterlädtst!)). Ausgesetzte Karten erscheinen nicht mehr, können aber am Computer wieder angesehen und auch wieder nicht-ausgesetzt gemacht werden.		Hier kannst du dir die Übersetzung des Begriffs in deiner gewünschten Sprache notieren. Bei manchen Notizen wird hier die Übersetzung angezeigt, die namensgebend für die Abkürzung ist (wie etwa im Lineare Algebra I Deck bei GL(n, K) für General Linear Group).			<img src="testbild.svg" />	TobiasHarks Optimierung SoSe18 AlexanderMai UniAugsburg	1	K1	1
#																					
#Name	Beschreibung	X Notizen	Vorlesung	Typ	Themenbereich	Formel	Interpretation	FunFacts	Trivia	Beispiele	Lesehinweis	Extras	Literaturhinweis	Übersetzung	X Lernhinweis (F)	X Lernhinweis (B)	Illustration	Tags	ID	einseitig	Priorität
