{
    "model_id": 296741328,
    "model_name": "Mathe-Maister",
    "deck_id": 126215392,
    "deck_description": "Pizzaseminar zu Differentialformen bei Felix Stärk und David Buchberger, nachm WiSe 18/19, Uni Augsburg.\nGeplant sind alle wichtigen Defintionen und Sätze der Vorträge.\n\nalex.m.s@gmx.de für Fragen und Änderungsvorschläge.\noder gitlab.com/CptMaister\n\nBesonderen Dank an Konstantin!",
    "deck_name": " Mathe-Maister::Seminar Differentialformen",
    "start_note_id": 803280511,
    "start_card_id": 654695139,
    "guid_random_string": "ibiz3",
    "image_dir": "Seminar-Differentialformen"
}
