{
    "model_id": 921869676,
    "model_name": "Mathe-Maister",
    "deck_id": 529364257,
    "deck_description": "Einführung in die Topologie bei Prof Bernhard Hanke, SoSe 19, Uni Augsburg.\n\nalex.m.s@gmx.de für Fragen und Änderungsvorschläge.\noder gitlab.com/CptMaister",
    "deck_name": " Mathe-Maister::Topologie",
    "start_note_id": 504806526,
    "start_card_id": 392301519,
    "guid_random_string": "ME0Bl",
    "image_dir": "Topologie"
}
